2021-06-27 19:06:41,088 DEBUG scheduler Queued events for site fhts.com
2021-06-27 19:07:41,304 DEBUG scheduler Queued events for site fhts.com
2021-06-27 19:08:41,734 DEBUG scheduler Queued events for site fhts.com
2021-06-27 19:08:41,776 INFO scheduler Scheduled Job Start: frappe.monitor.flush for fhts.com
2021-06-27 19:08:41,948 INFO scheduler Scheduled Job Complete: frappe.monitor.flush for fhts.com
2021-06-27 19:08:42,025 INFO scheduler Scheduled Job Start: frappe.utils.global_search.sync_global_search for fhts.com
2021-06-27 19:08:42,213 INFO scheduler Scheduled Job Complete: frappe.utils.global_search.sync_global_search for fhts.com
2021-06-27 19:08:42,280 INFO scheduler Scheduled Job Start: frappe.integrations.doctype.razorpay_settings.razorpay_settings.capture_payment for fhts.com
2021-06-27 19:08:42,647 INFO scheduler Scheduled Job Complete: frappe.integrations.doctype.razorpay_settings.razorpay_settings.capture_payment for fhts.com
2021-06-27 19:08:42,713 INFO scheduler Scheduled Job Start: frappe.email.doctype.email_account.email_account.notify_unreplied for fhts.com
2021-06-27 19:08:43,079 INFO scheduler Scheduled Job Complete: frappe.email.doctype.email_account.email_account.notify_unreplied for fhts.com
2021-06-27 19:08:43,145 INFO scheduler Scheduled Job Start: frappe.email.doctype.email_account.email_account.pull for fhts.com
2021-06-27 19:08:43,525 INFO scheduler Scheduled Job Complete: frappe.email.doctype.email_account.email_account.pull for fhts.com
2021-06-27 19:08:43,602 INFO scheduler Scheduled Job Start: frappe.email.queue.flush for fhts.com
2021-06-27 19:08:43,924 INFO scheduler Scheduled Job Complete: frappe.email.queue.flush for fhts.com
2021-06-27 19:09:41,943 DEBUG scheduler Queued events for site fhts.com
2021-06-27 19:10:42,195 DEBUG scheduler Queued events for site fhts.com
2021-06-27 19:11:42,413 DEBUG scheduler Queued events for site fhts.com
2021-06-27 19:12:42,643 DEBUG scheduler Queued events for site fhts.com
2021-06-27 19:12:42,674 INFO scheduler Scheduled Job Start: frappe.monitor.flush for fhts.com
2021-06-27 19:12:42,855 INFO scheduler Scheduled Job Complete: frappe.monitor.flush for fhts.com
2021-06-27 19:12:42,933 INFO scheduler Scheduled Job Start: frappe.utils.global_search.sync_global_search for fhts.com
2021-06-27 19:12:43,088 INFO scheduler Scheduled Job Complete: frappe.utils.global_search.sync_global_search for fhts.com
2021-06-27 19:12:43,168 INFO scheduler Scheduled Job Start: frappe.integrations.doctype.razorpay_settings.razorpay_settings.capture_payment for fhts.com
2021-06-27 19:12:43,508 INFO scheduler Scheduled Job Complete: frappe.integrations.doctype.razorpay_settings.razorpay_settings.capture_payment for fhts.com
2021-06-27 19:12:43,570 INFO scheduler Scheduled Job Start: frappe.email.doctype.email_account.email_account.notify_unreplied for fhts.com
2021-06-27 19:12:43,903 INFO scheduler Scheduled Job Complete: frappe.email.doctype.email_account.email_account.notify_unreplied for fhts.com
2021-06-27 19:12:43,966 INFO scheduler Scheduled Job Start: frappe.email.doctype.email_account.email_account.pull for fhts.com
2021-06-27 19:12:44,246 INFO scheduler Scheduled Job Complete: frappe.email.doctype.email_account.email_account.pull for fhts.com
2021-06-27 19:12:44,308 INFO scheduler Scheduled Job Start: frappe.email.queue.flush for fhts.com
2021-06-27 19:12:44,640 INFO scheduler Scheduled Job Complete: frappe.email.queue.flush for fhts.com
2021-06-27 19:13:42,883 DEBUG scheduler Queued events for site fhts.com
2021-06-27 19:14:43,111 DEBUG scheduler Queued events for site fhts.com
2021-06-27 19:15:43,330 DEBUG scheduler Queued events for site fhts.com
2021-06-27 19:15:43,379 INFO scheduler Scheduled Job Start: frappe.twofactor.delete_all_barcodes_for_users for fhts.com
2021-06-27 19:15:43,889 INFO scheduler Scheduled Job Complete: frappe.twofactor.delete_all_barcodes_for_users for fhts.com
2021-06-27 19:15:44,021 INFO scheduler Scheduled Job Start: frappe.website.doctype.web_page.web_page.check_publish_status for fhts.com
2021-06-27 19:15:44,420 INFO scheduler Scheduled Job Complete: frappe.website.doctype.web_page.web_page.check_publish_status for fhts.com
2021-06-27 19:15:44,529 INFO scheduler Scheduled Job Start: frappe.oauth.delete_oauth2_data for fhts.com
2021-06-27 19:15:45,067 INFO scheduler Scheduled Job Complete: frappe.oauth.delete_oauth2_data for fhts.com
2021-06-27 19:16:43,573 DEBUG scheduler Queued events for site fhts.com
2021-06-27 19:16:43,604 INFO scheduler Scheduled Job Start: frappe.monitor.flush for fhts.com
2021-06-27 19:16:43,797 INFO scheduler Scheduled Job Complete: frappe.monitor.flush for fhts.com
2021-06-27 19:16:43,893 INFO scheduler Scheduled Job Start: frappe.utils.global_search.sync_global_search for fhts.com
2021-06-27 19:16:44,097 INFO scheduler Scheduled Job Complete: frappe.utils.global_search.sync_global_search for fhts.com
2021-06-27 19:16:44,191 INFO scheduler Scheduled Job Start: frappe.integrations.doctype.razorpay_settings.razorpay_settings.capture_payment for fhts.com
2021-06-27 19:16:44,517 INFO scheduler Scheduled Job Complete: frappe.integrations.doctype.razorpay_settings.razorpay_settings.capture_payment for fhts.com
2021-06-27 19:16:44,581 INFO scheduler Scheduled Job Start: frappe.email.doctype.email_account.email_account.notify_unreplied for fhts.com
2021-06-27 19:16:44,883 INFO scheduler Scheduled Job Complete: frappe.email.doctype.email_account.email_account.notify_unreplied for fhts.com
2021-06-27 19:16:44,946 INFO scheduler Scheduled Job Start: frappe.email.doctype.email_account.email_account.pull for fhts.com
2021-06-27 19:16:45,319 INFO scheduler Scheduled Job Complete: frappe.email.doctype.email_account.email_account.pull for fhts.com
2021-06-27 19:16:45,385 INFO scheduler Scheduled Job Start: frappe.email.queue.flush for fhts.com
2021-06-27 19:16:45,610 INFO scheduler Scheduled Job Complete: frappe.email.queue.flush for fhts.com
2021-06-27 19:17:48,680 DEBUG scheduler Queued events for site fhts.com
2021-06-27 20:12:42,783 INFO scheduler Scheduled Job Start: frappe.email.doctype.newsletter.newsletter.send_scheduled_email for fhts.com
2021-06-27 20:12:42,829 DEBUG scheduler Queued events for site fhts.com
2021-06-27 20:12:44,333 INFO scheduler Scheduled Job Complete: frappe.email.doctype.newsletter.newsletter.send_scheduled_email for fhts.com
2021-06-27 20:12:45,860 INFO scheduler Scheduled Job Start: frappe.integrations.doctype.google_calendar.google_calendar.sync for fhts.com
2021-06-27 20:12:53,279 INFO scheduler Scheduled Job Complete: frappe.integrations.doctype.google_calendar.google_calendar.sync for fhts.com
2021-06-27 20:12:53,497 INFO scheduler Scheduled Job Start: frappe.desk.form.document_follow.send_hourly_updates for fhts.com
2021-06-27 20:12:53,893 INFO scheduler Scheduled Job Complete: frappe.desk.form.document_follow.send_hourly_updates for fhts.com
2021-06-27 20:12:54,126 INFO scheduler Scheduled Job Start: frappe.deferred_insert.save_to_db for fhts.com
2021-06-27 20:12:55,281 INFO scheduler Scheduled Job Complete: frappe.deferred_insert.save_to_db for fhts.com
2021-06-27 20:12:55,449 INFO scheduler Scheduled Job Start: frappe.desk.page.backups.backups.delete_downloadable_backups for fhts.com
2021-06-27 20:12:55,946 INFO scheduler Scheduled Job Complete: frappe.desk.page.backups.backups.delete_downloadable_backups for fhts.com
2021-06-27 20:12:56,124 INFO scheduler Scheduled Job Start: frappe.utils.error.collect_error_snapshots for fhts.com
2021-06-27 20:13:00,771 INFO scheduler Scheduled Job Complete: frappe.utils.error.collect_error_snapshots for fhts.com
2021-06-27 20:13:00,972 INFO scheduler Scheduled Job Start: frappe.model.utils.user_settings.sync_user_settings for fhts.com
2021-06-27 20:13:01,631 INFO scheduler Scheduled Job Complete: frappe.model.utils.user_settings.sync_user_settings for fhts.com
2021-06-27 20:13:01,794 INFO scheduler Scheduled Job Start: frappe.model.utils.link_count.update_link_count for fhts.com
2021-06-27 20:13:02,608 INFO scheduler Scheduled Job Complete: frappe.model.utils.link_count.update_link_count for fhts.com
2021-06-27 20:13:02,929 INFO scheduler Scheduled Job Start: frappe.monitor.flush for fhts.com
2021-06-27 20:13:03,315 INFO scheduler Scheduled Job Complete: frappe.monitor.flush for fhts.com
2021-06-27 20:13:03,406 INFO scheduler Scheduled Job Start: frappe.utils.global_search.sync_global_search for fhts.com
2021-06-27 20:13:03,726 INFO scheduler Scheduled Job Complete: frappe.utils.global_search.sync_global_search for fhts.com
2021-06-27 20:13:03,818 INFO scheduler Scheduled Job Start: frappe.integrations.doctype.razorpay_settings.razorpay_settings.capture_payment for fhts.com
2021-06-27 20:13:04,469 INFO scheduler Scheduled Job Complete: frappe.integrations.doctype.razorpay_settings.razorpay_settings.capture_payment for fhts.com
2021-06-27 20:13:04,534 INFO scheduler Scheduled Job Start: frappe.email.doctype.email_account.email_account.notify_unreplied for fhts.com
2021-06-27 20:13:05,044 INFO scheduler Scheduled Job Complete: frappe.email.doctype.email_account.email_account.notify_unreplied for fhts.com
2021-06-27 20:13:05,128 INFO scheduler Scheduled Job Start: frappe.email.doctype.email_account.email_account.pull for fhts.com
2021-06-27 20:13:05,775 INFO scheduler Scheduled Job Complete: frappe.email.doctype.email_account.email_account.pull for fhts.com
2021-06-27 20:13:05,843 INFO scheduler Scheduled Job Start: frappe.email.queue.flush for fhts.com
2021-06-27 20:13:06,149 INFO scheduler Scheduled Job Complete: frappe.email.queue.flush for fhts.com
2021-06-27 20:13:06,220 INFO scheduler Scheduled Job Start: frappe.twofactor.delete_all_barcodes_for_users for fhts.com
2021-06-27 20:13:06,696 INFO scheduler Scheduled Job Complete: frappe.twofactor.delete_all_barcodes_for_users for fhts.com
2021-06-27 20:13:06,884 INFO scheduler Scheduled Job Start: frappe.website.doctype.web_page.web_page.check_publish_status for fhts.com
2021-06-27 20:13:07,414 INFO scheduler Scheduled Job Complete: frappe.website.doctype.web_page.web_page.check_publish_status for fhts.com
2021-06-27 20:13:07,663 INFO scheduler Scheduled Job Start: frappe.oauth.delete_oauth2_data for fhts.com
2021-06-27 20:13:08,109 INFO scheduler Scheduled Job Complete: frappe.oauth.delete_oauth2_data for fhts.com
2021-06-27 20:13:43,045 DEBUG scheduler Queued events for site fhts.com
2021-06-27 20:14:43,299 DEBUG scheduler Queued events for site fhts.com
2021-06-27 20:15:43,652 DEBUG scheduler Queued events for site fhts.com
2021-06-27 20:15:43,717 INFO scheduler Scheduled Job Start: frappe.twofactor.delete_all_barcodes_for_users for fhts.com
2021-06-27 20:15:44,183 INFO scheduler Scheduled Job Complete: frappe.twofactor.delete_all_barcodes_for_users for fhts.com
2021-06-27 20:15:44,342 INFO scheduler Scheduled Job Start: frappe.website.doctype.web_page.web_page.check_publish_status for fhts.com
2021-06-27 20:15:44,978 INFO scheduler Scheduled Job Complete: frappe.website.doctype.web_page.web_page.check_publish_status for fhts.com
2021-06-27 20:15:45,121 INFO scheduler Scheduled Job Start: frappe.oauth.delete_oauth2_data for fhts.com
2021-06-27 20:15:45,561 INFO scheduler Scheduled Job Complete: frappe.oauth.delete_oauth2_data for fhts.com
2021-06-27 20:16:43,902 DEBUG scheduler Queued events for site fhts.com
2021-06-27 20:16:43,929 INFO scheduler Scheduled Job Start: frappe.monitor.flush for fhts.com
2021-06-27 20:16:44,127 INFO scheduler Scheduled Job Complete: frappe.monitor.flush for fhts.com
2021-06-27 20:16:44,234 INFO scheduler Scheduled Job Start: frappe.utils.global_search.sync_global_search for fhts.com
2021-06-27 20:16:44,381 INFO scheduler Scheduled Job Complete: frappe.utils.global_search.sync_global_search for fhts.com
2021-06-27 20:16:44,453 INFO scheduler Scheduled Job Start: frappe.integrations.doctype.razorpay_settings.razorpay_settings.capture_payment for fhts.com
2021-06-27 20:16:44,790 INFO scheduler Scheduled Job Complete: frappe.integrations.doctype.razorpay_settings.razorpay_settings.capture_payment for fhts.com
2021-06-27 20:16:44,854 INFO scheduler Scheduled Job Start: frappe.email.doctype.email_account.email_account.notify_unreplied for fhts.com
2021-06-27 20:16:45,221 INFO scheduler Scheduled Job Complete: frappe.email.doctype.email_account.email_account.notify_unreplied for fhts.com
2021-06-27 20:16:45,289 INFO scheduler Scheduled Job Start: frappe.email.doctype.email_account.email_account.pull for fhts.com
2021-06-27 20:16:45,588 INFO scheduler Scheduled Job Complete: frappe.email.doctype.email_account.email_account.pull for fhts.com
2021-06-27 20:16:45,654 INFO scheduler Scheduled Job Start: frappe.email.queue.flush for fhts.com
2021-06-27 20:16:45,948 INFO scheduler Scheduled Job Complete: frappe.email.queue.flush for fhts.com
2021-06-27 20:17:44,100 DEBUG scheduler Queued events for site fhts.com
2021-06-27 20:18:44,427 DEBUG scheduler Queued events for site fhts.com
2021-06-27 20:19:44,647 DEBUG scheduler Queued events for site fhts.com
2021-06-27 20:20:44,950 DEBUG scheduler Queued events for site fhts.com
2021-06-27 20:20:44,992 INFO scheduler Scheduled Job Start: frappe.monitor.flush for fhts.com
2021-06-27 20:20:45,316 INFO scheduler Scheduled Job Complete: frappe.monitor.flush for fhts.com
2021-06-27 20:20:45,446 INFO scheduler Scheduled Job Start: frappe.utils.global_search.sync_global_search for fhts.com
2021-06-27 20:20:45,747 INFO scheduler Scheduled Job Complete: frappe.utils.global_search.sync_global_search for fhts.com
2021-06-27 20:20:45,886 INFO scheduler Scheduled Job Start: frappe.integrations.doctype.razorpay_settings.razorpay_settings.capture_payment for fhts.com
2021-06-27 20:20:46,264 INFO scheduler Scheduled Job Complete: frappe.integrations.doctype.razorpay_settings.razorpay_settings.capture_payment for fhts.com
2021-06-27 20:20:46,361 INFO scheduler Scheduled Job Start: frappe.email.doctype.email_account.email_account.notify_unreplied for fhts.com
2021-06-27 20:20:46,826 INFO scheduler Scheduled Job Complete: frappe.email.doctype.email_account.email_account.notify_unreplied for fhts.com
2021-06-27 20:20:46,891 INFO scheduler Scheduled Job Start: frappe.email.doctype.email_account.email_account.pull for fhts.com
2021-06-27 20:20:47,256 INFO scheduler Scheduled Job Complete: frappe.email.doctype.email_account.email_account.pull for fhts.com
2021-06-27 20:20:47,413 INFO scheduler Scheduled Job Start: frappe.email.queue.flush for fhts.com
2021-06-27 20:20:47,793 INFO scheduler Scheduled Job Complete: frappe.email.queue.flush for fhts.com
2021-06-27 20:21:45,167 DEBUG scheduler Queued events for site fhts.com
2021-06-27 20:22:45,402 DEBUG scheduler Queued events for site fhts.com
2021-06-27 20:23:45,619 DEBUG scheduler Queued events for site fhts.com
2021-06-27 20:24:45,983 DEBUG scheduler Queued events for site fhts.com
2021-06-27 20:24:46,903 INFO scheduler Scheduled Job Start: frappe.monitor.flush for fhts.com
2021-06-27 20:24:48,375 INFO scheduler Scheduled Job Complete: frappe.monitor.flush for fhts.com
2021-06-27 20:24:48,478 INFO scheduler Scheduled Job Start: frappe.utils.global_search.sync_global_search for fhts.com
2021-06-27 20:24:48,628 INFO scheduler Scheduled Job Complete: frappe.utils.global_search.sync_global_search for fhts.com
2021-06-27 20:24:48,712 INFO scheduler Scheduled Job Start: frappe.integrations.doctype.razorpay_settings.razorpay_settings.capture_payment for fhts.com
2021-06-27 20:24:49,605 INFO scheduler Scheduled Job Complete: frappe.integrations.doctype.razorpay_settings.razorpay_settings.capture_payment for fhts.com
2021-06-27 20:24:49,677 INFO scheduler Scheduled Job Start: frappe.email.doctype.email_account.email_account.notify_unreplied for fhts.com
2021-06-27 20:24:50,134 INFO scheduler Scheduled Job Complete: frappe.email.doctype.email_account.email_account.notify_unreplied for fhts.com
2021-06-27 20:24:50,199 INFO scheduler Scheduled Job Start: frappe.email.doctype.email_account.email_account.pull for fhts.com
2021-06-27 20:24:50,475 INFO scheduler Scheduled Job Complete: frappe.email.doctype.email_account.email_account.pull for fhts.com
2021-06-27 20:24:50,541 INFO scheduler Scheduled Job Start: frappe.email.queue.flush for fhts.com
2021-06-27 20:24:50,850 INFO scheduler Scheduled Job Complete: frappe.email.queue.flush for fhts.com
2021-06-27 20:25:46,211 DEBUG scheduler Queued events for site fhts.com
2021-06-27 20:26:46,446 DEBUG scheduler Queued events for site fhts.com
2021-06-27 20:27:46,660 DEBUG scheduler Queued events for site fhts.com
2021-06-29 14:53:20,244 INFO scheduler Scheduled Job Start: frappe.integrations.doctype.google_drive.google_drive.daily_backup for fhts.com
2021-06-29 14:53:20,245 INFO scheduler Scheduled Job Start: frappe.core.doctype.log_settings.log_settings.run_log_clean_up for fhts.com
2021-06-29 14:53:20,543 DEBUG scheduler Queued events for site fhts.com
2021-06-29 14:53:30,246 INFO scheduler Scheduled Job Complete: frappe.core.doctype.log_settings.log_settings.run_log_clean_up for fhts.com
2021-06-29 14:53:35,144 INFO scheduler Scheduled Job Complete: frappe.integrations.doctype.google_drive.google_drive.daily_backup for fhts.com
2021-06-29 14:53:35,952 INFO scheduler Scheduled Job Start: frappe.integrations.doctype.s3_backup_settings.s3_backup_settings.take_backups_daily for fhts.com
2021-06-29 14:53:35,955 INFO scheduler Scheduled Job Start: frappe.core.doctype.prepared_report.prepared_report.delete_expired_prepared_reports for fhts.com
2021-06-29 14:53:44,854 INFO scheduler Scheduled Job Complete: frappe.core.doctype.prepared_report.prepared_report.delete_expired_prepared_reports for fhts.com
2021-06-29 14:53:45,108 INFO scheduler Scheduled Job Start: frappe.email.doctype.unhandled_email.unhandled_email.remove_old_unhandled_emails for fhts.com
2021-06-29 14:53:45,781 INFO scheduler Scheduled Job Complete: frappe.email.doctype.unhandled_email.unhandled_email.remove_old_unhandled_emails for fhts.com
2021-06-29 14:53:45,883 INFO scheduler Scheduled Job Complete: frappe.integrations.doctype.s3_backup_settings.s3_backup_settings.take_backups_daily for fhts.com
2021-06-29 14:53:45,945 INFO scheduler Scheduled Job Start: frappe.automation.doctype.auto_repeat.auto_repeat.set_auto_repeat_as_completed for fhts.com
2021-06-29 14:53:45,991 INFO scheduler Scheduled Job Start: frappe.utils.change_log.check_for_update for fhts.com
2021-06-29 14:53:47,670 INFO scheduler Scheduled Job Complete: frappe.automation.doctype.auto_repeat.auto_repeat.set_auto_repeat_as_completed for fhts.com
2021-06-29 14:53:47,858 INFO scheduler Scheduled Job Start: frappe.automation.doctype.auto_repeat.auto_repeat.make_auto_repeat_entry for fhts.com
2021-06-29 14:53:48,108 INFO scheduler Scheduled Job Complete: frappe.utils.change_log.check_for_update for fhts.com
2021-06-29 14:53:48,215 INFO scheduler Scheduled Job Start: frappe.integrations.doctype.dropbox_settings.dropbox_settings.take_backups_daily for fhts.com
2021-06-29 14:53:48,253 INFO scheduler Scheduled Job Complete: frappe.automation.doctype.auto_repeat.auto_repeat.make_auto_repeat_entry for fhts.com
2021-06-29 14:53:48,366 INFO scheduler Scheduled Job Start: frappe.integrations.doctype.google_contacts.google_contacts.sync for fhts.com
2021-06-29 14:53:49,815 INFO scheduler Scheduled Job Complete: frappe.integrations.doctype.dropbox_settings.dropbox_settings.take_backups_daily for fhts.com
2021-06-29 14:53:49,836 INFO scheduler Scheduled Job Complete: frappe.integrations.doctype.google_contacts.google_contacts.sync for fhts.com
2021-06-29 14:53:50,043 INFO scheduler Scheduled Job Start: frappe.social.doctype.energy_point_settings.energy_point_settings.allocate_review_points for fhts.com
2021-06-29 14:53:50,483 INFO scheduler Scheduled Job Complete: frappe.social.doctype.energy_point_settings.energy_point_settings.allocate_review_points for fhts.com
2021-06-29 14:53:50,622 INFO scheduler Scheduled Job Start: frappe.desk.form.document_follow.send_daily_updates for fhts.com
2021-06-29 14:53:51,003 INFO scheduler Scheduled Job Complete: frappe.desk.form.document_follow.send_daily_updates for fhts.com
2021-06-29 14:53:51,095 INFO scheduler Scheduled Job Start: frappe.website.doctype.personal_data_deletion_request.personal_data_deletion_request.remove_unverified_record for fhts.com
2021-06-29 14:53:51,518 INFO scheduler Scheduled Job Complete: frappe.website.doctype.personal_data_deletion_request.personal_data_deletion_request.remove_unverified_record for fhts.com
2021-06-29 14:53:51,679 INFO scheduler Scheduled Job Start: frappe.email.doctype.auto_email_report.auto_email_report.send_daily for fhts.com
2021-06-29 14:53:52,729 INFO scheduler Scheduled Job Complete: frappe.email.doctype.auto_email_report.auto_email_report.send_daily for fhts.com
2021-06-29 14:53:52,929 INFO scheduler Scheduled Job Start: frappe.utils.scheduler.restrict_scheduler_events_if_dormant for fhts.com
2021-06-29 14:53:53,334 INFO scheduler Scheduled Job Failed: frappe.utils.scheduler.restrict_scheduler_events_if_dormant for fhts.com
2021-06-29 14:53:53,533 INFO scheduler Scheduled Job Start: frappe.realtime.remove_old_task_logs for fhts.com
2021-06-29 14:53:53,862 INFO scheduler Scheduled Job Complete: frappe.realtime.remove_old_task_logs for fhts.com
2021-06-29 14:53:54,017 INFO scheduler Scheduled Job Start: frappe.email.doctype.notification.notification.trigger_daily_alerts for fhts.com
2021-06-29 14:53:54,376 INFO scheduler Scheduled Job Complete: frappe.email.doctype.notification.notification.trigger_daily_alerts for fhts.com
2021-06-29 14:53:54,506 INFO scheduler Scheduled Job Start: frappe.sessions.clear_expired_sessions for fhts.com
2021-06-29 14:53:55,117 INFO scheduler Scheduled Job Complete: frappe.sessions.clear_expired_sessions for fhts.com
2021-06-29 14:53:55,286 INFO scheduler Scheduled Job Start: frappe.desk.doctype.event.event.send_event_digest for fhts.com
2021-06-29 14:53:55,846 INFO scheduler Scheduled Job Complete: frappe.desk.doctype.event.event.send_event_digest for fhts.com
2021-06-29 14:53:56,003 INFO scheduler Scheduled Job Start: frappe.core.doctype.error_log.error_log.set_old_logs_as_seen for fhts.com
2021-06-29 14:53:56,384 INFO scheduler Scheduled Job Complete: frappe.core.doctype.error_log.error_log.set_old_logs_as_seen for fhts.com
2021-06-29 14:53:56,553 INFO scheduler Scheduled Job Start: frappe.desk.notifications.clear_notifications for fhts.com
2021-06-29 14:53:56,866 INFO scheduler Scheduled Job Complete: frappe.desk.notifications.clear_notifications for fhts.com
2021-06-29 14:53:56,950 INFO scheduler Scheduled Job Start: frappe.email.queue.set_expiry_for_email_queue for fhts.com
2021-06-29 14:53:57,294 INFO scheduler Scheduled Job Complete: frappe.email.queue.set_expiry_for_email_queue for fhts.com
2021-06-29 14:53:57,388 INFO scheduler Scheduled Job Start: frappe.email.doctype.newsletter.newsletter.send_scheduled_email for fhts.com
2021-06-29 14:53:58,154 INFO scheduler Scheduled Job Complete: frappe.email.doctype.newsletter.newsletter.send_scheduled_email for fhts.com
2021-06-29 14:53:58,311 INFO scheduler Scheduled Job Start: frappe.integrations.doctype.google_calendar.google_calendar.sync for fhts.com
2021-06-29 14:53:58,916 INFO scheduler Scheduled Job Complete: frappe.integrations.doctype.google_calendar.google_calendar.sync for fhts.com
2021-06-29 14:53:59,015 INFO scheduler Scheduled Job Start: frappe.desk.form.document_follow.send_hourly_updates for fhts.com
2021-06-29 14:53:59,344 INFO scheduler Scheduled Job Complete: frappe.desk.form.document_follow.send_hourly_updates for fhts.com
2021-06-29 14:53:59,433 INFO scheduler Scheduled Job Start: frappe.deferred_insert.save_to_db for fhts.com
2021-06-29 14:53:59,759 INFO scheduler Scheduled Job Complete: frappe.deferred_insert.save_to_db for fhts.com
2021-06-29 14:53:59,875 INFO scheduler Scheduled Job Start: frappe.desk.page.backups.backups.delete_downloadable_backups for fhts.com
2021-06-29 14:54:00,309 INFO scheduler Scheduled Job Complete: frappe.desk.page.backups.backups.delete_downloadable_backups for fhts.com
2021-06-29 14:54:00,422 INFO scheduler Scheduled Job Start: frappe.utils.error.collect_error_snapshots for fhts.com
2021-06-29 14:54:01,174 INFO scheduler Scheduled Job Complete: frappe.utils.error.collect_error_snapshots for fhts.com
2021-06-29 14:54:01,321 INFO scheduler Scheduled Job Start: frappe.model.utils.user_settings.sync_user_settings for fhts.com
2021-06-29 14:54:01,719 INFO scheduler Scheduled Job Complete: frappe.model.utils.user_settings.sync_user_settings for fhts.com
2021-06-29 14:54:01,867 INFO scheduler Scheduled Job Start: frappe.model.utils.link_count.update_link_count for fhts.com
2021-06-29 14:54:02,210 INFO scheduler Scheduled Job Complete: frappe.model.utils.link_count.update_link_count for fhts.com
2021-06-29 14:54:02,356 INFO scheduler Scheduled Job Start: frappe.monitor.flush for fhts.com
2021-06-29 14:54:02,497 INFO scheduler Scheduled Job Complete: frappe.monitor.flush for fhts.com
2021-06-29 14:54:02,557 INFO scheduler Scheduled Job Start: frappe.utils.global_search.sync_global_search for fhts.com
2021-06-29 14:54:02,754 INFO scheduler Scheduled Job Complete: frappe.utils.global_search.sync_global_search for fhts.com
2021-06-29 14:54:02,863 INFO scheduler Scheduled Job Start: frappe.integrations.doctype.razorpay_settings.razorpay_settings.capture_payment for fhts.com
2021-06-29 14:54:03,363 INFO scheduler Scheduled Job Complete: frappe.integrations.doctype.razorpay_settings.razorpay_settings.capture_payment for fhts.com
2021-06-29 14:54:03,438 INFO scheduler Scheduled Job Start: frappe.email.doctype.email_account.email_account.notify_unreplied for fhts.com
2021-06-29 14:54:03,969 INFO scheduler Scheduled Job Complete: frappe.email.doctype.email_account.email_account.notify_unreplied for fhts.com
2021-06-29 14:54:04,032 INFO scheduler Scheduled Job Start: frappe.email.doctype.email_account.email_account.pull for fhts.com
2021-06-29 14:54:04,294 INFO scheduler Scheduled Job Complete: frappe.email.doctype.email_account.email_account.pull for fhts.com
2021-06-29 14:54:04,356 INFO scheduler Scheduled Job Start: frappe.email.queue.flush for fhts.com
2021-06-29 14:54:04,598 INFO scheduler Scheduled Job Complete: frappe.email.queue.flush for fhts.com
2021-06-29 14:54:04,661 INFO scheduler Scheduled Job Start: frappe.twofactor.delete_all_barcodes_for_users for fhts.com
2021-06-29 14:54:05,088 INFO scheduler Scheduled Job Complete: frappe.twofactor.delete_all_barcodes_for_users for fhts.com
2021-06-29 14:54:05,183 INFO scheduler Scheduled Job Start: frappe.website.doctype.web_page.web_page.check_publish_status for fhts.com
2021-06-29 14:54:06,155 INFO scheduler Scheduled Job Complete: frappe.website.doctype.web_page.web_page.check_publish_status for fhts.com
2021-06-29 14:54:06,244 INFO scheduler Scheduled Job Start: frappe.oauth.delete_oauth2_data for fhts.com
2021-06-29 14:54:06,921 INFO scheduler Scheduled Job Complete: frappe.oauth.delete_oauth2_data for fhts.com
2021-06-29 14:54:20,847 DEBUG scheduler Queued events for site fhts.com
2021-06-29 14:55:21,089 DEBUG scheduler Queued events for site fhts.com
2021-06-29 14:56:21,396 DEBUG scheduler Queued events for site fhts.com
2021-06-29 14:56:21,618 INFO scheduler Scheduled Job Start: frappe.monitor.flush for fhts.com
2021-06-29 14:56:22,564 INFO scheduler Scheduled Job Complete: frappe.monitor.flush for fhts.com
2021-06-29 14:56:22,645 INFO scheduler Scheduled Job Start: frappe.utils.global_search.sync_global_search for fhts.com
2021-06-29 14:56:22,959 INFO scheduler Scheduled Job Complete: frappe.utils.global_search.sync_global_search for fhts.com
2021-06-29 14:56:23,074 INFO scheduler Scheduled Job Start: frappe.integrations.doctype.razorpay_settings.razorpay_settings.capture_payment for fhts.com
2021-06-29 14:56:24,177 INFO scheduler Scheduled Job Complete: frappe.integrations.doctype.razorpay_settings.razorpay_settings.capture_payment for fhts.com
2021-06-29 14:56:24,256 INFO scheduler Scheduled Job Start: frappe.email.doctype.email_account.email_account.notify_unreplied for fhts.com
2021-06-29 14:56:25,012 INFO scheduler Scheduled Job Complete: frappe.email.doctype.email_account.email_account.notify_unreplied for fhts.com
2021-06-29 14:56:25,074 INFO scheduler Scheduled Job Start: frappe.email.doctype.email_account.email_account.pull for fhts.com
2021-06-29 14:56:25,438 INFO scheduler Scheduled Job Complete: frappe.email.doctype.email_account.email_account.pull for fhts.com
2021-06-29 14:56:25,543 INFO scheduler Scheduled Job Start: frappe.email.queue.flush for fhts.com
2021-06-29 14:56:26,100 INFO scheduler Scheduled Job Complete: frappe.email.queue.flush for fhts.com
2021-06-29 14:57:21,610 DEBUG scheduler Queued events for site fhts.com
2021-06-29 14:58:21,833 DEBUG scheduler Queued events for site fhts.com
2021-06-29 14:59:22,059 DEBUG scheduler Queued events for site fhts.com
2021-06-29 15:00:22,318 INFO scheduler Scheduled Job Start: frappe.email.doctype.newsletter.newsletter.send_scheduled_email for fhts.com
2021-06-29 15:00:22,369 DEBUG scheduler Queued events for site fhts.com
2021-06-29 15:00:22,921 INFO scheduler Scheduled Job Complete: frappe.email.doctype.newsletter.newsletter.send_scheduled_email for fhts.com
2021-06-29 15:00:23,019 INFO scheduler Scheduled Job Start: frappe.integrations.doctype.google_calendar.google_calendar.sync for fhts.com
2021-06-29 15:00:23,919 INFO scheduler Scheduled Job Complete: frappe.integrations.doctype.google_calendar.google_calendar.sync for fhts.com
2021-06-29 15:00:24,018 INFO scheduler Scheduled Job Start: frappe.desk.form.document_follow.send_hourly_updates for fhts.com
2021-06-29 15:00:24,411 INFO scheduler Scheduled Job Complete: frappe.desk.form.document_follow.send_hourly_updates for fhts.com
2021-06-29 15:00:24,521 INFO scheduler Scheduled Job Start: frappe.deferred_insert.save_to_db for fhts.com
2021-06-29 15:00:25,088 INFO scheduler Scheduled Job Complete: frappe.deferred_insert.save_to_db for fhts.com
2021-06-29 15:00:25,242 INFO scheduler Scheduled Job Start: frappe.desk.page.backups.backups.delete_downloadable_backups for fhts.com
2021-06-29 15:00:26,007 INFO scheduler Scheduled Job Complete: frappe.desk.page.backups.backups.delete_downloadable_backups for fhts.com
2021-06-29 15:00:26,153 INFO scheduler Scheduled Job Start: frappe.utils.error.collect_error_snapshots for fhts.com
2021-06-29 15:00:26,538 INFO scheduler Scheduled Job Complete: frappe.utils.error.collect_error_snapshots for fhts.com
2021-06-29 15:00:26,720 INFO scheduler Scheduled Job Start: frappe.model.utils.user_settings.sync_user_settings for fhts.com
2021-06-29 15:00:27,113 INFO scheduler Scheduled Job Complete: frappe.model.utils.user_settings.sync_user_settings for fhts.com
2021-06-29 15:00:27,258 INFO scheduler Scheduled Job Start: frappe.model.utils.link_count.update_link_count for fhts.com
2021-06-29 15:00:27,647 INFO scheduler Scheduled Job Complete: frappe.model.utils.link_count.update_link_count for fhts.com
2021-06-29 15:00:27,784 INFO scheduler Scheduled Job Start: frappe.monitor.flush for fhts.com
2021-06-29 15:00:27,922 INFO scheduler Scheduled Job Complete: frappe.monitor.flush for fhts.com
2021-06-29 15:00:28,003 INFO scheduler Scheduled Job Start: frappe.utils.global_search.sync_global_search for fhts.com
2021-06-29 15:00:28,132 INFO scheduler Scheduled Job Complete: frappe.utils.global_search.sync_global_search for fhts.com
2021-06-29 15:00:28,193 INFO scheduler Scheduled Job Start: frappe.integrations.doctype.razorpay_settings.razorpay_settings.capture_payment for fhts.com
2021-06-29 15:00:28,528 INFO scheduler Scheduled Job Complete: frappe.integrations.doctype.razorpay_settings.razorpay_settings.capture_payment for fhts.com
2021-06-29 15:00:28,588 INFO scheduler Scheduled Job Start: frappe.email.doctype.email_account.email_account.notify_unreplied for fhts.com
2021-06-29 15:00:29,027 INFO scheduler Scheduled Job Complete: frappe.email.doctype.email_account.email_account.notify_unreplied for fhts.com
2021-06-29 15:00:29,089 INFO scheduler Scheduled Job Start: frappe.email.doctype.email_account.email_account.pull for fhts.com
2021-06-29 15:00:29,364 INFO scheduler Scheduled Job Complete: frappe.email.doctype.email_account.email_account.pull for fhts.com
2021-06-29 15:00:29,426 INFO scheduler Scheduled Job Start: frappe.email.queue.flush for fhts.com
2021-06-29 15:00:29,735 INFO scheduler Scheduled Job Complete: frappe.email.queue.flush for fhts.com
2021-06-29 15:00:29,796 INFO scheduler Scheduled Job Start: frappe.twofactor.delete_all_barcodes_for_users for fhts.com
2021-06-29 15:00:30,133 INFO scheduler Scheduled Job Complete: frappe.twofactor.delete_all_barcodes_for_users for fhts.com
2021-06-29 15:00:30,220 INFO scheduler Scheduled Job Start: frappe.website.doctype.web_page.web_page.check_publish_status for fhts.com
2021-06-29 15:00:30,676 INFO scheduler Scheduled Job Complete: frappe.website.doctype.web_page.web_page.check_publish_status for fhts.com
2021-06-29 15:00:30,771 INFO scheduler Scheduled Job Start: frappe.oauth.delete_oauth2_data for fhts.com
2021-06-29 15:00:31,241 INFO scheduler Scheduled Job Complete: frappe.oauth.delete_oauth2_data for fhts.com
2021-06-29 15:01:22,589 DEBUG scheduler Queued events for site fhts.com
2021-06-29 15:02:22,804 DEBUG scheduler Queued events for site fhts.com
2021-06-29 15:03:23,035 DEBUG scheduler Queued events for site fhts.com
2021-06-29 15:29:28,001 DEBUG scheduler Queued events for site fhts.com
2021-06-29 15:29:28,016 INFO scheduler Scheduled Job Start: frappe.monitor.flush for fhts.com
2021-06-29 15:29:28,917 INFO scheduler Scheduled Job Complete: frappe.monitor.flush for fhts.com
2021-06-29 15:29:29,291 INFO scheduler Scheduled Job Start: frappe.utils.global_search.sync_global_search for fhts.com
2021-06-29 15:29:29,729 INFO scheduler Scheduled Job Complete: frappe.utils.global_search.sync_global_search for fhts.com
2021-06-29 15:29:29,840 INFO scheduler Scheduled Job Start: frappe.integrations.doctype.razorpay_settings.razorpay_settings.capture_payment for fhts.com
2021-06-29 15:29:30,262 INFO scheduler Scheduled Job Complete: frappe.integrations.doctype.razorpay_settings.razorpay_settings.capture_payment for fhts.com
2021-06-29 15:29:30,329 INFO scheduler Scheduled Job Start: frappe.email.doctype.email_account.email_account.notify_unreplied for fhts.com
2021-06-29 15:29:30,879 INFO scheduler Scheduled Job Complete: frappe.email.doctype.email_account.email_account.notify_unreplied for fhts.com
2021-06-29 15:29:30,945 INFO scheduler Scheduled Job Start: frappe.email.doctype.email_account.email_account.pull for fhts.com
2021-06-29 15:29:31,292 INFO scheduler Scheduled Job Complete: frappe.email.doctype.email_account.email_account.pull for fhts.com
2021-06-29 15:29:31,355 INFO scheduler Scheduled Job Start: frappe.email.queue.flush for fhts.com
2021-06-29 15:29:31,699 INFO scheduler Scheduled Job Complete: frappe.email.queue.flush for fhts.com
2021-06-29 15:29:31,762 INFO scheduler Scheduled Job Start: frappe.twofactor.delete_all_barcodes_for_users for fhts.com
2021-06-29 15:29:32,585 INFO scheduler Scheduled Job Complete: frappe.twofactor.delete_all_barcodes_for_users for fhts.com
2021-06-29 15:29:32,725 INFO scheduler Scheduled Job Start: frappe.website.doctype.web_page.web_page.check_publish_status for fhts.com
2021-06-29 15:29:33,150 INFO scheduler Scheduled Job Complete: frappe.website.doctype.web_page.web_page.check_publish_status for fhts.com
2021-06-29 15:29:33,311 INFO scheduler Scheduled Job Start: frappe.oauth.delete_oauth2_data for fhts.com
2021-06-29 15:29:34,134 INFO scheduler Scheduled Job Complete: frappe.oauth.delete_oauth2_data for fhts.com
2021-06-29 15:30:28,212 DEBUG scheduler Queued events for site fhts.com
2021-06-29 15:30:28,261 INFO scheduler Scheduled Job Start: frappe.twofactor.delete_all_barcodes_for_users for fhts.com
2021-06-29 15:30:28,648 INFO scheduler Scheduled Job Complete: frappe.twofactor.delete_all_barcodes_for_users for fhts.com
2021-06-29 15:30:28,735 INFO scheduler Scheduled Job Start: frappe.website.doctype.web_page.web_page.check_publish_status for fhts.com
2021-06-29 15:30:29,169 INFO scheduler Scheduled Job Complete: frappe.website.doctype.web_page.web_page.check_publish_status for fhts.com
2021-06-29 15:30:29,266 INFO scheduler Scheduled Job Start: frappe.oauth.delete_oauth2_data for fhts.com
2021-06-29 15:30:29,613 INFO scheduler Scheduled Job Complete: frappe.oauth.delete_oauth2_data for fhts.com
2021-06-29 15:31:28,442 DEBUG scheduler Queued events for site fhts.com
2021-06-29 15:32:28,682 DEBUG scheduler Queued events for site fhts.com
2021-06-29 15:32:28,711 INFO scheduler Scheduled Job Start: frappe.monitor.flush for fhts.com
2021-06-29 15:32:28,877 INFO scheduler Scheduled Job Complete: frappe.monitor.flush for fhts.com
2021-06-29 15:32:28,984 INFO scheduler Scheduled Job Start: frappe.utils.global_search.sync_global_search for fhts.com
2021-06-29 15:32:29,133 INFO scheduler Scheduled Job Complete: frappe.utils.global_search.sync_global_search for fhts.com
2021-06-29 15:32:29,224 INFO scheduler Scheduled Job Start: frappe.integrations.doctype.razorpay_settings.razorpay_settings.capture_payment for fhts.com
2021-06-29 15:32:29,568 INFO scheduler Scheduled Job Complete: frappe.integrations.doctype.razorpay_settings.razorpay_settings.capture_payment for fhts.com
2021-06-29 15:32:29,629 INFO scheduler Scheduled Job Start: frappe.email.doctype.email_account.email_account.notify_unreplied for fhts.com
2021-06-29 15:32:29,948 INFO scheduler Scheduled Job Complete: frappe.email.doctype.email_account.email_account.notify_unreplied for fhts.com
2021-06-29 15:32:30,010 INFO scheduler Scheduled Job Start: frappe.email.doctype.email_account.email_account.pull for fhts.com
2021-06-29 15:32:30,280 INFO scheduler Scheduled Job Complete: frappe.email.doctype.email_account.email_account.pull for fhts.com
2021-06-29 15:32:30,345 INFO scheduler Scheduled Job Start: frappe.email.queue.flush for fhts.com
2021-06-29 15:32:30,647 INFO scheduler Scheduled Job Complete: frappe.email.queue.flush for fhts.com
2021-06-29 15:33:28,937 DEBUG scheduler Queued events for site fhts.com
2021-06-29 15:34:29,267 DEBUG scheduler Queued events for site fhts.com
2021-06-29 15:35:29,522 DEBUG scheduler Queued events for site fhts.com
2021-06-29 15:36:29,760 DEBUG scheduler Queued events for site fhts.com
2021-06-29 15:36:29,930 INFO scheduler Scheduled Job Start: frappe.monitor.flush for fhts.com
2021-06-29 15:36:30,099 INFO scheduler Scheduled Job Complete: frappe.monitor.flush for fhts.com
2021-06-29 15:36:30,207 INFO scheduler Scheduled Job Start: frappe.utils.global_search.sync_global_search for fhts.com
2021-06-29 15:36:30,365 INFO scheduler Scheduled Job Complete: frappe.utils.global_search.sync_global_search for fhts.com
2021-06-29 15:36:30,477 INFO scheduler Scheduled Job Start: frappe.integrations.doctype.razorpay_settings.razorpay_settings.capture_payment for fhts.com
2021-06-29 15:36:30,886 INFO scheduler Scheduled Job Complete: frappe.integrations.doctype.razorpay_settings.razorpay_settings.capture_payment for fhts.com
2021-06-29 15:36:30,958 INFO scheduler Scheduled Job Start: frappe.email.doctype.email_account.email_account.notify_unreplied for fhts.com
2021-06-29 15:36:31,435 INFO scheduler Scheduled Job Complete: frappe.email.doctype.email_account.email_account.notify_unreplied for fhts.com
2021-06-29 15:36:31,499 INFO scheduler Scheduled Job Start: frappe.email.doctype.email_account.email_account.pull for fhts.com
2021-06-29 15:36:31,806 INFO scheduler Scheduled Job Complete: frappe.email.doctype.email_account.email_account.pull for fhts.com
2021-06-29 15:36:31,871 INFO scheduler Scheduled Job Start: frappe.email.queue.flush for fhts.com
2021-06-29 15:36:32,172 INFO scheduler Scheduled Job Complete: frappe.email.queue.flush for fhts.com
2021-06-29 15:37:29,979 DEBUG scheduler Queued events for site fhts.com
2021-06-29 15:38:30,174 DEBUG scheduler Queued events for site fhts.com
2021-06-29 15:39:30,419 DEBUG scheduler Queued events for site fhts.com
2021-06-29 15:40:30,662 DEBUG scheduler Queued events for site fhts.com
2021-06-29 15:40:30,690 INFO scheduler Scheduled Job Start: frappe.monitor.flush for fhts.com
2021-06-29 15:40:30,869 INFO scheduler Scheduled Job Complete: frappe.monitor.flush for fhts.com
2021-06-29 15:40:30,978 INFO scheduler Scheduled Job Start: frappe.utils.global_search.sync_global_search for fhts.com
2021-06-29 15:40:31,123 INFO scheduler Scheduled Job Complete: frappe.utils.global_search.sync_global_search for fhts.com
2021-06-29 15:40:31,191 INFO scheduler Scheduled Job Start: frappe.integrations.doctype.razorpay_settings.razorpay_settings.capture_payment for fhts.com
2021-06-29 15:40:31,527 INFO scheduler Scheduled Job Complete: frappe.integrations.doctype.razorpay_settings.razorpay_settings.capture_payment for fhts.com
2021-06-29 15:40:31,591 INFO scheduler Scheduled Job Start: frappe.email.doctype.email_account.email_account.notify_unreplied for fhts.com
2021-06-29 15:40:31,894 INFO scheduler Scheduled Job Complete: frappe.email.doctype.email_account.email_account.notify_unreplied for fhts.com
2021-06-29 15:40:31,956 INFO scheduler Scheduled Job Start: frappe.email.doctype.email_account.email_account.pull for fhts.com
2021-06-29 15:40:32,356 INFO scheduler Scheduled Job Complete: frappe.email.doctype.email_account.email_account.pull for fhts.com
2021-06-29 15:40:32,419 INFO scheduler Scheduled Job Start: frappe.email.queue.flush for fhts.com
2021-06-29 15:40:32,665 INFO scheduler Scheduled Job Complete: frappe.email.queue.flush for fhts.com
2021-06-29 15:41:31,033 DEBUG scheduler Queued events for site fhts.com
2021-06-29 15:42:31,240 DEBUG scheduler Queued events for site fhts.com
2021-06-29 15:43:31,462 DEBUG scheduler Queued events for site fhts.com
2021-06-29 15:44:31,707 DEBUG scheduler Queued events for site fhts.com
2021-06-29 15:44:31,738 INFO scheduler Scheduled Job Start: frappe.monitor.flush for fhts.com
2021-06-29 15:44:31,983 INFO scheduler Scheduled Job Complete: frappe.monitor.flush for fhts.com
2021-06-29 15:44:32,053 INFO scheduler Scheduled Job Start: frappe.utils.global_search.sync_global_search for fhts.com
2021-06-29 15:44:32,276 INFO scheduler Scheduled Job Complete: frappe.utils.global_search.sync_global_search for fhts.com
2021-06-29 15:44:32,390 INFO scheduler Scheduled Job Start: frappe.integrations.doctype.razorpay_settings.razorpay_settings.capture_payment for fhts.com
2021-06-29 15:44:32,737 INFO scheduler Scheduled Job Complete: frappe.integrations.doctype.razorpay_settings.razorpay_settings.capture_payment for fhts.com
2021-06-29 15:44:32,801 INFO scheduler Scheduled Job Start: frappe.email.doctype.email_account.email_account.notify_unreplied for fhts.com
2021-06-29 15:44:33,114 INFO scheduler Scheduled Job Complete: frappe.email.doctype.email_account.email_account.notify_unreplied for fhts.com
2021-06-29 15:44:33,177 INFO scheduler Scheduled Job Start: frappe.email.doctype.email_account.email_account.pull for fhts.com
2021-06-29 15:44:33,465 INFO scheduler Scheduled Job Complete: frappe.email.doctype.email_account.email_account.pull for fhts.com
2021-06-29 15:44:33,529 INFO scheduler Scheduled Job Start: frappe.email.queue.flush for fhts.com
2021-06-29 15:44:33,847 INFO scheduler Scheduled Job Complete: frappe.email.queue.flush for fhts.com
2021-06-29 15:45:31,919 DEBUG scheduler Queued events for site fhts.com
2021-06-29 15:45:31,967 INFO scheduler Scheduled Job Start: frappe.twofactor.delete_all_barcodes_for_users for fhts.com
2021-06-29 15:45:32,429 INFO scheduler Scheduled Job Complete: frappe.twofactor.delete_all_barcodes_for_users for fhts.com
2021-06-29 15:45:32,518 INFO scheduler Scheduled Job Start: frappe.website.doctype.web_page.web_page.check_publish_status for fhts.com
2021-06-29 15:45:32,997 INFO scheduler Scheduled Job Complete: frappe.website.doctype.web_page.web_page.check_publish_status for fhts.com
2021-06-29 15:45:33,304 INFO scheduler Scheduled Job Start: frappe.oauth.delete_oauth2_data for fhts.com
2021-06-29 15:45:33,845 INFO scheduler Scheduled Job Complete: frappe.oauth.delete_oauth2_data for fhts.com
2021-06-29 15:46:32,125 DEBUG scheduler Queued events for site fhts.com
2021-06-29 15:47:32,330 DEBUG scheduler Queued events for site fhts.com
2021-06-29 15:48:32,561 DEBUG scheduler Queued events for site fhts.com
2021-06-29 15:48:32,591 INFO scheduler Scheduled Job Start: frappe.monitor.flush for fhts.com
2021-06-29 15:48:32,763 INFO scheduler Scheduled Job Complete: frappe.monitor.flush for fhts.com
2021-06-29 15:48:32,863 INFO scheduler Scheduled Job Start: frappe.utils.global_search.sync_global_search for fhts.com
2021-06-29 15:48:32,995 INFO scheduler Scheduled Job Complete: frappe.utils.global_search.sync_global_search for fhts.com
2021-06-29 15:48:33,064 INFO scheduler Scheduled Job Start: frappe.integrations.doctype.razorpay_settings.razorpay_settings.capture_payment for fhts.com
2021-06-29 15:48:33,379 INFO scheduler Scheduled Job Complete: frappe.integrations.doctype.razorpay_settings.razorpay_settings.capture_payment for fhts.com
2021-06-29 15:48:33,441 INFO scheduler Scheduled Job Start: frappe.email.doctype.email_account.email_account.notify_unreplied for fhts.com
2021-06-29 15:48:33,709 INFO scheduler Scheduled Job Complete: frappe.email.doctype.email_account.email_account.notify_unreplied for fhts.com
2021-06-29 15:48:33,772 INFO scheduler Scheduled Job Start: frappe.email.doctype.email_account.email_account.pull for fhts.com
2021-06-29 15:48:34,121 INFO scheduler Scheduled Job Complete: frappe.email.doctype.email_account.email_account.pull for fhts.com
2021-06-29 15:48:34,183 INFO scheduler Scheduled Job Start: frappe.email.queue.flush for fhts.com
2021-06-29 15:48:34,626 INFO scheduler Scheduled Job Complete: frappe.email.queue.flush for fhts.com
2021-06-29 15:49:32,794 DEBUG scheduler Queued events for site fhts.com
2021-06-29 15:50:33,018 DEBUG scheduler Queued events for site fhts.com
2021-06-29 15:51:33,234 DEBUG scheduler Queued events for site fhts.com
2021-06-29 15:52:33,451 DEBUG scheduler Queued events for site fhts.com
2021-06-29 15:52:33,478 INFO scheduler Scheduled Job Start: frappe.monitor.flush for fhts.com
2021-06-29 15:52:33,641 INFO scheduler Scheduled Job Complete: frappe.monitor.flush for fhts.com
2021-06-29 15:52:33,726 INFO scheduler Scheduled Job Start: frappe.utils.global_search.sync_global_search for fhts.com
2021-06-29 15:52:33,863 INFO scheduler Scheduled Job Complete: frappe.utils.global_search.sync_global_search for fhts.com
2021-06-29 15:52:33,950 INFO scheduler Scheduled Job Start: frappe.integrations.doctype.razorpay_settings.razorpay_settings.capture_payment for fhts.com
2021-06-29 15:52:34,277 INFO scheduler Scheduled Job Complete: frappe.integrations.doctype.razorpay_settings.razorpay_settings.capture_payment for fhts.com
2021-06-29 15:52:34,340 INFO scheduler Scheduled Job Start: frappe.email.doctype.email_account.email_account.notify_unreplied for fhts.com
2021-06-29 15:52:34,658 INFO scheduler Scheduled Job Complete: frappe.email.doctype.email_account.email_account.notify_unreplied for fhts.com
2021-06-29 15:52:34,722 INFO scheduler Scheduled Job Start: frappe.email.doctype.email_account.email_account.pull for fhts.com
2021-06-29 15:52:35,001 INFO scheduler Scheduled Job Complete: frappe.email.doctype.email_account.email_account.pull for fhts.com
2021-06-29 15:52:35,063 INFO scheduler Scheduled Job Start: frappe.email.queue.flush for fhts.com
2021-06-29 15:52:35,370 INFO scheduler Scheduled Job Complete: frappe.email.queue.flush for fhts.com
2021-06-29 15:53:33,678 DEBUG scheduler Queued events for site fhts.com
2021-06-29 15:54:33,874 DEBUG scheduler Queued events for site fhts.com
2021-06-29 15:55:34,090 DEBUG scheduler Queued events for site fhts.com
2021-06-29 15:56:34,398 DEBUG scheduler Queued events for site fhts.com
2021-06-29 15:56:34,524 INFO scheduler Scheduled Job Start: frappe.monitor.flush for fhts.com
2021-06-29 15:56:34,730 INFO scheduler Scheduled Job Complete: frappe.monitor.flush for fhts.com
2021-06-29 15:56:34,835 INFO scheduler Scheduled Job Start: frappe.utils.global_search.sync_global_search for fhts.com
2021-06-29 15:56:34,984 INFO scheduler Scheduled Job Complete: frappe.utils.global_search.sync_global_search for fhts.com
2021-06-29 15:56:35,076 INFO scheduler Scheduled Job Start: frappe.integrations.doctype.razorpay_settings.razorpay_settings.capture_payment for fhts.com
2021-06-29 15:56:35,407 INFO scheduler Scheduled Job Complete: frappe.integrations.doctype.razorpay_settings.razorpay_settings.capture_payment for fhts.com
2021-06-29 15:56:35,469 INFO scheduler Scheduled Job Start: frappe.email.doctype.email_account.email_account.notify_unreplied for fhts.com
2021-06-29 15:56:35,754 INFO scheduler Scheduled Job Complete: frappe.email.doctype.email_account.email_account.notify_unreplied for fhts.com
2021-06-29 15:56:35,815 INFO scheduler Scheduled Job Start: frappe.email.doctype.email_account.email_account.pull for fhts.com
2021-06-29 15:56:36,161 INFO scheduler Scheduled Job Complete: frappe.email.doctype.email_account.email_account.pull for fhts.com
2021-06-29 15:56:36,222 INFO scheduler Scheduled Job Start: frappe.email.queue.flush for fhts.com
2021-06-29 15:56:36,460 INFO scheduler Scheduled Job Complete: frappe.email.queue.flush for fhts.com
2021-06-29 15:57:34,605 DEBUG scheduler Queued events for site fhts.com
2021-06-29 15:58:34,805 DEBUG scheduler Queued events for site fhts.com
2021-06-29 15:59:35,186 DEBUG scheduler Queued events for site fhts.com
2021-06-29 16:00:35,450 INFO scheduler Scheduled Job Start: frappe.email.doctype.newsletter.newsletter.send_scheduled_email for fhts.com
2021-06-29 16:00:35,490 DEBUG scheduler Queued events for site fhts.com
2021-06-29 16:00:36,364 INFO scheduler Scheduled Job Complete: frappe.email.doctype.newsletter.newsletter.send_scheduled_email for fhts.com
2021-06-29 16:00:36,463 INFO scheduler Scheduled Job Start: frappe.integrations.doctype.google_calendar.google_calendar.sync for fhts.com
2021-06-29 16:00:37,251 INFO scheduler Scheduled Job Complete: frappe.integrations.doctype.google_calendar.google_calendar.sync for fhts.com
2021-06-29 16:00:37,411 INFO scheduler Scheduled Job Start: frappe.desk.form.document_follow.send_hourly_updates for fhts.com
2021-06-29 16:00:37,827 INFO scheduler Scheduled Job Complete: frappe.desk.form.document_follow.send_hourly_updates for fhts.com
2021-06-29 16:00:38,008 INFO scheduler Scheduled Job Start: frappe.deferred_insert.save_to_db for fhts.com
2021-06-29 16:00:38,653 INFO scheduler Scheduled Job Complete: frappe.deferred_insert.save_to_db for fhts.com
2021-06-29 16:00:38,807 INFO scheduler Scheduled Job Start: frappe.desk.page.backups.backups.delete_downloadable_backups for fhts.com
2021-06-29 16:00:39,225 INFO scheduler Scheduled Job Complete: frappe.desk.page.backups.backups.delete_downloadable_backups for fhts.com
2021-06-29 16:00:39,320 INFO scheduler Scheduled Job Start: frappe.utils.error.collect_error_snapshots for fhts.com
2021-06-29 16:00:39,944 INFO scheduler Scheduled Job Complete: frappe.utils.error.collect_error_snapshots for fhts.com
2021-06-29 16:00:40,049 INFO scheduler Scheduled Job Start: frappe.model.utils.user_settings.sync_user_settings for fhts.com
2021-06-29 16:00:40,458 INFO scheduler Scheduled Job Complete: frappe.model.utils.user_settings.sync_user_settings for fhts.com
2021-06-29 16:00:40,554 INFO scheduler Scheduled Job Start: frappe.model.utils.link_count.update_link_count for fhts.com
2021-06-29 16:00:41,056 INFO scheduler Scheduled Job Complete: frappe.model.utils.link_count.update_link_count for fhts.com
2021-06-29 16:00:41,454 INFO scheduler Scheduled Job Start: frappe.monitor.flush for fhts.com
2021-06-29 16:00:41,585 INFO scheduler Scheduled Job Complete: frappe.monitor.flush for fhts.com
2021-06-29 16:00:41,663 INFO scheduler Scheduled Job Start: frappe.utils.global_search.sync_global_search for fhts.com
2021-06-29 16:00:41,796 INFO scheduler Scheduled Job Complete: frappe.utils.global_search.sync_global_search for fhts.com
2021-06-29 16:00:41,872 INFO scheduler Scheduled Job Start: frappe.integrations.doctype.razorpay_settings.razorpay_settings.capture_payment for fhts.com
2021-06-29 16:00:42,192 INFO scheduler Scheduled Job Complete: frappe.integrations.doctype.razorpay_settings.razorpay_settings.capture_payment for fhts.com
2021-06-29 16:00:42,255 INFO scheduler Scheduled Job Start: frappe.email.doctype.email_account.email_account.notify_unreplied for fhts.com
2021-06-29 16:00:42,553 INFO scheduler Scheduled Job Complete: frappe.email.doctype.email_account.email_account.notify_unreplied for fhts.com
2021-06-29 16:00:42,616 INFO scheduler Scheduled Job Start: frappe.email.doctype.email_account.email_account.pull for fhts.com
2021-06-29 16:00:42,978 INFO scheduler Scheduled Job Complete: frappe.email.doctype.email_account.email_account.pull for fhts.com
2021-06-29 16:00:43,041 INFO scheduler Scheduled Job Start: frappe.email.queue.flush for fhts.com
2021-06-29 16:00:43,266 INFO scheduler Scheduled Job Complete: frappe.email.queue.flush for fhts.com
2021-06-29 16:00:43,328 INFO scheduler Scheduled Job Start: frappe.twofactor.delete_all_barcodes_for_users for fhts.com
2021-06-29 16:00:43,727 INFO scheduler Scheduled Job Complete: frappe.twofactor.delete_all_barcodes_for_users for fhts.com
2021-06-29 16:00:43,820 INFO scheduler Scheduled Job Start: frappe.website.doctype.web_page.web_page.check_publish_status for fhts.com
2021-06-29 16:00:44,216 INFO scheduler Scheduled Job Complete: frappe.website.doctype.web_page.web_page.check_publish_status for fhts.com
2021-06-29 16:00:44,319 INFO scheduler Scheduled Job Start: frappe.oauth.delete_oauth2_data for fhts.com
2021-06-29 16:00:44,731 INFO scheduler Scheduled Job Complete: frappe.oauth.delete_oauth2_data for fhts.com
2021-06-29 16:01:35,688 DEBUG scheduler Queued events for site fhts.com
2021-06-29 16:02:35,877 DEBUG scheduler Queued events for site fhts.com
2021-06-29 16:03:36,092 DEBUG scheduler Queued events for site fhts.com
2021-06-29 16:04:36,301 DEBUG scheduler Queued events for site fhts.com
2021-06-29 16:04:36,332 INFO scheduler Scheduled Job Start: frappe.monitor.flush for fhts.com
2021-06-29 16:04:36,502 INFO scheduler Scheduled Job Complete: frappe.monitor.flush for fhts.com
2021-06-29 16:04:36,611 INFO scheduler Scheduled Job Start: frappe.utils.global_search.sync_global_search for fhts.com
2021-06-29 16:04:36,744 INFO scheduler Scheduled Job Complete: frappe.utils.global_search.sync_global_search for fhts.com
2021-06-29 16:04:36,823 INFO scheduler Scheduled Job Start: frappe.integrations.doctype.razorpay_settings.razorpay_settings.capture_payment for fhts.com
2021-06-29 16:04:37,138 INFO scheduler Scheduled Job Complete: frappe.integrations.doctype.razorpay_settings.razorpay_settings.capture_payment for fhts.com
2021-06-29 16:04:37,201 INFO scheduler Scheduled Job Start: frappe.email.doctype.email_account.email_account.notify_unreplied for fhts.com
2021-06-29 16:04:37,482 INFO scheduler Scheduled Job Complete: frappe.email.doctype.email_account.email_account.notify_unreplied for fhts.com
2021-06-29 16:04:37,545 INFO scheduler Scheduled Job Start: frappe.email.doctype.email_account.email_account.pull for fhts.com
2021-06-29 16:04:37,903 INFO scheduler Scheduled Job Complete: frappe.email.doctype.email_account.email_account.pull for fhts.com
2021-06-29 16:04:37,966 INFO scheduler Scheduled Job Start: frappe.email.queue.flush for fhts.com
2021-06-29 16:04:38,228 INFO scheduler Scheduled Job Complete: frappe.email.queue.flush for fhts.com
2021-06-29 16:05:36,518 DEBUG scheduler Queued events for site fhts.com
2021-06-29 16:06:36,705 DEBUG scheduler Queued events for site fhts.com
2021-06-29 16:07:36,931 DEBUG scheduler Queued events for site fhts.com
2021-06-29 16:08:37,365 DEBUG scheduler Queued events for site fhts.com
2021-06-29 16:08:37,407 INFO scheduler Scheduled Job Start: frappe.monitor.flush for fhts.com
2021-06-29 16:08:37,553 INFO scheduler Scheduled Job Complete: frappe.monitor.flush for fhts.com
2021-06-29 16:08:37,658 INFO scheduler Scheduled Job Start: frappe.utils.global_search.sync_global_search for fhts.com
2021-06-29 16:08:38,044 INFO scheduler Scheduled Job Complete: frappe.utils.global_search.sync_global_search for fhts.com
2021-06-29 16:08:38,216 INFO scheduler Scheduled Job Start: frappe.integrations.doctype.razorpay_settings.razorpay_settings.capture_payment for fhts.com
2021-06-29 16:08:38,664 INFO scheduler Scheduled Job Complete: frappe.integrations.doctype.razorpay_settings.razorpay_settings.capture_payment for fhts.com
2021-06-29 16:08:38,822 INFO scheduler Scheduled Job Start: frappe.email.doctype.email_account.email_account.notify_unreplied for fhts.com
2021-06-29 16:08:39,334 INFO scheduler Scheduled Job Complete: frappe.email.doctype.email_account.email_account.notify_unreplied for fhts.com
2021-06-29 16:08:39,405 INFO scheduler Scheduled Job Start: frappe.email.doctype.email_account.email_account.pull for fhts.com
2021-06-29 16:08:39,844 INFO scheduler Scheduled Job Complete: frappe.email.doctype.email_account.email_account.pull for fhts.com
2021-06-29 16:08:39,910 INFO scheduler Scheduled Job Start: frappe.email.queue.flush for fhts.com
2021-06-29 16:08:40,291 INFO scheduler Scheduled Job Complete: frappe.email.queue.flush for fhts.com
2021-06-29 16:09:37,590 DEBUG scheduler Queued events for site fhts.com
2021-06-29 16:10:37,807 DEBUG scheduler Queued events for site fhts.com
2021-06-29 16:11:38,027 DEBUG scheduler Queued events for site fhts.com
2021-06-29 16:12:38,278 DEBUG scheduler Queued events for site fhts.com
2021-06-29 16:12:38,310 INFO scheduler Scheduled Job Start: frappe.monitor.flush for fhts.com
2021-06-29 16:12:38,741 INFO scheduler Scheduled Job Complete: frappe.monitor.flush for fhts.com
2021-06-29 16:12:38,853 INFO scheduler Scheduled Job Start: frappe.utils.global_search.sync_global_search for fhts.com
2021-06-29 16:12:38,984 INFO scheduler Scheduled Job Complete: frappe.utils.global_search.sync_global_search for fhts.com
2021-06-29 16:12:39,045 INFO scheduler Scheduled Job Start: frappe.integrations.doctype.razorpay_settings.razorpay_settings.capture_payment for fhts.com
2021-06-29 16:12:39,392 INFO scheduler Scheduled Job Complete: frappe.integrations.doctype.razorpay_settings.razorpay_settings.capture_payment for fhts.com
2021-06-29 16:12:39,455 INFO scheduler Scheduled Job Start: frappe.email.doctype.email_account.email_account.notify_unreplied for fhts.com
2021-06-29 16:12:39,718 INFO scheduler Scheduled Job Complete: frappe.email.doctype.email_account.email_account.notify_unreplied for fhts.com
2021-06-29 16:12:39,780 INFO scheduler Scheduled Job Start: frappe.email.doctype.email_account.email_account.pull for fhts.com
2021-06-29 16:12:40,056 INFO scheduler Scheduled Job Complete: frappe.email.doctype.email_account.email_account.pull for fhts.com
2021-06-29 16:12:40,118 INFO scheduler Scheduled Job Start: frappe.email.queue.flush for fhts.com
2021-06-29 16:12:40,425 INFO scheduler Scheduled Job Complete: frappe.email.queue.flush for fhts.com
2021-06-29 16:13:38,600 DEBUG scheduler Queued events for site fhts.com
2021-06-29 16:14:38,811 DEBUG scheduler Queued events for site fhts.com
2021-06-29 16:15:39,019 DEBUG scheduler Queued events for site fhts.com
2021-06-29 16:15:39,068 INFO scheduler Scheduled Job Start: frappe.twofactor.delete_all_barcodes_for_users for fhts.com
2021-06-29 16:15:39,535 INFO scheduler Scheduled Job Complete: frappe.twofactor.delete_all_barcodes_for_users for fhts.com
2021-06-29 16:15:39,803 INFO scheduler Scheduled Job Start: frappe.website.doctype.web_page.web_page.check_publish_status for fhts.com
2021-06-29 16:15:40,248 INFO scheduler Scheduled Job Complete: frappe.website.doctype.web_page.web_page.check_publish_status for fhts.com
2021-06-29 16:15:40,367 INFO scheduler Scheduled Job Start: frappe.oauth.delete_oauth2_data for fhts.com
2021-06-29 16:15:40,914 INFO scheduler Scheduled Job Complete: frappe.oauth.delete_oauth2_data for fhts.com
2021-06-29 16:16:39,469 DEBUG scheduler Queued events for site fhts.com
2021-06-29 16:16:39,494 INFO scheduler Scheduled Job Start: frappe.monitor.flush for fhts.com
2021-06-29 16:16:39,677 INFO scheduler Scheduled Job Complete: frappe.monitor.flush for fhts.com
2021-06-29 16:16:39,789 INFO scheduler Scheduled Job Start: frappe.utils.global_search.sync_global_search for fhts.com
2021-06-29 16:16:39,998 INFO scheduler Scheduled Job Complete: frappe.utils.global_search.sync_global_search for fhts.com
2021-06-29 16:16:40,066 INFO scheduler Scheduled Job Start: frappe.integrations.doctype.razorpay_settings.razorpay_settings.capture_payment for fhts.com
2021-06-29 16:16:40,434 INFO scheduler Scheduled Job Complete: frappe.integrations.doctype.razorpay_settings.razorpay_settings.capture_payment for fhts.com
2021-06-29 16:16:40,567 INFO scheduler Scheduled Job Start: frappe.email.doctype.email_account.email_account.notify_unreplied for fhts.com
2021-06-29 16:16:40,987 INFO scheduler Scheduled Job Complete: frappe.email.doctype.email_account.email_account.notify_unreplied for fhts.com
2021-06-29 16:16:41,051 INFO scheduler Scheduled Job Start: frappe.email.doctype.email_account.email_account.pull for fhts.com
2021-06-29 16:16:41,347 INFO scheduler Scheduled Job Complete: frappe.email.doctype.email_account.email_account.pull for fhts.com
2021-06-29 16:16:41,411 INFO scheduler Scheduled Job Start: frappe.email.queue.flush for fhts.com
2021-06-29 16:16:41,754 INFO scheduler Scheduled Job Complete: frappe.email.queue.flush for fhts.com
2021-06-29 16:17:39,699 DEBUG scheduler Queued events for site fhts.com
2021-06-29 16:18:39,982 DEBUG scheduler Queued events for site fhts.com
2021-06-29 16:19:40,197 DEBUG scheduler Queued events for site fhts.com
2021-06-29 16:20:40,442 DEBUG scheduler Queued events for site fhts.com
2021-06-29 16:20:40,464 INFO scheduler Scheduled Job Start: frappe.monitor.flush for fhts.com
2021-06-29 16:20:40,657 INFO scheduler Scheduled Job Complete: frappe.monitor.flush for fhts.com
2021-06-29 16:20:40,761 INFO scheduler Scheduled Job Start: frappe.utils.global_search.sync_global_search for fhts.com
2021-06-29 16:20:40,935 INFO scheduler Scheduled Job Complete: frappe.utils.global_search.sync_global_search for fhts.com
2021-06-29 16:20:41,010 INFO scheduler Scheduled Job Start: frappe.integrations.doctype.razorpay_settings.razorpay_settings.capture_payment for fhts.com
2021-06-29 16:20:41,394 INFO scheduler Scheduled Job Complete: frappe.integrations.doctype.razorpay_settings.razorpay_settings.capture_payment for fhts.com
2021-06-29 16:20:41,466 INFO scheduler Scheduled Job Start: frappe.email.doctype.email_account.email_account.notify_unreplied for fhts.com
2021-06-29 16:20:41,843 INFO scheduler Scheduled Job Complete: frappe.email.doctype.email_account.email_account.notify_unreplied for fhts.com
2021-06-29 16:20:41,908 INFO scheduler Scheduled Job Start: frappe.email.doctype.email_account.email_account.pull for fhts.com
2021-06-29 16:20:42,221 INFO scheduler Scheduled Job Complete: frappe.email.doctype.email_account.email_account.pull for fhts.com
2021-06-29 16:20:42,287 INFO scheduler Scheduled Job Start: frappe.email.queue.flush for fhts.com
2021-06-29 16:20:42,597 INFO scheduler Scheduled Job Complete: frappe.email.queue.flush for fhts.com
2021-06-29 16:21:40,801 DEBUG scheduler Queued events for site fhts.com
2021-06-29 16:22:41,321 DEBUG scheduler Queued events for site fhts.com
2021-06-29 16:23:41,528 DEBUG scheduler Queued events for site fhts.com
2021-06-29 16:24:41,807 DEBUG scheduler Queued events for site fhts.com
2021-06-29 16:24:41,840 INFO scheduler Scheduled Job Start: frappe.monitor.flush for fhts.com
2021-06-29 16:24:42,438 INFO scheduler Scheduled Job Complete: frappe.monitor.flush for fhts.com
2021-06-29 16:24:42,526 INFO scheduler Scheduled Job Start: frappe.utils.global_search.sync_global_search for fhts.com
2021-06-29 16:24:42,861 INFO scheduler Scheduled Job Complete: frappe.utils.global_search.sync_global_search for fhts.com
2021-06-29 16:24:42,979 INFO scheduler Scheduled Job Start: frappe.integrations.doctype.razorpay_settings.razorpay_settings.capture_payment for fhts.com
2021-06-29 16:24:43,971 INFO scheduler Scheduled Job Complete: frappe.integrations.doctype.razorpay_settings.razorpay_settings.capture_payment for fhts.com
2021-06-29 16:24:44,089 INFO scheduler Scheduled Job Start: frappe.email.doctype.email_account.email_account.notify_unreplied for fhts.com
2021-06-29 16:24:44,621 INFO scheduler Scheduled Job Complete: frappe.email.doctype.email_account.email_account.notify_unreplied for fhts.com
2021-06-29 16:24:44,713 INFO scheduler Scheduled Job Start: frappe.email.doctype.email_account.email_account.pull for fhts.com
2021-06-29 16:24:45,131 INFO scheduler Scheduled Job Complete: frappe.email.doctype.email_account.email_account.pull for fhts.com
2021-06-29 16:24:45,193 INFO scheduler Scheduled Job Start: frappe.email.queue.flush for fhts.com
2021-06-29 16:24:45,436 INFO scheduler Scheduled Job Complete: frappe.email.queue.flush for fhts.com
2021-06-29 16:25:42,002 DEBUG scheduler Queued events for site fhts.com
2021-06-29 16:26:42,215 DEBUG scheduler Queued events for site fhts.com
2021-06-29 16:27:42,419 DEBUG scheduler Queued events for site fhts.com
2021-06-29 16:28:42,657 DEBUG scheduler Queued events for site fhts.com
2021-06-29 16:28:42,687 INFO scheduler Scheduled Job Start: frappe.monitor.flush for fhts.com
2021-06-29 16:28:42,869 INFO scheduler Scheduled Job Complete: frappe.monitor.flush for fhts.com
2021-06-29 16:28:42,976 INFO scheduler Scheduled Job Start: frappe.utils.global_search.sync_global_search for fhts.com
2021-06-29 16:28:43,122 INFO scheduler Scheduled Job Complete: frappe.utils.global_search.sync_global_search for fhts.com
2021-06-29 16:28:43,183 INFO scheduler Scheduled Job Start: frappe.integrations.doctype.razorpay_settings.razorpay_settings.capture_payment for fhts.com
2021-06-29 16:28:43,501 INFO scheduler Scheduled Job Complete: frappe.integrations.doctype.razorpay_settings.razorpay_settings.capture_payment for fhts.com
2021-06-29 16:28:43,562 INFO scheduler Scheduled Job Start: frappe.email.doctype.email_account.email_account.notify_unreplied for fhts.com
2021-06-29 16:28:43,874 INFO scheduler Scheduled Job Complete: frappe.email.doctype.email_account.email_account.notify_unreplied for fhts.com
2021-06-29 16:28:43,936 INFO scheduler Scheduled Job Start: frappe.email.doctype.email_account.email_account.pull for fhts.com
2021-06-29 16:28:44,287 INFO scheduler Scheduled Job Complete: frappe.email.doctype.email_account.email_account.pull for fhts.com
2021-06-29 16:28:44,348 INFO scheduler Scheduled Job Start: frappe.email.queue.flush for fhts.com
2021-06-29 16:28:44,670 INFO scheduler Scheduled Job Complete: frappe.email.queue.flush for fhts.com
2021-06-29 16:29:42,879 DEBUG scheduler Queued events for site fhts.com
2021-06-29 16:30:43,207 DEBUG scheduler Queued events for site fhts.com
2021-06-29 16:30:43,258 INFO scheduler Scheduled Job Start: frappe.twofactor.delete_all_barcodes_for_users for fhts.com
2021-06-29 16:30:43,873 INFO scheduler Scheduled Job Complete: frappe.twofactor.delete_all_barcodes_for_users for fhts.com
2021-06-29 16:30:44,002 INFO scheduler Scheduled Job Start: frappe.website.doctype.web_page.web_page.check_publish_status for fhts.com
2021-06-29 16:30:44,673 INFO scheduler Scheduled Job Complete: frappe.website.doctype.web_page.web_page.check_publish_status for fhts.com
2021-06-29 16:30:44,781 INFO scheduler Scheduled Job Start: frappe.oauth.delete_oauth2_data for fhts.com
2021-06-29 16:30:45,215 INFO scheduler Scheduled Job Complete: frappe.oauth.delete_oauth2_data for fhts.com
2021-06-29 16:31:43,435 DEBUG scheduler Queued events for site fhts.com
2021-06-29 16:32:43,781 DEBUG scheduler Queued events for site fhts.com
2021-06-29 16:32:43,809 INFO scheduler Scheduled Job Start: frappe.monitor.flush for fhts.com
2021-06-29 16:32:44,189 INFO scheduler Scheduled Job Complete: frappe.monitor.flush for fhts.com
2021-06-29 16:32:44,286 INFO scheduler Scheduled Job Start: frappe.utils.global_search.sync_global_search for fhts.com
2021-06-29 16:32:44,443 INFO scheduler Scheduled Job Complete: frappe.utils.global_search.sync_global_search for fhts.com
2021-06-29 16:32:44,523 INFO scheduler Scheduled Job Start: frappe.integrations.doctype.razorpay_settings.razorpay_settings.capture_payment for fhts.com
2021-06-29 16:32:44,948 INFO scheduler Scheduled Job Complete: frappe.integrations.doctype.razorpay_settings.razorpay_settings.capture_payment for fhts.com
2021-06-29 16:32:45,011 INFO scheduler Scheduled Job Start: frappe.email.doctype.email_account.email_account.notify_unreplied for fhts.com
2021-06-29 16:32:45,379 INFO scheduler Scheduled Job Complete: frappe.email.doctype.email_account.email_account.notify_unreplied for fhts.com
2021-06-29 16:32:45,445 INFO scheduler Scheduled Job Start: frappe.email.doctype.email_account.email_account.pull for fhts.com
2021-06-29 16:32:45,798 INFO scheduler Scheduled Job Complete: frappe.email.doctype.email_account.email_account.pull for fhts.com
2021-06-29 16:32:45,862 INFO scheduler Scheduled Job Start: frappe.email.queue.flush for fhts.com
2021-06-29 16:32:46,118 INFO scheduler Scheduled Job Complete: frappe.email.queue.flush for fhts.com
2021-06-29 16:33:43,978 DEBUG scheduler Queued events for site fhts.com
2021-06-29 16:34:44,726 DEBUG scheduler Queued events for site fhts.com
2021-06-29 16:35:44,955 DEBUG scheduler Queued events for site fhts.com
2021-06-29 16:36:45,205 DEBUG scheduler Queued events for site fhts.com
2021-06-29 16:36:45,232 INFO scheduler Scheduled Job Start: frappe.monitor.flush for fhts.com
2021-06-29 16:36:45,426 INFO scheduler Scheduled Job Complete: frappe.monitor.flush for fhts.com
2021-06-29 16:36:45,533 INFO scheduler Scheduled Job Start: frappe.utils.global_search.sync_global_search for fhts.com
2021-06-29 16:36:45,759 INFO scheduler Scheduled Job Complete: frappe.utils.global_search.sync_global_search for fhts.com
2021-06-29 16:36:45,868 INFO scheduler Scheduled Job Start: frappe.integrations.doctype.razorpay_settings.razorpay_settings.capture_payment for fhts.com
2021-06-29 16:36:46,219 INFO scheduler Scheduled Job Complete: frappe.integrations.doctype.razorpay_settings.razorpay_settings.capture_payment for fhts.com
2021-06-29 16:36:46,281 INFO scheduler Scheduled Job Start: frappe.email.doctype.email_account.email_account.notify_unreplied for fhts.com
2021-06-29 16:36:46,618 INFO scheduler Scheduled Job Complete: frappe.email.doctype.email_account.email_account.notify_unreplied for fhts.com
2021-06-29 16:36:46,682 INFO scheduler Scheduled Job Start: frappe.email.doctype.email_account.email_account.pull for fhts.com
2021-06-29 16:36:46,957 INFO scheduler Scheduled Job Complete: frappe.email.doctype.email_account.email_account.pull for fhts.com
2021-06-29 16:36:47,018 INFO scheduler Scheduled Job Start: frappe.email.queue.flush for fhts.com
2021-06-29 16:36:47,342 INFO scheduler Scheduled Job Complete: frappe.email.queue.flush for fhts.com
2021-06-29 16:37:45,407 DEBUG scheduler Queued events for site fhts.com
2021-06-29 16:38:45,624 DEBUG scheduler Queued events for site fhts.com
2021-06-29 16:39:45,845 DEBUG scheduler Queued events for site fhts.com
2021-06-29 16:40:46,047 DEBUG scheduler Queued events for site fhts.com
2021-06-29 16:40:46,571 INFO scheduler Scheduled Job Start: frappe.monitor.flush for fhts.com
2021-06-29 16:40:46,963 INFO scheduler Scheduled Job Complete: frappe.monitor.flush for fhts.com
2021-06-29 16:40:47,106 INFO scheduler Scheduled Job Start: frappe.utils.global_search.sync_global_search for fhts.com
2021-06-29 16:40:47,262 INFO scheduler Scheduled Job Complete: frappe.utils.global_search.sync_global_search for fhts.com
2021-06-29 16:40:47,323 INFO scheduler Scheduled Job Start: frappe.integrations.doctype.razorpay_settings.razorpay_settings.capture_payment for fhts.com
2021-06-29 16:40:47,845 INFO scheduler Scheduled Job Complete: frappe.integrations.doctype.razorpay_settings.razorpay_settings.capture_payment for fhts.com
2021-06-29 16:40:47,911 INFO scheduler Scheduled Job Start: frappe.email.doctype.email_account.email_account.notify_unreplied for fhts.com
2021-06-29 16:40:48,304 INFO scheduler Scheduled Job Complete: frappe.email.doctype.email_account.email_account.notify_unreplied for fhts.com
2021-06-29 16:40:48,367 INFO scheduler Scheduled Job Start: frappe.email.doctype.email_account.email_account.pull for fhts.com
2021-06-29 16:40:48,655 INFO scheduler Scheduled Job Complete: frappe.email.doctype.email_account.email_account.pull for fhts.com
2021-06-29 16:40:48,716 INFO scheduler Scheduled Job Start: frappe.email.queue.flush for fhts.com
2021-06-29 16:40:49,006 INFO scheduler Scheduled Job Complete: frappe.email.queue.flush for fhts.com
2021-06-29 16:41:46,243 DEBUG scheduler Queued events for site fhts.com
2021-06-29 16:42:46,446 DEBUG scheduler Queued events for site fhts.com
2021-06-29 16:43:46,674 DEBUG scheduler Queued events for site fhts.com
2021-06-29 16:44:46,893 DEBUG scheduler Queued events for site fhts.com
2021-06-29 16:44:48,680 INFO scheduler Scheduled Job Start: frappe.monitor.flush for fhts.com
2021-06-29 16:44:49,421 INFO scheduler Scheduled Job Complete: frappe.monitor.flush for fhts.com
2021-06-29 16:44:49,514 INFO scheduler Scheduled Job Start: frappe.utils.global_search.sync_global_search for fhts.com
2021-06-29 16:44:49,755 INFO scheduler Scheduled Job Complete: frappe.utils.global_search.sync_global_search for fhts.com
2021-06-29 16:44:49,897 INFO scheduler Scheduled Job Start: frappe.integrations.doctype.razorpay_settings.razorpay_settings.capture_payment for fhts.com
2021-06-29 16:44:50,360 INFO scheduler Scheduled Job Complete: frappe.integrations.doctype.razorpay_settings.razorpay_settings.capture_payment for fhts.com
2021-06-29 16:44:50,441 INFO scheduler Scheduled Job Start: frappe.email.doctype.email_account.email_account.notify_unreplied for fhts.com
2021-06-29 16:44:50,791 INFO scheduler Scheduled Job Complete: frappe.email.doctype.email_account.email_account.notify_unreplied for fhts.com
2021-06-29 16:44:50,858 INFO scheduler Scheduled Job Start: frappe.email.doctype.email_account.email_account.pull for fhts.com
2021-06-29 16:44:51,206 INFO scheduler Scheduled Job Complete: frappe.email.doctype.email_account.email_account.pull for fhts.com
2021-06-29 16:44:51,290 INFO scheduler Scheduled Job Start: frappe.email.queue.flush for fhts.com
2021-06-29 16:44:51,753 INFO scheduler Scheduled Job Complete: frappe.email.queue.flush for fhts.com
2021-06-29 16:45:47,101 DEBUG scheduler Queued events for site fhts.com
2021-06-29 16:45:47,737 INFO scheduler Scheduled Job Start: frappe.twofactor.delete_all_barcodes_for_users for fhts.com
2021-06-29 16:45:50,089 INFO scheduler Scheduled Job Complete: frappe.twofactor.delete_all_barcodes_for_users for fhts.com
2021-06-29 16:45:50,195 INFO scheduler Scheduled Job Start: frappe.website.doctype.web_page.web_page.check_publish_status for fhts.com
2021-06-29 16:45:51,047 INFO scheduler Scheduled Job Complete: frappe.website.doctype.web_page.web_page.check_publish_status for fhts.com
2021-06-29 16:45:51,155 INFO scheduler Scheduled Job Start: frappe.oauth.delete_oauth2_data for fhts.com
2021-06-29 16:45:51,695 INFO scheduler Scheduled Job Complete: frappe.oauth.delete_oauth2_data for fhts.com
2021-06-29 16:46:47,303 DEBUG scheduler Queued events for site fhts.com
2021-06-29 16:47:47,534 DEBUG scheduler Queued events for site fhts.com
2021-06-29 16:48:47,770 DEBUG scheduler Queued events for site fhts.com
2021-06-29 16:48:47,795 INFO scheduler Scheduled Job Start: frappe.monitor.flush for fhts.com
2021-06-29 16:48:47,946 INFO scheduler Scheduled Job Complete: frappe.monitor.flush for fhts.com
2021-06-29 16:48:48,008 INFO scheduler Scheduled Job Start: frappe.utils.global_search.sync_global_search for fhts.com
2021-06-29 16:48:48,157 INFO scheduler Scheduled Job Complete: frappe.utils.global_search.sync_global_search for fhts.com
2021-06-29 16:48:48,235 INFO scheduler Scheduled Job Start: frappe.integrations.doctype.razorpay_settings.razorpay_settings.capture_payment for fhts.com
2021-06-29 16:48:48,563 INFO scheduler Scheduled Job Complete: frappe.integrations.doctype.razorpay_settings.razorpay_settings.capture_payment for fhts.com
2021-06-29 16:48:48,626 INFO scheduler Scheduled Job Start: frappe.email.doctype.email_account.email_account.notify_unreplied for fhts.com
2021-06-29 16:48:48,886 INFO scheduler Scheduled Job Complete: frappe.email.doctype.email_account.email_account.notify_unreplied for fhts.com
2021-06-29 16:48:48,950 INFO scheduler Scheduled Job Start: frappe.email.doctype.email_account.email_account.pull for fhts.com
2021-06-29 16:48:49,315 INFO scheduler Scheduled Job Complete: frappe.email.doctype.email_account.email_account.pull for fhts.com
2021-06-29 16:48:49,377 INFO scheduler Scheduled Job Start: frappe.email.queue.flush for fhts.com
2021-06-29 16:48:49,693 INFO scheduler Scheduled Job Complete: frappe.email.queue.flush for fhts.com
2021-06-29 16:49:48,003 DEBUG scheduler Queued events for site fhts.com
2021-06-29 16:50:48,227 DEBUG scheduler Queued events for site fhts.com
2021-06-29 16:51:48,526 DEBUG scheduler Queued events for site fhts.com
2021-06-29 16:52:48,754 DEBUG scheduler Queued events for site fhts.com
2021-06-29 16:52:49,496 INFO scheduler Scheduled Job Start: frappe.monitor.flush for fhts.com
2021-06-29 16:52:50,691 INFO scheduler Scheduled Job Complete: frappe.monitor.flush for fhts.com
2021-06-29 16:52:50,780 INFO scheduler Scheduled Job Start: frappe.utils.global_search.sync_global_search for fhts.com
2021-06-29 16:52:50,961 INFO scheduler Scheduled Job Complete: frappe.utils.global_search.sync_global_search for fhts.com
2021-06-29 16:52:51,083 INFO scheduler Scheduled Job Start: frappe.integrations.doctype.razorpay_settings.razorpay_settings.capture_payment for fhts.com
2021-06-29 16:52:51,516 INFO scheduler Scheduled Job Complete: frappe.integrations.doctype.razorpay_settings.razorpay_settings.capture_payment for fhts.com
2021-06-29 16:52:51,630 INFO scheduler Scheduled Job Start: frappe.email.doctype.email_account.email_account.notify_unreplied for fhts.com
2021-06-29 16:52:51,949 INFO scheduler Scheduled Job Complete: frappe.email.doctype.email_account.email_account.notify_unreplied for fhts.com
2021-06-29 16:52:52,018 INFO scheduler Scheduled Job Start: frappe.email.doctype.email_account.email_account.pull for fhts.com
2021-06-29 16:52:52,328 INFO scheduler Scheduled Job Complete: frappe.email.doctype.email_account.email_account.pull for fhts.com
2021-06-29 16:52:52,396 INFO scheduler Scheduled Job Start: frappe.email.queue.flush for fhts.com
2021-06-29 16:52:52,710 INFO scheduler Scheduled Job Complete: frappe.email.queue.flush for fhts.com
2021-06-29 16:53:49,165 DEBUG scheduler Queued events for site fhts.com
2021-06-29 16:54:49,422 DEBUG scheduler Queued events for site fhts.com
2021-06-29 16:55:49,638 DEBUG scheduler Queued events for site fhts.com
2021-06-29 16:56:50,085 DEBUG scheduler Queued events for site fhts.com
2021-06-29 16:56:54,367 INFO scheduler Scheduled Job Start: frappe.monitor.flush for fhts.com
2021-06-29 16:56:58,285 INFO scheduler Scheduled Job Complete: frappe.monitor.flush for fhts.com
2021-06-29 16:56:58,397 INFO scheduler Scheduled Job Start: frappe.utils.global_search.sync_global_search for fhts.com
2021-06-29 16:56:58,606 INFO scheduler Scheduled Job Complete: frappe.utils.global_search.sync_global_search for fhts.com
2021-06-29 16:56:58,697 INFO scheduler Scheduled Job Start: frappe.integrations.doctype.razorpay_settings.razorpay_settings.capture_payment for fhts.com
2021-06-29 16:57:01,893 INFO scheduler Scheduled Job Complete: frappe.integrations.doctype.razorpay_settings.razorpay_settings.capture_payment for fhts.com
2021-06-29 16:57:01,979 INFO scheduler Scheduled Job Start: frappe.email.doctype.email_account.email_account.notify_unreplied for fhts.com
2021-06-29 16:57:03,037 INFO scheduler Scheduled Job Complete: frappe.email.doctype.email_account.email_account.notify_unreplied for fhts.com
2021-06-29 16:57:03,101 INFO scheduler Scheduled Job Start: frappe.email.doctype.email_account.email_account.pull for fhts.com
2021-06-29 16:57:03,429 INFO scheduler Scheduled Job Complete: frappe.email.doctype.email_account.email_account.pull for fhts.com
2021-06-29 16:57:03,522 INFO scheduler Scheduled Job Start: frappe.email.queue.flush for fhts.com
2021-06-29 16:57:03,834 INFO scheduler Scheduled Job Complete: frappe.email.queue.flush for fhts.com
2021-06-29 16:57:50,301 DEBUG scheduler Queued events for site fhts.com
2021-06-29 16:58:50,523 DEBUG scheduler Queued events for site fhts.com
2021-06-29 16:59:50,804 DEBUG scheduler Queued events for site fhts.com
2021-06-29 17:00:51,565 DEBUG scheduler Queued events for site fhts.com
2021-06-29 17:00:52,871 INFO scheduler Scheduled Job Start: frappe.email.doctype.newsletter.newsletter.send_scheduled_email for fhts.com
2021-06-29 17:00:58,947 INFO scheduler Scheduled Job Complete: frappe.email.doctype.newsletter.newsletter.send_scheduled_email for fhts.com
2021-06-29 17:00:59,441 INFO scheduler Scheduled Job Start: frappe.integrations.doctype.google_calendar.google_calendar.sync for fhts.com
2021-06-29 17:01:04,814 INFO scheduler Scheduled Job Complete: frappe.integrations.doctype.google_calendar.google_calendar.sync for fhts.com
2021-06-29 17:01:05,458 INFO scheduler Scheduled Job Start: frappe.desk.form.document_follow.send_hourly_updates for fhts.com
2021-06-29 17:01:07,014 INFO scheduler Scheduled Job Complete: frappe.desk.form.document_follow.send_hourly_updates for fhts.com
2021-06-29 17:01:07,206 INFO scheduler Scheduled Job Start: frappe.deferred_insert.save_to_db for fhts.com
2021-06-29 17:01:09,246 INFO scheduler Scheduled Job Complete: frappe.deferred_insert.save_to_db for fhts.com
2021-06-29 17:01:09,429 INFO scheduler Scheduled Job Start: frappe.desk.page.backups.backups.delete_downloadable_backups for fhts.com
2021-06-29 17:01:09,948 INFO scheduler Scheduled Job Complete: frappe.desk.page.backups.backups.delete_downloadable_backups for fhts.com
2021-06-29 17:01:10,265 INFO scheduler Scheduled Job Start: frappe.utils.error.collect_error_snapshots for fhts.com
2021-06-29 17:01:10,815 INFO scheduler Scheduled Job Complete: frappe.utils.error.collect_error_snapshots for fhts.com
2021-06-29 17:01:10,946 INFO scheduler Scheduled Job Start: frappe.model.utils.user_settings.sync_user_settings for fhts.com
2021-06-29 17:01:11,762 INFO scheduler Scheduled Job Complete: frappe.model.utils.user_settings.sync_user_settings for fhts.com
2021-06-29 17:01:12,096 INFO scheduler Scheduled Job Start: frappe.model.utils.link_count.update_link_count for fhts.com
2021-06-29 17:01:13,075 INFO scheduler Scheduled Job Complete: frappe.model.utils.link_count.update_link_count for fhts.com
2021-06-29 17:01:13,360 INFO scheduler Scheduled Job Start: frappe.monitor.flush for fhts.com
2021-06-29 17:01:13,770 INFO scheduler Scheduled Job Complete: frappe.monitor.flush for fhts.com
2021-06-29 17:01:13,932 INFO scheduler Scheduled Job Start: frappe.utils.global_search.sync_global_search for fhts.com
2021-06-29 17:01:14,269 INFO scheduler Scheduled Job Complete: frappe.utils.global_search.sync_global_search for fhts.com
2021-06-29 17:01:14,410 INFO scheduler Scheduled Job Start: frappe.integrations.doctype.razorpay_settings.razorpay_settings.capture_payment for fhts.com
2021-06-29 17:01:15,242 INFO scheduler Scheduled Job Complete: frappe.integrations.doctype.razorpay_settings.razorpay_settings.capture_payment for fhts.com
2021-06-29 17:01:15,311 INFO scheduler Scheduled Job Start: frappe.email.doctype.email_account.email_account.notify_unreplied for fhts.com
2021-06-29 17:01:16,106 INFO scheduler Scheduled Job Complete: frappe.email.doctype.email_account.email_account.notify_unreplied for fhts.com
2021-06-29 17:01:16,174 INFO scheduler Scheduled Job Start: frappe.email.doctype.email_account.email_account.pull for fhts.com
2021-06-29 17:01:16,704 INFO scheduler Scheduled Job Complete: frappe.email.doctype.email_account.email_account.pull for fhts.com
2021-06-29 17:01:16,795 INFO scheduler Scheduled Job Start: frappe.email.queue.flush for fhts.com
2021-06-29 17:01:17,115 INFO scheduler Scheduled Job Complete: frappe.email.queue.flush for fhts.com
2021-06-29 17:01:17,186 INFO scheduler Scheduled Job Start: frappe.twofactor.delete_all_barcodes_for_users for fhts.com
2021-06-29 17:01:17,993 INFO scheduler Scheduled Job Complete: frappe.twofactor.delete_all_barcodes_for_users for fhts.com
2021-06-29 17:01:18,147 INFO scheduler Scheduled Job Start: frappe.website.doctype.web_page.web_page.check_publish_status for fhts.com
2021-06-29 17:01:19,919 INFO scheduler Scheduled Job Complete: frappe.website.doctype.web_page.web_page.check_publish_status for fhts.com
2021-06-29 17:01:20,064 INFO scheduler Scheduled Job Start: frappe.oauth.delete_oauth2_data for fhts.com
2021-06-29 17:01:20,674 INFO scheduler Scheduled Job Complete: frappe.oauth.delete_oauth2_data for fhts.com
2021-06-29 17:01:52,274 DEBUG scheduler Queued events for site fhts.com
2021-06-29 17:02:52,588 DEBUG scheduler Queued events for site fhts.com
2021-06-29 17:04:00,620 DEBUG scheduler Queued events for site fhts.com
2021-06-29 17:04:02,340 INFO scheduler Scheduled Job Start: frappe.monitor.flush for fhts.com
2021-06-29 17:04:04,431 INFO scheduler Scheduled Job Complete: frappe.monitor.flush for fhts.com
2021-06-29 17:04:04,533 INFO scheduler Scheduled Job Start: frappe.utils.global_search.sync_global_search for fhts.com
2021-06-29 17:04:04,695 INFO scheduler Scheduled Job Complete: frappe.utils.global_search.sync_global_search for fhts.com
2021-06-29 17:04:04,761 INFO scheduler Scheduled Job Start: frappe.integrations.doctype.razorpay_settings.razorpay_settings.capture_payment for fhts.com
2021-06-29 17:04:07,633 INFO scheduler Scheduled Job Complete: frappe.integrations.doctype.razorpay_settings.razorpay_settings.capture_payment for fhts.com
2021-06-29 17:04:07,861 INFO scheduler Scheduled Job Start: frappe.email.doctype.email_account.email_account.notify_unreplied for fhts.com
2021-06-29 17:04:11,220 INFO scheduler Scheduled Job Complete: frappe.email.doctype.email_account.email_account.notify_unreplied for fhts.com
2021-06-29 17:04:11,288 INFO scheduler Scheduled Job Start: frappe.email.doctype.email_account.email_account.pull for fhts.com
2021-06-29 17:04:11,687 INFO scheduler Scheduled Job Complete: frappe.email.doctype.email_account.email_account.pull for fhts.com
2021-06-29 17:04:11,797 INFO scheduler Scheduled Job Start: frappe.email.queue.flush for fhts.com
2021-06-29 17:04:12,069 INFO scheduler Scheduled Job Complete: frappe.email.queue.flush for fhts.com
2021-06-29 17:05:01,148 DEBUG scheduler Queued events for site fhts.com
2021-06-29 17:06:01,355 DEBUG scheduler Queued events for site fhts.com
2021-06-29 17:07:01,624 DEBUG scheduler Queued events for site fhts.com
2021-06-29 17:08:01,874 DEBUG scheduler Queued events for site fhts.com
2021-06-29 17:08:01,904 INFO scheduler Scheduled Job Start: frappe.monitor.flush for fhts.com
2021-06-29 17:08:02,143 INFO scheduler Scheduled Job Complete: frappe.monitor.flush for fhts.com
2021-06-29 17:08:02,230 INFO scheduler Scheduled Job Start: frappe.utils.global_search.sync_global_search for fhts.com
2021-06-29 17:08:02,397 INFO scheduler Scheduled Job Complete: frappe.utils.global_search.sync_global_search for fhts.com
2021-06-29 17:08:02,464 INFO scheduler Scheduled Job Start: frappe.integrations.doctype.razorpay_settings.razorpay_settings.capture_payment for fhts.com
2021-06-29 17:08:02,803 INFO scheduler Scheduled Job Complete: frappe.integrations.doctype.razorpay_settings.razorpay_settings.capture_payment for fhts.com
2021-06-29 17:08:02,867 INFO scheduler Scheduled Job Start: frappe.email.doctype.email_account.email_account.notify_unreplied for fhts.com
2021-06-29 17:08:03,214 INFO scheduler Scheduled Job Complete: frappe.email.doctype.email_account.email_account.notify_unreplied for fhts.com
2021-06-29 17:08:03,277 INFO scheduler Scheduled Job Start: frappe.email.doctype.email_account.email_account.pull for fhts.com
2021-06-29 17:08:03,622 INFO scheduler Scheduled Job Complete: frappe.email.doctype.email_account.email_account.pull for fhts.com
2021-06-29 17:08:03,684 INFO scheduler Scheduled Job Start: frappe.email.queue.flush for fhts.com
2021-06-29 17:08:03,990 INFO scheduler Scheduled Job Complete: frappe.email.queue.flush for fhts.com
2021-06-29 17:09:02,093 DEBUG scheduler Queued events for site fhts.com
2021-06-29 17:10:02,308 DEBUG scheduler Queued events for site fhts.com
2021-06-29 17:11:02,524 DEBUG scheduler Queued events for site fhts.com
2021-06-29 17:12:02,770 DEBUG scheduler Queued events for site fhts.com
2021-06-29 17:12:02,801 INFO scheduler Scheduled Job Start: frappe.monitor.flush for fhts.com
2021-06-29 17:12:02,987 INFO scheduler Scheduled Job Complete: frappe.monitor.flush for fhts.com
2021-06-29 17:12:03,072 INFO scheduler Scheduled Job Start: frappe.utils.global_search.sync_global_search for fhts.com
2021-06-29 17:12:03,241 INFO scheduler Scheduled Job Complete: frappe.utils.global_search.sync_global_search for fhts.com
2021-06-29 17:12:03,305 INFO scheduler Scheduled Job Start: frappe.integrations.doctype.razorpay_settings.razorpay_settings.capture_payment for fhts.com
2021-06-29 17:12:03,647 INFO scheduler Scheduled Job Complete: frappe.integrations.doctype.razorpay_settings.razorpay_settings.capture_payment for fhts.com
2021-06-29 17:12:03,713 INFO scheduler Scheduled Job Start: frappe.email.doctype.email_account.email_account.notify_unreplied for fhts.com
2021-06-29 17:12:03,983 INFO scheduler Scheduled Job Complete: frappe.email.doctype.email_account.email_account.notify_unreplied for fhts.com
2021-06-29 17:12:04,048 INFO scheduler Scheduled Job Start: frappe.email.doctype.email_account.email_account.pull for fhts.com
2021-06-29 17:12:04,427 INFO scheduler Scheduled Job Complete: frappe.email.doctype.email_account.email_account.pull for fhts.com
2021-06-29 17:12:04,491 INFO scheduler Scheduled Job Start: frappe.email.queue.flush for fhts.com
2021-06-29 17:12:04,739 INFO scheduler Scheduled Job Complete: frappe.email.queue.flush for fhts.com
2021-06-29 17:20:03,559 DEBUG scheduler Queued events for site fhts.com
2021-06-29 17:20:03,577 INFO scheduler Scheduled Job Start: frappe.monitor.flush for fhts.com
2021-06-29 17:20:04,055 INFO scheduler Scheduled Job Complete: frappe.monitor.flush for fhts.com
2021-06-29 17:20:04,162 INFO scheduler Scheduled Job Start: frappe.utils.global_search.sync_global_search for fhts.com
2021-06-29 17:20:04,409 INFO scheduler Scheduled Job Complete: frappe.utils.global_search.sync_global_search for fhts.com
2021-06-29 17:20:04,524 INFO scheduler Scheduled Job Start: frappe.integrations.doctype.razorpay_settings.razorpay_settings.capture_payment for fhts.com
2021-06-29 17:20:05,370 INFO scheduler Scheduled Job Complete: frappe.integrations.doctype.razorpay_settings.razorpay_settings.capture_payment for fhts.com
2021-06-29 17:20:05,438 INFO scheduler Scheduled Job Start: frappe.email.doctype.email_account.email_account.notify_unreplied for fhts.com
2021-06-29 17:20:05,937 INFO scheduler Scheduled Job Complete: frappe.email.doctype.email_account.email_account.notify_unreplied for fhts.com
2021-06-29 17:20:06,006 INFO scheduler Scheduled Job Start: frappe.email.doctype.email_account.email_account.pull for fhts.com
2021-06-29 17:20:06,436 INFO scheduler Scheduled Job Complete: frappe.email.doctype.email_account.email_account.pull for fhts.com
2021-06-29 17:20:06,510 INFO scheduler Scheduled Job Start: frappe.email.queue.flush for fhts.com
2021-06-29 17:20:06,920 INFO scheduler Scheduled Job Complete: frappe.email.queue.flush for fhts.com
2021-06-29 17:20:06,989 INFO scheduler Scheduled Job Start: frappe.twofactor.delete_all_barcodes_for_users for fhts.com
2021-06-29 17:20:11,522 INFO scheduler Scheduled Job Complete: frappe.twofactor.delete_all_barcodes_for_users for fhts.com
2021-06-29 17:20:11,710 INFO scheduler Scheduled Job Start: frappe.website.doctype.web_page.web_page.check_publish_status for fhts.com
2021-06-29 17:20:15,512 INFO scheduler Scheduled Job Complete: frappe.website.doctype.web_page.web_page.check_publish_status for fhts.com
2021-06-29 17:20:15,712 INFO scheduler Scheduled Job Start: frappe.oauth.delete_oauth2_data for fhts.com
2021-06-29 17:20:16,293 INFO scheduler Scheduled Job Complete: frappe.oauth.delete_oauth2_data for fhts.com
2021-06-29 17:21:04,651 DEBUG scheduler Queued events for site fhts.com
2021-06-29 17:22:04,851 DEBUG scheduler Queued events for site fhts.com
2021-06-29 17:23:05,074 DEBUG scheduler Queued events for site fhts.com
2021-06-29 17:24:05,289 DEBUG scheduler Queued events for site fhts.com
2021-06-29 17:24:05,320 INFO scheduler Scheduled Job Start: frappe.monitor.flush for fhts.com
2021-06-29 17:24:05,486 INFO scheduler Scheduled Job Complete: frappe.monitor.flush for fhts.com
2021-06-29 17:24:05,555 INFO scheduler Scheduled Job Start: frappe.utils.global_search.sync_global_search for fhts.com
2021-06-29 17:24:05,719 INFO scheduler Scheduled Job Complete: frappe.utils.global_search.sync_global_search for fhts.com
2021-06-29 17:24:05,796 INFO scheduler Scheduled Job Start: frappe.integrations.doctype.razorpay_settings.razorpay_settings.capture_payment for fhts.com
2021-06-29 17:24:06,182 INFO scheduler Scheduled Job Complete: frappe.integrations.doctype.razorpay_settings.razorpay_settings.capture_payment for fhts.com
2021-06-29 17:24:06,251 INFO scheduler Scheduled Job Start: frappe.email.doctype.email_account.email_account.notify_unreplied for fhts.com
2021-06-29 17:24:06,529 INFO scheduler Scheduled Job Complete: frappe.email.doctype.email_account.email_account.notify_unreplied for fhts.com
2021-06-29 17:24:06,591 INFO scheduler Scheduled Job Start: frappe.email.doctype.email_account.email_account.pull for fhts.com
2021-06-29 17:24:06,880 INFO scheduler Scheduled Job Complete: frappe.email.doctype.email_account.email_account.pull for fhts.com
2021-06-29 17:24:06,942 INFO scheduler Scheduled Job Start: frappe.email.queue.flush for fhts.com
2021-06-29 17:24:07,169 INFO scheduler Scheduled Job Complete: frappe.email.queue.flush for fhts.com
2021-06-29 17:25:05,526 DEBUG scheduler Queued events for site fhts.com
2021-06-29 17:26:05,744 DEBUG scheduler Queued events for site fhts.com
2021-07-01 15:02:10,789 DEBUG scheduler Queued events for site fhts.com
2021-07-01 15:02:12,181 INFO scheduler Scheduled Job Start: frappe.social.doctype.energy_point_log.energy_point_log.send_monthly_summary for fhts.com
2021-07-01 15:02:12,187 INFO scheduler Scheduled Job Start: frappe.integrations.doctype.s3_backup_settings.s3_backup_settings.take_backups_monthly for fhts.com
2021-07-01 15:02:16,611 INFO scheduler Scheduled Job Complete: frappe.social.doctype.energy_point_log.energy_point_log.send_monthly_summary for fhts.com
2021-07-01 15:02:17,095 INFO scheduler Scheduled Job Start: frappe.email.doctype.auto_email_report.auto_email_report.send_monthly for fhts.com
2021-07-01 15:02:17,437 INFO scheduler Scheduled Job Complete: frappe.integrations.doctype.s3_backup_settings.s3_backup_settings.take_backups_monthly for fhts.com
2021-07-01 15:02:17,573 INFO scheduler Scheduled Job Start: frappe.integrations.doctype.google_drive.google_drive.daily_backup for fhts.com
2021-07-01 15:02:20,188 INFO scheduler Scheduled Job Complete: frappe.email.doctype.auto_email_report.auto_email_report.send_monthly for fhts.com
2021-07-01 15:02:20,347 INFO scheduler Scheduled Job Start: frappe.core.doctype.log_settings.log_settings.run_log_clean_up for fhts.com
2021-07-01 15:02:21,665 INFO scheduler Scheduled Job Complete: frappe.core.doctype.log_settings.log_settings.run_log_clean_up for fhts.com
2021-07-01 15:02:21,831 INFO scheduler Scheduled Job Start: frappe.core.doctype.prepared_report.prepared_report.delete_expired_prepared_reports for fhts.com
2021-07-01 15:02:22,990 INFO scheduler Scheduled Job Complete: frappe.core.doctype.prepared_report.prepared_report.delete_expired_prepared_reports for fhts.com
2021-07-01 15:02:23,244 INFO scheduler Scheduled Job Complete: frappe.integrations.doctype.google_drive.google_drive.daily_backup for fhts.com
2021-07-01 15:02:25,412 INFO scheduler Scheduled Job Start: frappe.integrations.doctype.s3_backup_settings.s3_backup_settings.take_backups_daily for fhts.com
2021-07-01 15:02:25,412 INFO scheduler Scheduled Job Start: frappe.email.doctype.unhandled_email.unhandled_email.remove_old_unhandled_emails for fhts.com
2021-07-01 15:02:28,991 INFO scheduler Scheduled Job Complete: frappe.email.doctype.unhandled_email.unhandled_email.remove_old_unhandled_emails for fhts.com
2021-07-01 15:02:30,229 INFO scheduler Scheduled Job Complete: frappe.integrations.doctype.s3_backup_settings.s3_backup_settings.take_backups_daily for fhts.com
2021-07-01 15:02:30,427 INFO scheduler Scheduled Job Start: frappe.utils.change_log.check_for_update for fhts.com
2021-07-01 15:02:30,427 INFO scheduler Scheduled Job Start: frappe.automation.doctype.auto_repeat.auto_repeat.set_auto_repeat_as_completed for fhts.com
2021-07-01 15:02:40,997 INFO scheduler Scheduled Job Complete: frappe.automation.doctype.auto_repeat.auto_repeat.set_auto_repeat_as_completed for fhts.com
2021-07-01 15:02:42,903 INFO scheduler Scheduled Job Complete: frappe.utils.change_log.check_for_update for fhts.com
2021-07-01 15:02:43,695 INFO scheduler Scheduled Job Start: frappe.automation.doctype.auto_repeat.auto_repeat.make_auto_repeat_entry for fhts.com
2021-07-01 15:02:43,695 INFO scheduler Scheduled Job Start: frappe.integrations.doctype.dropbox_settings.dropbox_settings.take_backups_daily for fhts.com
2021-07-01 15:02:49,705 INFO scheduler Scheduled Job Complete: frappe.automation.doctype.auto_repeat.auto_repeat.make_auto_repeat_entry for fhts.com
2021-07-01 15:02:52,336 INFO scheduler Scheduled Job Start: frappe.integrations.doctype.google_contacts.google_contacts.sync for fhts.com
2021-07-01 15:02:53,179 INFO scheduler Scheduled Job Complete: frappe.integrations.doctype.dropbox_settings.dropbox_settings.take_backups_daily for fhts.com
2021-07-01 15:02:55,655 INFO scheduler Scheduled Job Complete: frappe.integrations.doctype.google_contacts.google_contacts.sync for fhts.com
2021-07-01 15:02:55,752 INFO scheduler Scheduled Job Start: frappe.social.doctype.energy_point_settings.energy_point_settings.allocate_review_points for fhts.com
2021-07-01 15:02:56,694 INFO scheduler Scheduled Job Complete: frappe.social.doctype.energy_point_settings.energy_point_settings.allocate_review_points for fhts.com
2021-07-01 15:02:56,826 INFO scheduler Scheduled Job Start: frappe.desk.form.document_follow.send_daily_updates for fhts.com
2021-07-01 15:02:57,259 INFO scheduler Scheduled Job Complete: frappe.desk.form.document_follow.send_daily_updates for fhts.com
2021-07-01 15:02:57,356 INFO scheduler Scheduled Job Start: frappe.website.doctype.personal_data_deletion_request.personal_data_deletion_request.remove_unverified_record for fhts.com
2021-07-01 15:02:57,769 INFO scheduler Scheduled Job Complete: frappe.website.doctype.personal_data_deletion_request.personal_data_deletion_request.remove_unverified_record for fhts.com
2021-07-01 15:02:57,921 INFO scheduler Scheduled Job Start: frappe.email.doctype.auto_email_report.auto_email_report.send_daily for fhts.com
2021-07-01 15:03:11,306 DEBUG scheduler Queued events for site fhts.com
