2021-06-27 19:04:40,799 INFO scheduler Scheduled Job Complete: frappe.monitor.flush for fhts.com
2021-06-27 19:04:40,911 INFO scheduler Scheduled Job Start: frappe.utils.global_search.sync_global_search for fhts.com
2021-06-27 19:04:41,112 INFO scheduler Scheduled Job Complete: frappe.utils.global_search.sync_global_search for fhts.com
2021-06-27 19:04:41,202 INFO scheduler Scheduled Job Start: frappe.integrations.doctype.razorpay_settings.razorpay_settings.capture_payment for fhts.com
2021-06-27 19:04:41,601 INFO scheduler Scheduled Job Complete: frappe.integrations.doctype.razorpay_settings.razorpay_settings.capture_payment for fhts.com
2021-06-27 19:04:41,669 INFO scheduler Scheduled Job Start: frappe.email.doctype.email_account.email_account.notify_unreplied for fhts.com
2021-06-27 19:04:42,009 INFO scheduler Scheduled Job Complete: frappe.email.doctype.email_account.email_account.notify_unreplied for fhts.com
2021-06-27 19:04:42,090 INFO scheduler Scheduled Job Start: frappe.email.doctype.email_account.email_account.pull for fhts.com
2021-06-27 19:04:42,462 INFO scheduler Scheduled Job Complete: frappe.email.doctype.email_account.email_account.pull for fhts.com
2021-06-27 19:04:42,532 INFO scheduler Scheduled Job Start: frappe.email.queue.flush for fhts.com
2021-06-27 19:04:42,824 INFO scheduler Scheduled Job Complete: frappe.email.queue.flush for fhts.com
