2021-06-08 16:18:56,009 DEBUG scheduler Queued events for site fhts.com
2021-06-08 16:19:56,222 DEBUG scheduler Queued events for site fhts.com
2021-06-08 16:20:56,563 DEBUG scheduler Queued events for site fhts.com
2021-06-08 16:20:56,610 INFO scheduler Scheduled Job Start: frappe.monitor.flush for fhts.com
2021-06-08 16:20:56,964 INFO scheduler Scheduled Job Complete: frappe.monitor.flush for fhts.com
2021-06-08 16:20:57,122 INFO scheduler Scheduled Job Start: frappe.utils.global_search.sync_global_search for fhts.com
2021-06-08 16:20:57,419 INFO scheduler Scheduled Job Complete: frappe.utils.global_search.sync_global_search for fhts.com
2021-06-08 16:20:57,579 INFO scheduler Scheduled Job Start: frappe.integrations.doctype.razorpay_settings.razorpay_settings.capture_payment for fhts.com
2021-06-08 16:20:58,155 INFO scheduler Scheduled Job Complete: frappe.integrations.doctype.razorpay_settings.razorpay_settings.capture_payment for fhts.com
2021-06-08 16:20:58,236 INFO scheduler Scheduled Job Start: frappe.email.doctype.email_account.email_account.notify_unreplied for fhts.com
2021-06-08 16:20:58,684 INFO scheduler Scheduled Job Complete: frappe.email.doctype.email_account.email_account.notify_unreplied for fhts.com
2021-06-08 16:20:58,764 INFO scheduler Scheduled Job Start: frappe.email.doctype.email_account.email_account.pull for fhts.com
2021-06-08 16:20:59,111 INFO scheduler Scheduled Job Complete: frappe.email.doctype.email_account.email_account.pull for fhts.com
2021-06-08 16:20:59,187 INFO scheduler Scheduled Job Start: frappe.email.queue.flush for fhts.com
2021-06-08 16:20:59,659 INFO scheduler Scheduled Job Complete: frappe.email.queue.flush for fhts.com
2021-06-08 16:21:56,782 DEBUG scheduler Queued events for site fhts.com
2021-06-08 16:22:56,994 DEBUG scheduler Queued events for site fhts.com
2021-06-08 16:23:57,213 DEBUG scheduler Queued events for site fhts.com
2021-06-08 16:24:57,451 DEBUG scheduler Queued events for site fhts.com
2021-06-08 16:24:57,482 INFO scheduler Scheduled Job Start: frappe.monitor.flush for fhts.com
2021-06-08 16:24:57,681 INFO scheduler Scheduled Job Complete: frappe.monitor.flush for fhts.com
2021-06-08 16:24:57,789 INFO scheduler Scheduled Job Start: frappe.utils.global_search.sync_global_search for fhts.com
2021-06-08 16:24:57,945 INFO scheduler Scheduled Job Complete: frappe.utils.global_search.sync_global_search for fhts.com
2021-06-08 16:24:58,010 INFO scheduler Scheduled Job Start: frappe.integrations.doctype.razorpay_settings.razorpay_settings.capture_payment for fhts.com
2021-06-08 16:24:58,366 INFO scheduler Scheduled Job Complete: frappe.integrations.doctype.razorpay_settings.razorpay_settings.capture_payment for fhts.com
2021-06-08 16:24:58,431 INFO scheduler Scheduled Job Start: frappe.email.doctype.email_account.email_account.notify_unreplied for fhts.com
2021-06-08 16:24:58,710 INFO scheduler Scheduled Job Complete: frappe.email.doctype.email_account.email_account.notify_unreplied for fhts.com
2021-06-08 16:24:58,774 INFO scheduler Scheduled Job Start: frappe.email.doctype.email_account.email_account.pull for fhts.com
2021-06-08 16:24:59,126 INFO scheduler Scheduled Job Complete: frappe.email.doctype.email_account.email_account.pull for fhts.com
2021-06-08 16:24:59,190 INFO scheduler Scheduled Job Start: frappe.email.queue.flush for fhts.com
2021-06-08 16:24:59,525 INFO scheduler Scheduled Job Complete: frappe.email.queue.flush for fhts.com
2021-06-08 16:25:57,724 DEBUG scheduler Queued events for site fhts.com
2021-06-08 16:26:57,939 DEBUG scheduler Queued events for site fhts.com
2021-06-08 16:27:58,132 DEBUG scheduler Queued events for site fhts.com
2021-06-08 16:28:58,381 DEBUG scheduler Queued events for site fhts.com
2021-06-08 16:28:58,413 INFO scheduler Scheduled Job Start: frappe.monitor.flush for fhts.com
2021-06-08 16:28:58,607 INFO scheduler Scheduled Job Complete: frappe.monitor.flush for fhts.com
2021-06-08 16:28:58,721 INFO scheduler Scheduled Job Start: frappe.utils.global_search.sync_global_search for fhts.com
2021-06-08 16:28:58,884 INFO scheduler Scheduled Job Complete: frappe.utils.global_search.sync_global_search for fhts.com
2021-06-08 16:28:58,984 INFO scheduler Scheduled Job Start: frappe.integrations.doctype.razorpay_settings.razorpay_settings.capture_payment for fhts.com
2021-06-08 16:28:59,387 INFO scheduler Scheduled Job Complete: frappe.integrations.doctype.razorpay_settings.razorpay_settings.capture_payment for fhts.com
2021-06-08 16:28:59,487 INFO scheduler Scheduled Job Start: frappe.email.doctype.email_account.email_account.notify_unreplied for fhts.com
2021-06-08 16:28:59,895 INFO scheduler Scheduled Job Complete: frappe.email.doctype.email_account.email_account.notify_unreplied for fhts.com
2021-06-08 16:28:59,962 INFO scheduler Scheduled Job Start: frappe.email.doctype.email_account.email_account.pull for fhts.com
2021-06-08 16:29:00,321 INFO scheduler Scheduled Job Complete: frappe.email.doctype.email_account.email_account.pull for fhts.com
2021-06-08 16:29:00,387 INFO scheduler Scheduled Job Start: frappe.email.queue.flush for fhts.com
2021-06-08 16:29:00,671 INFO scheduler Scheduled Job Complete: frappe.email.queue.flush for fhts.com
2021-06-08 16:29:58,593 DEBUG scheduler Queued events for site fhts.com
2021-06-08 16:30:58,804 DEBUG scheduler Queued events for site fhts.com
2021-06-08 16:30:58,854 INFO scheduler Scheduled Job Start: frappe.twofactor.delete_all_barcodes_for_users for fhts.com
2021-06-08 16:30:59,310 INFO scheduler Scheduled Job Complete: frappe.twofactor.delete_all_barcodes_for_users for fhts.com
2021-06-08 16:30:59,454 INFO scheduler Scheduled Job Start: frappe.website.doctype.web_page.web_page.check_publish_status for fhts.com
2021-06-08 16:30:59,981 INFO scheduler Scheduled Job Complete: frappe.website.doctype.web_page.web_page.check_publish_status for fhts.com
2021-06-08 16:31:00,092 INFO scheduler Scheduled Job Start: frappe.oauth.delete_oauth2_data for fhts.com
2021-06-08 16:31:00,532 INFO scheduler Scheduled Job Complete: frappe.oauth.delete_oauth2_data for fhts.com
2021-06-08 16:31:59,022 DEBUG scheduler Queued events for site fhts.com
2021-06-08 16:32:59,246 DEBUG scheduler Queued events for site fhts.com
2021-06-08 16:32:59,278 INFO scheduler Scheduled Job Start: frappe.monitor.flush for fhts.com
2021-06-08 16:32:59,734 INFO scheduler Scheduled Job Complete: frappe.monitor.flush for fhts.com
2021-06-08 16:32:59,844 INFO scheduler Scheduled Job Start: frappe.utils.global_search.sync_global_search for fhts.com
2021-06-08 16:32:59,998 INFO scheduler Scheduled Job Complete: frappe.utils.global_search.sync_global_search for fhts.com
2021-06-08 16:33:00,066 INFO scheduler Scheduled Job Start: frappe.integrations.doctype.razorpay_settings.razorpay_settings.capture_payment for fhts.com
2021-06-08 16:33:00,409 INFO scheduler Scheduled Job Complete: frappe.integrations.doctype.razorpay_settings.razorpay_settings.capture_payment for fhts.com
2021-06-08 16:33:00,472 INFO scheduler Scheduled Job Start: frappe.email.doctype.email_account.email_account.notify_unreplied for fhts.com
2021-06-08 16:33:00,803 INFO scheduler Scheduled Job Complete: frappe.email.doctype.email_account.email_account.notify_unreplied for fhts.com
2021-06-08 16:33:00,866 INFO scheduler Scheduled Job Start: frappe.email.doctype.email_account.email_account.pull for fhts.com
2021-06-08 16:33:01,211 INFO scheduler Scheduled Job Complete: frappe.email.doctype.email_account.email_account.pull for fhts.com
2021-06-08 16:33:01,273 INFO scheduler Scheduled Job Start: frappe.email.queue.flush for fhts.com
2021-06-08 16:33:01,577 INFO scheduler Scheduled Job Complete: frappe.email.queue.flush for fhts.com
2021-06-08 16:33:59,475 DEBUG scheduler Queued events for site fhts.com
2021-06-08 16:34:59,676 DEBUG scheduler Queued events for site fhts.com
2021-06-08 16:35:59,898 DEBUG scheduler Queued events for site fhts.com
2021-06-08 16:37:00,124 DEBUG scheduler Queued events for site fhts.com
2021-06-08 16:37:00,152 INFO scheduler Scheduled Job Start: frappe.monitor.flush for fhts.com
2021-06-08 16:37:00,351 INFO scheduler Scheduled Job Complete: frappe.monitor.flush for fhts.com
2021-06-08 16:37:00,462 INFO scheduler Scheduled Job Start: frappe.utils.global_search.sync_global_search for fhts.com
2021-06-08 16:37:00,627 INFO scheduler Scheduled Job Complete: frappe.utils.global_search.sync_global_search for fhts.com
2021-06-08 16:37:00,692 INFO scheduler Scheduled Job Start: frappe.integrations.doctype.razorpay_settings.razorpay_settings.capture_payment for fhts.com
2021-06-08 16:37:01,017 INFO scheduler Scheduled Job Complete: frappe.integrations.doctype.razorpay_settings.razorpay_settings.capture_payment for fhts.com
2021-06-08 16:37:01,079 INFO scheduler Scheduled Job Start: frappe.email.doctype.email_account.email_account.notify_unreplied for fhts.com
2021-06-08 16:37:01,346 INFO scheduler Scheduled Job Complete: frappe.email.doctype.email_account.email_account.notify_unreplied for fhts.com
2021-06-08 16:37:01,407 INFO scheduler Scheduled Job Start: frappe.email.doctype.email_account.email_account.pull for fhts.com
2021-06-08 16:37:01,786 INFO scheduler Scheduled Job Complete: frappe.email.doctype.email_account.email_account.pull for fhts.com
2021-06-08 16:37:01,848 INFO scheduler Scheduled Job Start: frappe.email.queue.flush for fhts.com
2021-06-08 16:37:02,152 INFO scheduler Scheduled Job Complete: frappe.email.queue.flush for fhts.com
2021-06-08 16:38:00,350 DEBUG scheduler Queued events for site fhts.com
2021-06-08 16:39:00,557 DEBUG scheduler Queued events for site fhts.com
2021-06-08 16:40:00,763 DEBUG scheduler Queued events for site fhts.com
2021-06-08 16:40:00,793 INFO scheduler Scheduled Job Start: frappe.monitor.flush for fhts.com
2021-06-08 16:40:00,982 INFO scheduler Scheduled Job Complete: frappe.monitor.flush for fhts.com
2021-06-08 16:40:01,072 INFO scheduler Scheduled Job Start: frappe.utils.global_search.sync_global_search for fhts.com
2021-06-08 16:40:01,248 INFO scheduler Scheduled Job Complete: frappe.utils.global_search.sync_global_search for fhts.com
2021-06-08 16:40:01,364 INFO scheduler Scheduled Job Start: frappe.integrations.doctype.razorpay_settings.razorpay_settings.capture_payment for fhts.com
2021-06-08 16:40:01,682 INFO scheduler Scheduled Job Complete: frappe.integrations.doctype.razorpay_settings.razorpay_settings.capture_payment for fhts.com
2021-06-08 16:40:01,746 INFO scheduler Scheduled Job Start: frappe.email.doctype.email_account.email_account.notify_unreplied for fhts.com
2021-06-08 16:40:02,075 INFO scheduler Scheduled Job Complete: frappe.email.doctype.email_account.email_account.notify_unreplied for fhts.com
2021-06-08 16:40:02,138 INFO scheduler Scheduled Job Start: frappe.email.doctype.email_account.email_account.pull for fhts.com
2021-06-08 16:40:02,476 INFO scheduler Scheduled Job Complete: frappe.email.doctype.email_account.email_account.pull for fhts.com
2021-06-08 16:40:02,540 INFO scheduler Scheduled Job Start: frappe.email.queue.flush for fhts.com
2021-06-08 16:40:02,842 INFO scheduler Scheduled Job Complete: frappe.email.queue.flush for fhts.com
2021-06-08 16:41:00,961 DEBUG scheduler Queued events for site fhts.com
2021-06-08 16:42:01,170 DEBUG scheduler Queued events for site fhts.com
2021-06-08 16:43:01,403 DEBUG scheduler Queued events for site fhts.com
2021-06-08 16:44:01,649 DEBUG scheduler Queued events for site fhts.com
2021-06-08 16:44:01,676 INFO scheduler Scheduled Job Start: frappe.monitor.flush for fhts.com
2021-06-08 16:44:01,872 INFO scheduler Scheduled Job Complete: frappe.monitor.flush for fhts.com
2021-06-08 16:44:01,966 INFO scheduler Scheduled Job Start: frappe.utils.global_search.sync_global_search for fhts.com
2021-06-08 16:44:02,136 INFO scheduler Scheduled Job Complete: frappe.utils.global_search.sync_global_search for fhts.com
2021-06-08 16:44:02,201 INFO scheduler Scheduled Job Start: frappe.integrations.doctype.razorpay_settings.razorpay_settings.capture_payment for fhts.com
2021-06-08 16:44:02,569 INFO scheduler Scheduled Job Complete: frappe.integrations.doctype.razorpay_settings.razorpay_settings.capture_payment for fhts.com
2021-06-08 16:44:02,638 INFO scheduler Scheduled Job Start: frappe.email.doctype.email_account.email_account.notify_unreplied for fhts.com
2021-06-08 16:44:02,925 INFO scheduler Scheduled Job Complete: frappe.email.doctype.email_account.email_account.notify_unreplied for fhts.com
2021-06-08 16:44:02,995 INFO scheduler Scheduled Job Start: frappe.email.doctype.email_account.email_account.pull for fhts.com
2021-06-08 16:44:03,323 INFO scheduler Scheduled Job Complete: frappe.email.doctype.email_account.email_account.pull for fhts.com
2021-06-08 16:44:03,392 INFO scheduler Scheduled Job Start: frappe.email.queue.flush for fhts.com
2021-06-08 16:44:03,695 INFO scheduler Scheduled Job Complete: frappe.email.queue.flush for fhts.com
2021-06-08 16:45:01,862 DEBUG scheduler Queued events for site fhts.com
2021-06-08 16:45:01,909 INFO scheduler Scheduled Job Start: frappe.twofactor.delete_all_barcodes_for_users for fhts.com
2021-06-08 16:45:02,367 INFO scheduler Scheduled Job Complete: frappe.twofactor.delete_all_barcodes_for_users for fhts.com
2021-06-08 16:45:02,454 INFO scheduler Scheduled Job Start: frappe.website.doctype.web_page.web_page.check_publish_status for fhts.com
2021-06-08 16:45:02,951 INFO scheduler Scheduled Job Complete: frappe.website.doctype.web_page.web_page.check_publish_status for fhts.com
2021-06-08 16:45:03,146 INFO scheduler Scheduled Job Start: frappe.oauth.delete_oauth2_data for fhts.com
2021-06-08 16:45:03,540 INFO scheduler Scheduled Job Complete: frappe.oauth.delete_oauth2_data for fhts.com
2021-06-08 16:46:02,072 DEBUG scheduler Queued events for site fhts.com
2021-06-08 16:47:02,288 DEBUG scheduler Queued events for site fhts.com
2021-06-08 16:48:02,521 DEBUG scheduler Queued events for site fhts.com
2021-06-08 16:48:02,552 INFO scheduler Scheduled Job Start: frappe.monitor.flush for fhts.com
2021-06-08 16:48:02,738 INFO scheduler Scheduled Job Complete: frappe.monitor.flush for fhts.com
2021-06-08 16:48:02,838 INFO scheduler Scheduled Job Start: frappe.utils.global_search.sync_global_search for fhts.com
2021-06-08 16:48:02,990 INFO scheduler Scheduled Job Complete: frappe.utils.global_search.sync_global_search for fhts.com
2021-06-08 16:48:03,055 INFO scheduler Scheduled Job Start: frappe.integrations.doctype.razorpay_settings.razorpay_settings.capture_payment for fhts.com
2021-06-08 16:48:03,370 INFO scheduler Scheduled Job Complete: frappe.integrations.doctype.razorpay_settings.razorpay_settings.capture_payment for fhts.com
2021-06-08 16:48:03,433 INFO scheduler Scheduled Job Start: frappe.email.doctype.email_account.email_account.notify_unreplied for fhts.com
2021-06-08 16:48:03,698 INFO scheduler Scheduled Job Complete: frappe.email.doctype.email_account.email_account.notify_unreplied for fhts.com
2021-06-08 16:48:03,760 INFO scheduler Scheduled Job Start: frappe.email.doctype.email_account.email_account.pull for fhts.com
2021-06-08 16:48:04,151 INFO scheduler Scheduled Job Complete: frappe.email.doctype.email_account.email_account.pull for fhts.com
2021-06-08 16:48:04,214 INFO scheduler Scheduled Job Start: frappe.email.queue.flush for fhts.com
2021-06-08 16:48:04,454 INFO scheduler Scheduled Job Complete: frappe.email.queue.flush for fhts.com
2021-06-08 16:49:02,749 DEBUG scheduler Queued events for site fhts.com
2021-06-08 16:50:02,964 DEBUG scheduler Queued events for site fhts.com
2021-06-08 16:51:03,375 DEBUG scheduler Queued events for site fhts.com
2021-06-08 16:52:03,628 DEBUG scheduler Queued events for site fhts.com
2021-06-08 16:52:03,655 INFO scheduler Scheduled Job Start: frappe.monitor.flush for fhts.com
2021-06-08 16:52:03,878 INFO scheduler Scheduled Job Complete: frappe.monitor.flush for fhts.com
2021-06-08 16:52:03,990 INFO scheduler Scheduled Job Start: frappe.utils.global_search.sync_global_search for fhts.com
2021-06-08 16:52:04,176 INFO scheduler Scheduled Job Complete: frappe.utils.global_search.sync_global_search for fhts.com
2021-06-08 16:52:04,262 INFO scheduler Scheduled Job Start: frappe.integrations.doctype.razorpay_settings.razorpay_settings.capture_payment for fhts.com
2021-06-08 16:52:04,799 INFO scheduler Scheduled Job Complete: frappe.integrations.doctype.razorpay_settings.razorpay_settings.capture_payment for fhts.com
2021-06-08 16:52:04,876 INFO scheduler Scheduled Job Start: frappe.email.doctype.email_account.email_account.notify_unreplied for fhts.com
2021-06-08 16:52:05,264 INFO scheduler Scheduled Job Complete: frappe.email.doctype.email_account.email_account.notify_unreplied for fhts.com
2021-06-08 16:52:05,369 INFO scheduler Scheduled Job Start: frappe.email.doctype.email_account.email_account.pull for fhts.com
2021-06-08 16:52:05,687 INFO scheduler Scheduled Job Complete: frappe.email.doctype.email_account.email_account.pull for fhts.com
2021-06-08 16:52:05,754 INFO scheduler Scheduled Job Start: frappe.email.queue.flush for fhts.com
2021-06-08 16:52:06,104 INFO scheduler Scheduled Job Complete: frappe.email.queue.flush for fhts.com
2021-06-08 16:53:03,847 DEBUG scheduler Queued events for site fhts.com
2021-06-08 16:54:04,072 DEBUG scheduler Queued events for site fhts.com
2021-06-08 16:55:04,250 DEBUG scheduler Queued events for site fhts.com
2021-06-08 16:56:04,474 DEBUG scheduler Queued events for site fhts.com
2021-06-08 16:56:04,876 INFO scheduler Scheduled Job Start: frappe.monitor.flush for fhts.com
2021-06-08 16:56:05,384 INFO scheduler Scheduled Job Complete: frappe.monitor.flush for fhts.com
2021-06-08 16:56:05,490 INFO scheduler Scheduled Job Start: frappe.utils.global_search.sync_global_search for fhts.com
2021-06-08 16:56:05,650 INFO scheduler Scheduled Job Complete: frappe.utils.global_search.sync_global_search for fhts.com
2021-06-08 16:56:05,745 INFO scheduler Scheduled Job Start: frappe.integrations.doctype.razorpay_settings.razorpay_settings.capture_payment for fhts.com
2021-06-08 16:56:06,564 INFO scheduler Scheduled Job Complete: frappe.integrations.doctype.razorpay_settings.razorpay_settings.capture_payment for fhts.com
2021-06-08 16:56:06,635 INFO scheduler Scheduled Job Start: frappe.email.doctype.email_account.email_account.notify_unreplied for fhts.com
2021-06-08 16:56:07,089 INFO scheduler Scheduled Job Complete: frappe.email.doctype.email_account.email_account.notify_unreplied for fhts.com
2021-06-08 16:56:07,154 INFO scheduler Scheduled Job Start: frappe.email.doctype.email_account.email_account.pull for fhts.com
2021-06-08 16:56:07,444 INFO scheduler Scheduled Job Complete: frappe.email.doctype.email_account.email_account.pull for fhts.com
2021-06-08 16:56:07,507 INFO scheduler Scheduled Job Start: frappe.email.queue.flush for fhts.com
2021-06-08 16:56:07,729 INFO scheduler Scheduled Job Complete: frappe.email.queue.flush for fhts.com
2021-06-08 16:57:04,700 DEBUG scheduler Queued events for site fhts.com
2021-06-08 16:58:04,988 DEBUG scheduler Queued events for site fhts.com
2021-06-08 16:59:05,205 DEBUG scheduler Queued events for site fhts.com
2021-06-08 17:00:05,460 INFO scheduler Scheduled Job Start: frappe.email.doctype.newsletter.newsletter.send_scheduled_email for fhts.com
2021-06-08 17:00:05,498 DEBUG scheduler Queued events for site fhts.com
2021-06-08 17:00:06,707 INFO scheduler Scheduled Job Complete: frappe.email.doctype.newsletter.newsletter.send_scheduled_email for fhts.com
2021-06-08 17:00:06,799 INFO scheduler Scheduled Job Start: frappe.integrations.doctype.google_calendar.google_calendar.sync for fhts.com
2021-06-08 17:00:07,944 INFO scheduler Scheduled Job Complete: frappe.integrations.doctype.google_calendar.google_calendar.sync for fhts.com
2021-06-08 17:00:08,074 INFO scheduler Scheduled Job Start: frappe.desk.form.document_follow.send_hourly_updates for fhts.com
2021-06-08 17:00:08,591 INFO scheduler Scheduled Job Complete: frappe.desk.form.document_follow.send_hourly_updates for fhts.com
2021-06-08 17:00:08,731 INFO scheduler Scheduled Job Start: frappe.deferred_insert.save_to_db for fhts.com
2021-06-08 17:00:09,776 INFO scheduler Scheduled Job Complete: frappe.deferred_insert.save_to_db for fhts.com
2021-06-08 17:00:09,941 INFO scheduler Scheduled Job Start: frappe.desk.page.backups.backups.delete_downloadable_backups for fhts.com
2021-06-08 17:00:10,488 INFO scheduler Scheduled Job Complete: frappe.desk.page.backups.backups.delete_downloadable_backups for fhts.com
2021-06-08 17:00:10,637 INFO scheduler Scheduled Job Start: frappe.utils.error.collect_error_snapshots for fhts.com
2021-06-08 17:00:11,237 INFO scheduler Scheduled Job Complete: frappe.utils.error.collect_error_snapshots for fhts.com
2021-06-08 17:00:11,367 INFO scheduler Scheduled Job Start: frappe.model.utils.user_settings.sync_user_settings for fhts.com
2021-06-08 17:00:11,872 INFO scheduler Scheduled Job Complete: frappe.model.utils.user_settings.sync_user_settings for fhts.com
2021-06-08 17:00:12,028 INFO scheduler Scheduled Job Start: frappe.model.utils.link_count.update_link_count for fhts.com
2021-06-08 17:00:12,623 INFO scheduler Scheduled Job Complete: frappe.model.utils.link_count.update_link_count for fhts.com
2021-06-08 17:00:12,851 INFO scheduler Scheduled Job Start: frappe.monitor.flush for fhts.com
2021-06-08 17:00:13,014 INFO scheduler Scheduled Job Complete: frappe.monitor.flush for fhts.com
2021-06-08 17:00:13,087 INFO scheduler Scheduled Job Start: frappe.utils.global_search.sync_global_search for fhts.com
2021-06-08 17:00:13,248 INFO scheduler Scheduled Job Complete: frappe.utils.global_search.sync_global_search for fhts.com
2021-06-08 17:00:13,348 INFO scheduler Scheduled Job Start: frappe.integrations.doctype.razorpay_settings.razorpay_settings.capture_payment for fhts.com
2021-06-08 17:00:13,703 INFO scheduler Scheduled Job Complete: frappe.integrations.doctype.razorpay_settings.razorpay_settings.capture_payment for fhts.com
2021-06-08 17:00:13,768 INFO scheduler Scheduled Job Start: frappe.email.doctype.email_account.email_account.notify_unreplied for fhts.com
2021-06-08 17:00:14,122 INFO scheduler Scheduled Job Complete: frappe.email.doctype.email_account.email_account.notify_unreplied for fhts.com
2021-06-08 17:00:14,256 INFO scheduler Scheduled Job Start: frappe.email.doctype.email_account.email_account.pull for fhts.com
2021-06-08 17:00:14,681 INFO scheduler Scheduled Job Complete: frappe.email.doctype.email_account.email_account.pull for fhts.com
2021-06-08 17:00:14,747 INFO scheduler Scheduled Job Start: frappe.email.queue.flush for fhts.com
2021-06-08 17:00:15,058 INFO scheduler Scheduled Job Complete: frappe.email.queue.flush for fhts.com
2021-06-08 17:00:15,125 INFO scheduler Scheduled Job Start: frappe.twofactor.delete_all_barcodes_for_users for fhts.com
2021-06-08 17:00:15,675 INFO scheduler Scheduled Job Complete: frappe.twofactor.delete_all_barcodes_for_users for fhts.com
2021-06-08 17:00:15,801 INFO scheduler Scheduled Job Start: frappe.website.doctype.web_page.web_page.check_publish_status for fhts.com
2021-06-08 17:00:16,417 INFO scheduler Scheduled Job Complete: frappe.website.doctype.web_page.web_page.check_publish_status for fhts.com
2021-06-08 17:00:16,549 INFO scheduler Scheduled Job Start: frappe.oauth.delete_oauth2_data for fhts.com
2021-06-08 17:00:17,196 INFO scheduler Scheduled Job Complete: frappe.oauth.delete_oauth2_data for fhts.com
2021-06-08 17:01:05,777 DEBUG scheduler Queued events for site fhts.com
2021-06-08 17:02:05,975 DEBUG scheduler Queued events for site fhts.com
2021-06-08 17:03:06,171 DEBUG scheduler Queued events for site fhts.com
2021-06-08 17:04:06,398 DEBUG scheduler Queued events for site fhts.com
2021-06-08 17:04:06,427 INFO scheduler Scheduled Job Start: frappe.monitor.flush for fhts.com
2021-06-08 17:04:06,883 INFO scheduler Scheduled Job Complete: frappe.monitor.flush for fhts.com
2021-06-08 17:04:06,997 INFO scheduler Scheduled Job Start: frappe.utils.global_search.sync_global_search for fhts.com
2021-06-08 17:04:07,160 INFO scheduler Scheduled Job Complete: frappe.utils.global_search.sync_global_search for fhts.com
2021-06-08 17:04:07,253 INFO scheduler Scheduled Job Start: frappe.integrations.doctype.razorpay_settings.razorpay_settings.capture_payment for fhts.com
2021-06-08 17:04:07,603 INFO scheduler Scheduled Job Complete: frappe.integrations.doctype.razorpay_settings.razorpay_settings.capture_payment for fhts.com
2021-06-08 17:04:07,666 INFO scheduler Scheduled Job Start: frappe.email.doctype.email_account.email_account.notify_unreplied for fhts.com
2021-06-08 17:04:07,995 INFO scheduler Scheduled Job Complete: frappe.email.doctype.email_account.email_account.notify_unreplied for fhts.com
2021-06-08 17:04:08,059 INFO scheduler Scheduled Job Start: frappe.email.doctype.email_account.email_account.pull for fhts.com
2021-06-08 17:04:08,350 INFO scheduler Scheduled Job Complete: frappe.email.doctype.email_account.email_account.pull for fhts.com
2021-06-08 17:04:08,413 INFO scheduler Scheduled Job Start: frappe.email.queue.flush for fhts.com
2021-06-08 17:04:08,702 INFO scheduler Scheduled Job Complete: frappe.email.queue.flush for fhts.com
2021-06-08 17:05:06,614 DEBUG scheduler Queued events for site fhts.com
2021-06-08 17:06:06,850 DEBUG scheduler Queued events for site fhts.com
2021-06-08 17:07:07,073 DEBUG scheduler Queued events for site fhts.com
2021-06-08 17:08:07,310 DEBUG scheduler Queued events for site fhts.com
2021-06-08 17:08:07,343 INFO scheduler Scheduled Job Start: frappe.monitor.flush for fhts.com
2021-06-08 17:08:07,523 INFO scheduler Scheduled Job Complete: frappe.monitor.flush for fhts.com
2021-06-08 17:08:07,591 INFO scheduler Scheduled Job Start: frappe.utils.global_search.sync_global_search for fhts.com
2021-06-08 17:08:07,769 INFO scheduler Scheduled Job Complete: frappe.utils.global_search.sync_global_search for fhts.com
2021-06-08 17:08:07,888 INFO scheduler Scheduled Job Start: frappe.integrations.doctype.razorpay_settings.razorpay_settings.capture_payment for fhts.com
2021-06-08 17:08:08,215 INFO scheduler Scheduled Job Complete: frappe.integrations.doctype.razorpay_settings.razorpay_settings.capture_payment for fhts.com
2021-06-08 17:08:08,279 INFO scheduler Scheduled Job Start: frappe.email.doctype.email_account.email_account.notify_unreplied for fhts.com
2021-06-08 17:08:08,609 INFO scheduler Scheduled Job Complete: frappe.email.doctype.email_account.email_account.notify_unreplied for fhts.com
2021-06-08 17:08:08,673 INFO scheduler Scheduled Job Start: frappe.email.doctype.email_account.email_account.pull for fhts.com
2021-06-08 17:08:08,991 INFO scheduler Scheduled Job Complete: frappe.email.doctype.email_account.email_account.pull for fhts.com
2021-06-08 17:08:09,055 INFO scheduler Scheduled Job Start: frappe.email.queue.flush for fhts.com
2021-06-08 17:08:09,310 INFO scheduler Scheduled Job Complete: frappe.email.queue.flush for fhts.com
2021-06-08 17:09:07,537 DEBUG scheduler Queued events for site fhts.com
2021-06-08 17:10:07,758 DEBUG scheduler Queued events for site fhts.com
2021-06-08 17:11:07,975 DEBUG scheduler Queued events for site fhts.com
2021-06-08 17:12:08,209 DEBUG scheduler Queued events for site fhts.com
2021-06-08 17:12:08,241 INFO scheduler Scheduled Job Start: frappe.monitor.flush for fhts.com
2021-06-08 17:12:08,696 INFO scheduler Scheduled Job Complete: frappe.monitor.flush for fhts.com
2021-06-08 17:12:08,811 INFO scheduler Scheduled Job Start: frappe.utils.global_search.sync_global_search for fhts.com
2021-06-08 17:12:08,961 INFO scheduler Scheduled Job Complete: frappe.utils.global_search.sync_global_search for fhts.com
2021-06-08 17:12:09,050 INFO scheduler Scheduled Job Start: frappe.integrations.doctype.razorpay_settings.razorpay_settings.capture_payment for fhts.com
2021-06-08 17:12:09,368 INFO scheduler Scheduled Job Complete: frappe.integrations.doctype.razorpay_settings.razorpay_settings.capture_payment for fhts.com
2021-06-08 17:12:09,434 INFO scheduler Scheduled Job Start: frappe.email.doctype.email_account.email_account.notify_unreplied for fhts.com
2021-06-08 17:12:09,731 INFO scheduler Scheduled Job Complete: frappe.email.doctype.email_account.email_account.notify_unreplied for fhts.com
2021-06-08 17:12:09,794 INFO scheduler Scheduled Job Start: frappe.email.doctype.email_account.email_account.pull for fhts.com
2021-06-08 17:12:10,164 INFO scheduler Scheduled Job Complete: frappe.email.doctype.email_account.email_account.pull for fhts.com
2021-06-08 17:12:10,226 INFO scheduler Scheduled Job Start: frappe.email.queue.flush for fhts.com
2021-06-08 17:12:10,452 INFO scheduler Scheduled Job Complete: frappe.email.queue.flush for fhts.com
2021-06-08 17:13:08,426 DEBUG scheduler Queued events for site fhts.com
2021-06-08 17:14:08,702 DEBUG scheduler Queued events for site fhts.com
2021-06-08 17:15:08,941 DEBUG scheduler Queued events for site fhts.com
2021-06-08 17:15:08,995 INFO scheduler Scheduled Job Start: frappe.twofactor.delete_all_barcodes_for_users for fhts.com
2021-06-08 17:15:09,548 INFO scheduler Scheduled Job Complete: frappe.twofactor.delete_all_barcodes_for_users for fhts.com
2021-06-08 17:15:09,760 INFO scheduler Scheduled Job Start: frappe.website.doctype.web_page.web_page.check_publish_status for fhts.com
2021-06-08 17:15:10,194 INFO scheduler Scheduled Job Complete: frappe.website.doctype.web_page.web_page.check_publish_status for fhts.com
2021-06-08 17:15:10,330 INFO scheduler Scheduled Job Start: frappe.oauth.delete_oauth2_data for fhts.com
2021-06-08 17:15:10,990 INFO scheduler Scheduled Job Complete: frappe.oauth.delete_oauth2_data for fhts.com
2021-06-08 17:16:09,184 DEBUG scheduler Queued events for site fhts.com
2021-06-08 17:16:09,214 INFO scheduler Scheduled Job Start: frappe.monitor.flush for fhts.com
2021-06-08 17:16:09,412 INFO scheduler Scheduled Job Complete: frappe.monitor.flush for fhts.com
2021-06-08 17:16:09,526 INFO scheduler Scheduled Job Start: frappe.utils.global_search.sync_global_search for fhts.com
2021-06-08 17:16:09,688 INFO scheduler Scheduled Job Complete: frappe.utils.global_search.sync_global_search for fhts.com
2021-06-08 17:16:09,772 INFO scheduler Scheduled Job Start: frappe.integrations.doctype.razorpay_settings.razorpay_settings.capture_payment for fhts.com
2021-06-08 17:16:10,126 INFO scheduler Scheduled Job Complete: frappe.integrations.doctype.razorpay_settings.razorpay_settings.capture_payment for fhts.com
2021-06-08 17:16:10,190 INFO scheduler Scheduled Job Start: frappe.email.doctype.email_account.email_account.notify_unreplied for fhts.com
2021-06-08 17:16:10,451 INFO scheduler Scheduled Job Complete: frappe.email.doctype.email_account.email_account.notify_unreplied for fhts.com
2021-06-08 17:16:10,516 INFO scheduler Scheduled Job Start: frappe.email.doctype.email_account.email_account.pull for fhts.com
2021-06-08 17:16:10,881 INFO scheduler Scheduled Job Complete: frappe.email.doctype.email_account.email_account.pull for fhts.com
2021-06-08 17:16:10,945 INFO scheduler Scheduled Job Start: frappe.email.queue.flush for fhts.com
2021-06-08 17:16:11,170 INFO scheduler Scheduled Job Complete: frappe.email.queue.flush for fhts.com
2021-06-08 17:17:09,410 DEBUG scheduler Queued events for site fhts.com
2021-06-08 17:18:09,641 DEBUG scheduler Queued events for site fhts.com
2021-06-08 17:19:09,830 DEBUG scheduler Queued events for site fhts.com
2021-06-08 17:20:10,069 DEBUG scheduler Queued events for site fhts.com
2021-06-08 17:20:10,101 INFO scheduler Scheduled Job Start: frappe.monitor.flush for fhts.com
2021-06-08 17:20:10,369 INFO scheduler Scheduled Job Complete: frappe.monitor.flush for fhts.com
2021-06-08 17:20:10,443 INFO scheduler Scheduled Job Start: frappe.utils.global_search.sync_global_search for fhts.com
2021-06-08 17:20:10,590 INFO scheduler Scheduled Job Complete: frappe.utils.global_search.sync_global_search for fhts.com
2021-06-08 17:20:10,654 INFO scheduler Scheduled Job Start: frappe.integrations.doctype.razorpay_settings.razorpay_settings.capture_payment for fhts.com
2021-06-08 17:20:10,970 INFO scheduler Scheduled Job Complete: frappe.integrations.doctype.razorpay_settings.razorpay_settings.capture_payment for fhts.com
2021-06-08 17:20:11,033 INFO scheduler Scheduled Job Start: frappe.email.doctype.email_account.email_account.notify_unreplied for fhts.com
2021-06-08 17:20:11,364 INFO scheduler Scheduled Job Complete: frappe.email.doctype.email_account.email_account.notify_unreplied for fhts.com
2021-06-08 17:20:11,427 INFO scheduler Scheduled Job Start: frappe.email.doctype.email_account.email_account.pull for fhts.com
2021-06-08 17:20:11,694 INFO scheduler Scheduled Job Complete: frappe.email.doctype.email_account.email_account.pull for fhts.com
2021-06-08 17:20:11,758 INFO scheduler Scheduled Job Start: frappe.email.queue.flush for fhts.com
2021-06-08 17:20:12,065 INFO scheduler Scheduled Job Complete: frappe.email.queue.flush for fhts.com
2021-06-08 17:21:10,287 DEBUG scheduler Queued events for site fhts.com
2021-06-08 17:22:10,629 DEBUG scheduler Queued events for site fhts.com
2021-06-08 17:23:10,857 DEBUG scheduler Queued events for site fhts.com
2021-06-08 17:24:11,204 DEBUG scheduler Queued events for site fhts.com
2021-06-08 17:24:11,234 INFO scheduler Scheduled Job Start: frappe.monitor.flush for fhts.com
2021-06-08 17:24:11,432 INFO scheduler Scheduled Job Complete: frappe.monitor.flush for fhts.com
2021-06-08 17:24:11,518 INFO scheduler Scheduled Job Start: frappe.utils.global_search.sync_global_search for fhts.com
2021-06-08 17:24:11,687 INFO scheduler Scheduled Job Complete: frappe.utils.global_search.sync_global_search for fhts.com
2021-06-08 17:24:11,788 INFO scheduler Scheduled Job Start: frappe.integrations.doctype.razorpay_settings.razorpay_settings.capture_payment for fhts.com
2021-06-08 17:24:12,214 INFO scheduler Scheduled Job Complete: frappe.integrations.doctype.razorpay_settings.razorpay_settings.capture_payment for fhts.com
2021-06-08 17:24:12,313 INFO scheduler Scheduled Job Start: frappe.email.doctype.email_account.email_account.notify_unreplied for fhts.com
2021-06-08 17:24:12,712 INFO scheduler Scheduled Job Complete: frappe.email.doctype.email_account.email_account.notify_unreplied for fhts.com
2021-06-08 17:24:12,839 INFO scheduler Scheduled Job Start: frappe.email.doctype.email_account.email_account.pull for fhts.com
2021-06-08 17:24:13,243 INFO scheduler Scheduled Job Complete: frappe.email.doctype.email_account.email_account.pull for fhts.com
2021-06-08 17:24:13,308 INFO scheduler Scheduled Job Start: frappe.email.queue.flush for fhts.com
2021-06-08 17:24:13,595 INFO scheduler Scheduled Job Complete: frappe.email.queue.flush for fhts.com
2021-06-09 22:19:20,335 DEBUG scheduler Queued events for site fhts.com
2021-06-09 22:19:22,162 INFO scheduler Scheduled Job Start: frappe.integrations.doctype.google_drive.google_drive.daily_backup for fhts.com
2021-06-09 22:19:22,164 INFO scheduler Scheduled Job Start: frappe.core.doctype.log_settings.log_settings.run_log_clean_up for fhts.com
2021-06-09 22:19:38,079 INFO scheduler Scheduled Job Complete: frappe.core.doctype.log_settings.log_settings.run_log_clean_up for fhts.com
2021-06-09 22:19:38,479 INFO scheduler Scheduled Job Start: frappe.core.doctype.prepared_report.prepared_report.delete_expired_prepared_reports for fhts.com
2021-06-09 22:19:39,686 INFO scheduler Scheduled Job Complete: frappe.core.doctype.prepared_report.prepared_report.delete_expired_prepared_reports for fhts.com
2021-06-09 22:19:39,892 INFO scheduler Scheduled Job Start: frappe.email.doctype.unhandled_email.unhandled_email.remove_old_unhandled_emails for fhts.com
2021-06-09 22:19:40,620 INFO scheduler Scheduled Job Complete: frappe.email.doctype.unhandled_email.unhandled_email.remove_old_unhandled_emails for fhts.com
2021-06-09 22:19:40,783 INFO scheduler Scheduled Job Start: frappe.automation.doctype.auto_repeat.auto_repeat.set_auto_repeat_as_completed for fhts.com
2021-06-09 22:19:40,888 INFO scheduler Scheduled Job Complete: frappe.integrations.doctype.google_drive.google_drive.daily_backup for fhts.com
2021-06-09 22:19:41,011 INFO scheduler Scheduled Job Start: frappe.integrations.doctype.s3_backup_settings.s3_backup_settings.take_backups_daily for fhts.com
2021-06-09 22:19:41,573 INFO scheduler Scheduled Job Complete: frappe.automation.doctype.auto_repeat.auto_repeat.set_auto_repeat_as_completed for fhts.com
2021-06-09 22:19:41,725 INFO scheduler Scheduled Job Start: frappe.automation.doctype.auto_repeat.auto_repeat.make_auto_repeat_entry for fhts.com
2021-06-09 22:19:41,857 INFO scheduler Scheduled Job Complete: frappe.integrations.doctype.s3_backup_settings.s3_backup_settings.take_backups_daily for fhts.com
2021-06-09 22:19:41,961 INFO scheduler Scheduled Job Start: frappe.utils.change_log.check_for_update for fhts.com
2021-06-09 22:19:42,131 INFO scheduler Scheduled Job Complete: frappe.automation.doctype.auto_repeat.auto_repeat.make_auto_repeat_entry for fhts.com
2021-06-09 22:19:42,239 INFO scheduler Scheduled Job Start: frappe.integrations.doctype.google_contacts.google_contacts.sync for fhts.com
2021-06-09 22:19:43,014 INFO scheduler Scheduled Job Complete: frappe.integrations.doctype.google_contacts.google_contacts.sync for fhts.com
2021-06-09 22:19:43,162 INFO scheduler Scheduled Job Complete: frappe.utils.change_log.check_for_update for fhts.com
2021-06-09 22:19:43,178 INFO scheduler Scheduled Job Start: frappe.social.doctype.energy_point_settings.energy_point_settings.allocate_review_points for fhts.com
2021-06-09 22:19:43,282 INFO scheduler Scheduled Job Start: frappe.integrations.doctype.dropbox_settings.dropbox_settings.take_backups_daily for fhts.com
2021-06-09 22:19:43,682 INFO scheduler Scheduled Job Complete: frappe.social.doctype.energy_point_settings.energy_point_settings.allocate_review_points for fhts.com
2021-06-09 22:19:43,890 INFO scheduler Scheduled Job Start: frappe.desk.form.document_follow.send_daily_updates for fhts.com
2021-06-09 22:19:44,247 INFO scheduler Scheduled Job Complete: frappe.integrations.doctype.dropbox_settings.dropbox_settings.take_backups_daily for fhts.com
2021-06-09 22:19:45,431 INFO scheduler Scheduled Job Complete: frappe.desk.form.document_follow.send_daily_updates for fhts.com
2021-06-09 22:19:45,673 INFO scheduler Scheduled Job Start: frappe.website.doctype.personal_data_deletion_request.personal_data_deletion_request.remove_unverified_record for fhts.com
2021-06-09 22:19:46,052 INFO scheduler Scheduled Job Complete: frappe.website.doctype.personal_data_deletion_request.personal_data_deletion_request.remove_unverified_record for fhts.com
2021-06-09 22:19:46,194 INFO scheduler Scheduled Job Start: frappe.email.doctype.auto_email_report.auto_email_report.send_daily for fhts.com
2021-06-09 22:19:48,541 INFO scheduler Scheduled Job Complete: frappe.email.doctype.auto_email_report.auto_email_report.send_daily for fhts.com
2021-06-09 22:19:48,731 INFO scheduler Scheduled Job Start: frappe.utils.scheduler.restrict_scheduler_events_if_dormant for fhts.com
2021-06-09 22:19:49,181 INFO scheduler Scheduled Job Failed: frappe.utils.scheduler.restrict_scheduler_events_if_dormant for fhts.com
2021-06-09 22:19:49,379 INFO scheduler Scheduled Job Start: frappe.realtime.remove_old_task_logs for fhts.com
2021-06-09 22:19:49,857 INFO scheduler Scheduled Job Complete: frappe.realtime.remove_old_task_logs for fhts.com
2021-06-09 22:19:49,997 INFO scheduler Scheduled Job Start: frappe.email.doctype.notification.notification.trigger_daily_alerts for fhts.com
2021-06-09 22:19:50,376 INFO scheduler Scheduled Job Complete: frappe.email.doctype.notification.notification.trigger_daily_alerts for fhts.com
2021-06-09 22:19:50,492 INFO scheduler Scheduled Job Start: frappe.sessions.clear_expired_sessions for fhts.com
2021-06-09 22:19:51,225 INFO scheduler Scheduled Job Complete: frappe.sessions.clear_expired_sessions for fhts.com
2021-06-09 22:19:51,394 INFO scheduler Scheduled Job Start: frappe.desk.doctype.event.event.send_event_digest for fhts.com
2021-06-09 22:19:51,988 INFO scheduler Scheduled Job Complete: frappe.desk.doctype.event.event.send_event_digest for fhts.com
2021-06-09 22:19:52,103 INFO scheduler Scheduled Job Start: frappe.core.doctype.error_log.error_log.set_old_logs_as_seen for fhts.com
2021-06-09 22:19:52,460 INFO scheduler Scheduled Job Complete: frappe.core.doctype.error_log.error_log.set_old_logs_as_seen for fhts.com
2021-06-09 22:19:52,592 INFO scheduler Scheduled Job Start: frappe.desk.notifications.clear_notifications for fhts.com
2021-06-09 22:19:52,963 INFO scheduler Scheduled Job Complete: frappe.desk.notifications.clear_notifications for fhts.com
2021-06-09 22:19:53,085 INFO scheduler Scheduled Job Start: frappe.email.queue.set_expiry_for_email_queue for fhts.com
2021-06-09 22:19:53,447 INFO scheduler Scheduled Job Complete: frappe.email.queue.set_expiry_for_email_queue for fhts.com
2021-06-09 22:19:53,610 INFO scheduler Scheduled Job Start: frappe.email.doctype.newsletter.newsletter.send_scheduled_email for fhts.com
2021-06-09 22:19:55,971 INFO scheduler Scheduled Job Complete: frappe.email.doctype.newsletter.newsletter.send_scheduled_email for fhts.com
2021-06-09 22:19:56,166 INFO scheduler Scheduled Job Start: frappe.integrations.doctype.google_calendar.google_calendar.sync for fhts.com
2021-06-09 22:19:57,266 INFO scheduler Scheduled Job Complete: frappe.integrations.doctype.google_calendar.google_calendar.sync for fhts.com
2021-06-09 22:19:57,534 INFO scheduler Scheduled Job Start: frappe.desk.form.document_follow.send_hourly_updates for fhts.com
2021-06-09 22:19:58,353 INFO scheduler Scheduled Job Complete: frappe.desk.form.document_follow.send_hourly_updates for fhts.com
2021-06-09 22:19:58,642 INFO scheduler Scheduled Job Start: frappe.deferred_insert.save_to_db for fhts.com
2021-06-09 22:19:59,195 INFO scheduler Scheduled Job Complete: frappe.deferred_insert.save_to_db for fhts.com
2021-06-09 22:19:59,382 INFO scheduler Scheduled Job Start: frappe.desk.page.backups.backups.delete_downloadable_backups for fhts.com
2021-06-09 22:20:00,018 INFO scheduler Scheduled Job Complete: frappe.desk.page.backups.backups.delete_downloadable_backups for fhts.com
2021-06-09 22:20:00,241 INFO scheduler Scheduled Job Start: frappe.utils.error.collect_error_snapshots for fhts.com
2021-06-09 22:20:00,949 INFO scheduler Scheduled Job Complete: frappe.utils.error.collect_error_snapshots for fhts.com
2021-06-09 22:20:01,162 INFO scheduler Scheduled Job Start: frappe.model.utils.user_settings.sync_user_settings for fhts.com
2021-06-09 22:20:01,569 INFO scheduler Scheduled Job Complete: frappe.model.utils.user_settings.sync_user_settings for fhts.com
2021-06-09 22:20:01,756 INFO scheduler Scheduled Job Start: frappe.model.utils.link_count.update_link_count for fhts.com
2021-06-09 22:20:02,146 INFO scheduler Scheduled Job Complete: frappe.model.utils.link_count.update_link_count for fhts.com
2021-06-09 22:20:02,355 INFO scheduler Scheduled Job Start: frappe.monitor.flush for fhts.com
2021-06-09 22:20:02,525 INFO scheduler Scheduled Job Complete: frappe.monitor.flush for fhts.com
2021-06-09 22:20:02,639 INFO scheduler Scheduled Job Start: frappe.utils.global_search.sync_global_search for fhts.com
2021-06-09 22:20:02,989 INFO scheduler Scheduled Job Complete: frappe.utils.global_search.sync_global_search for fhts.com
2021-06-09 22:20:03,068 INFO scheduler Scheduled Job Start: frappe.integrations.doctype.razorpay_settings.razorpay_settings.capture_payment for fhts.com
2021-06-09 22:20:03,695 INFO scheduler Scheduled Job Complete: frappe.integrations.doctype.razorpay_settings.razorpay_settings.capture_payment for fhts.com
2021-06-09 22:20:03,776 INFO scheduler Scheduled Job Start: frappe.email.doctype.email_account.email_account.notify_unreplied for fhts.com
2021-06-09 22:20:04,981 INFO scheduler Scheduled Job Complete: frappe.email.doctype.email_account.email_account.notify_unreplied for fhts.com
2021-06-09 22:20:05,080 INFO scheduler Scheduled Job Start: frappe.email.doctype.email_account.email_account.pull for fhts.com
2021-06-09 22:20:05,751 INFO scheduler Scheduled Job Complete: frappe.email.doctype.email_account.email_account.pull for fhts.com
2021-06-09 22:20:05,854 INFO scheduler Scheduled Job Start: frappe.email.queue.flush for fhts.com
2021-06-09 22:20:06,373 INFO scheduler Scheduled Job Complete: frappe.email.queue.flush for fhts.com
2021-06-09 22:20:06,470 INFO scheduler Scheduled Job Start: frappe.twofactor.delete_all_barcodes_for_users for fhts.com
2021-06-09 22:20:07,096 INFO scheduler Scheduled Job Complete: frappe.twofactor.delete_all_barcodes_for_users for fhts.com
2021-06-09 22:20:07,201 INFO scheduler Scheduled Job Start: frappe.website.doctype.web_page.web_page.check_publish_status for fhts.com
2021-06-09 22:20:08,055 INFO scheduler Scheduled Job Complete: frappe.website.doctype.web_page.web_page.check_publish_status for fhts.com
2021-06-09 22:20:08,345 INFO scheduler Scheduled Job Start: frappe.oauth.delete_oauth2_data for fhts.com
2021-06-09 22:20:09,723 INFO scheduler Scheduled Job Complete: frappe.oauth.delete_oauth2_data for fhts.com
2021-06-09 22:20:20,707 DEBUG scheduler Queued events for site fhts.com
2021-06-09 22:21:20,963 DEBUG scheduler Queued events for site fhts.com
2021-06-09 22:22:21,249 DEBUG scheduler Queued events for site fhts.com
2021-06-09 22:23:21,523 DEBUG scheduler Queued events for site fhts.com
2021-06-09 22:24:21,763 DEBUG scheduler Queued events for site fhts.com
2021-06-09 22:24:21,793 INFO scheduler Scheduled Job Start: frappe.monitor.flush for fhts.com
2021-06-09 22:24:21,935 INFO scheduler Scheduled Job Complete: frappe.monitor.flush for fhts.com
2021-06-09 22:24:22,001 INFO scheduler Scheduled Job Start: frappe.utils.global_search.sync_global_search for fhts.com
2021-06-09 22:24:22,145 INFO scheduler Scheduled Job Complete: frappe.utils.global_search.sync_global_search for fhts.com
2021-06-09 22:24:22,231 INFO scheduler Scheduled Job Start: frappe.integrations.doctype.razorpay_settings.razorpay_settings.capture_payment for fhts.com
2021-06-09 22:24:22,579 INFO scheduler Scheduled Job Complete: frappe.integrations.doctype.razorpay_settings.razorpay_settings.capture_payment for fhts.com
2021-06-09 22:24:22,648 INFO scheduler Scheduled Job Start: frappe.email.doctype.email_account.email_account.notify_unreplied for fhts.com
2021-06-09 22:24:22,938 INFO scheduler Scheduled Job Complete: frappe.email.doctype.email_account.email_account.notify_unreplied for fhts.com
2021-06-09 22:24:23,004 INFO scheduler Scheduled Job Start: frappe.email.doctype.email_account.email_account.pull for fhts.com
2021-06-09 22:24:23,363 INFO scheduler Scheduled Job Complete: frappe.email.doctype.email_account.email_account.pull for fhts.com
2021-06-09 22:24:23,429 INFO scheduler Scheduled Job Start: frappe.email.queue.flush for fhts.com
2021-06-09 22:24:23,734 INFO scheduler Scheduled Job Complete: frappe.email.queue.flush for fhts.com
2021-06-09 22:25:21,982 DEBUG scheduler Queued events for site fhts.com
2021-06-09 22:26:22,563 DEBUG scheduler Queued events for site fhts.com
2021-06-09 22:27:22,887 DEBUG scheduler Queued events for site fhts.com
2021-06-09 22:28:23,109 DEBUG scheduler Queued events for site fhts.com
2021-06-09 22:28:23,690 INFO scheduler Scheduled Job Start: frappe.monitor.flush for fhts.com
2021-06-09 22:28:24,886 INFO scheduler Scheduled Job Complete: frappe.monitor.flush for fhts.com
2021-06-09 22:28:24,990 INFO scheduler Scheduled Job Start: frappe.utils.global_search.sync_global_search for fhts.com
2021-06-09 22:28:25,174 INFO scheduler Scheduled Job Complete: frappe.utils.global_search.sync_global_search for fhts.com
2021-06-09 22:28:25,284 INFO scheduler Scheduled Job Start: frappe.integrations.doctype.razorpay_settings.razorpay_settings.capture_payment for fhts.com
2021-06-09 22:28:26,450 INFO scheduler Scheduled Job Complete: frappe.integrations.doctype.razorpay_settings.razorpay_settings.capture_payment for fhts.com
2021-06-09 22:28:26,518 INFO scheduler Scheduled Job Start: frappe.email.doctype.email_account.email_account.notify_unreplied for fhts.com
2021-06-09 22:28:27,359 INFO scheduler Scheduled Job Complete: frappe.email.doctype.email_account.email_account.notify_unreplied for fhts.com
2021-06-09 22:28:27,422 INFO scheduler Scheduled Job Start: frappe.email.doctype.email_account.email_account.pull for fhts.com
2021-06-09 22:28:27,718 INFO scheduler Scheduled Job Complete: frappe.email.doctype.email_account.email_account.pull for fhts.com
2021-06-09 22:28:27,781 INFO scheduler Scheduled Job Start: frappe.email.queue.flush for fhts.com
2021-06-09 22:28:28,030 INFO scheduler Scheduled Job Complete: frappe.email.queue.flush for fhts.com
2021-06-09 22:29:23,332 DEBUG scheduler Queued events for site fhts.com
2021-06-09 22:30:23,562 DEBUG scheduler Queued events for site fhts.com
2021-06-09 22:30:23,610 INFO scheduler Scheduled Job Start: frappe.twofactor.delete_all_barcodes_for_users for fhts.com
2021-06-09 22:30:25,078 INFO scheduler Scheduled Job Complete: frappe.twofactor.delete_all_barcodes_for_users for fhts.com
2021-06-09 22:30:25,202 INFO scheduler Scheduled Job Start: frappe.website.doctype.web_page.web_page.check_publish_status for fhts.com
2021-06-09 22:30:25,897 INFO scheduler Scheduled Job Complete: frappe.website.doctype.web_page.web_page.check_publish_status for fhts.com
2021-06-09 22:30:26,010 INFO scheduler Scheduled Job Start: frappe.oauth.delete_oauth2_data for fhts.com
2021-06-09 22:30:26,541 INFO scheduler Scheduled Job Complete: frappe.oauth.delete_oauth2_data for fhts.com
2021-06-09 22:31:23,853 DEBUG scheduler Queued events for site fhts.com
2021-06-09 22:32:24,096 DEBUG scheduler Queued events for site fhts.com
2021-06-09 22:32:24,123 INFO scheduler Scheduled Job Start: frappe.monitor.flush for fhts.com
2021-06-09 22:32:24,260 INFO scheduler Scheduled Job Complete: frappe.monitor.flush for fhts.com
2021-06-09 22:32:24,341 INFO scheduler Scheduled Job Start: frappe.utils.global_search.sync_global_search for fhts.com
2021-06-09 22:32:24,471 INFO scheduler Scheduled Job Complete: frappe.utils.global_search.sync_global_search for fhts.com
2021-06-09 22:32:24,531 INFO scheduler Scheduled Job Start: frappe.integrations.doctype.razorpay_settings.razorpay_settings.capture_payment for fhts.com
2021-06-09 22:32:24,855 INFO scheduler Scheduled Job Complete: frappe.integrations.doctype.razorpay_settings.razorpay_settings.capture_payment for fhts.com
2021-06-09 22:32:24,916 INFO scheduler Scheduled Job Start: frappe.email.doctype.email_account.email_account.notify_unreplied for fhts.com
2021-06-09 22:32:25,173 INFO scheduler Scheduled Job Complete: frappe.email.doctype.email_account.email_account.notify_unreplied for fhts.com
2021-06-09 22:32:25,236 INFO scheduler Scheduled Job Start: frappe.email.doctype.email_account.email_account.pull for fhts.com
2021-06-09 22:32:25,603 INFO scheduler Scheduled Job Complete: frappe.email.doctype.email_account.email_account.pull for fhts.com
2021-06-09 22:32:25,666 INFO scheduler Scheduled Job Start: frappe.email.queue.flush for fhts.com
2021-06-09 22:32:25,955 INFO scheduler Scheduled Job Complete: frappe.email.queue.flush for fhts.com
2021-06-09 22:33:24,318 DEBUG scheduler Queued events for site fhts.com
2021-06-09 22:34:24,540 DEBUG scheduler Queued events for site fhts.com
2021-06-09 22:35:24,763 DEBUG scheduler Queued events for site fhts.com
2021-06-09 22:36:25,000 DEBUG scheduler Queued events for site fhts.com
2021-06-09 22:36:25,028 INFO scheduler Scheduled Job Start: frappe.monitor.flush for fhts.com
2021-06-09 22:36:25,205 INFO scheduler Scheduled Job Complete: frappe.monitor.flush for fhts.com
2021-06-09 22:36:25,285 INFO scheduler Scheduled Job Start: frappe.utils.global_search.sync_global_search for fhts.com
2021-06-09 22:36:25,437 INFO scheduler Scheduled Job Complete: frappe.utils.global_search.sync_global_search for fhts.com
2021-06-09 22:36:25,527 INFO scheduler Scheduled Job Start: frappe.integrations.doctype.razorpay_settings.razorpay_settings.capture_payment for fhts.com
2021-06-09 22:36:25,867 INFO scheduler Scheduled Job Complete: frappe.integrations.doctype.razorpay_settings.razorpay_settings.capture_payment for fhts.com
2021-06-09 22:36:25,931 INFO scheduler Scheduled Job Start: frappe.email.doctype.email_account.email_account.notify_unreplied for fhts.com
2021-06-09 22:36:26,269 INFO scheduler Scheduled Job Complete: frappe.email.doctype.email_account.email_account.notify_unreplied for fhts.com
2021-06-09 22:36:26,331 INFO scheduler Scheduled Job Start: frappe.email.doctype.email_account.email_account.pull for fhts.com
2021-06-09 22:36:26,607 INFO scheduler Scheduled Job Complete: frappe.email.doctype.email_account.email_account.pull for fhts.com
2021-06-09 22:36:26,670 INFO scheduler Scheduled Job Start: frappe.email.queue.flush for fhts.com
2021-06-09 22:36:26,978 INFO scheduler Scheduled Job Complete: frappe.email.queue.flush for fhts.com
2021-06-09 22:37:25,203 DEBUG scheduler Queued events for site fhts.com
2021-06-09 22:38:25,430 DEBUG scheduler Queued events for site fhts.com
2021-06-09 22:39:25,639 DEBUG scheduler Queued events for site fhts.com
2021-06-09 22:40:25,884 DEBUG scheduler Queued events for site fhts.com
2021-06-09 22:40:25,914 INFO scheduler Scheduled Job Start: frappe.monitor.flush for fhts.com
2021-06-09 22:40:26,089 INFO scheduler Scheduled Job Complete: frappe.monitor.flush for fhts.com
2021-06-09 22:40:26,202 INFO scheduler Scheduled Job Start: frappe.utils.global_search.sync_global_search for fhts.com
2021-06-09 22:40:26,331 INFO scheduler Scheduled Job Complete: frappe.utils.global_search.sync_global_search for fhts.com
2021-06-09 22:40:26,400 INFO scheduler Scheduled Job Start: frappe.integrations.doctype.razorpay_settings.razorpay_settings.capture_payment for fhts.com
2021-06-09 22:40:26,745 INFO scheduler Scheduled Job Complete: frappe.integrations.doctype.razorpay_settings.razorpay_settings.capture_payment for fhts.com
2021-06-09 22:40:26,812 INFO scheduler Scheduled Job Start: frappe.email.doctype.email_account.email_account.notify_unreplied for fhts.com
2021-06-09 22:40:27,087 INFO scheduler Scheduled Job Complete: frappe.email.doctype.email_account.email_account.notify_unreplied for fhts.com
2021-06-09 22:40:27,150 INFO scheduler Scheduled Job Start: frappe.email.doctype.email_account.email_account.pull for fhts.com
2021-06-09 22:40:27,493 INFO scheduler Scheduled Job Complete: frappe.email.doctype.email_account.email_account.pull for fhts.com
2021-06-09 22:40:27,557 INFO scheduler Scheduled Job Start: frappe.email.queue.flush for fhts.com
2021-06-09 22:40:27,863 INFO scheduler Scheduled Job Complete: frappe.email.queue.flush for fhts.com
2021-06-09 22:41:26,093 DEBUG scheduler Queued events for site fhts.com
2021-06-09 22:42:26,308 DEBUG scheduler Queued events for site fhts.com
2021-06-09 22:43:26,612 DEBUG scheduler Queued events for site fhts.com
2021-06-09 22:44:26,856 DEBUG scheduler Queued events for site fhts.com
2021-06-09 22:44:27,990 INFO scheduler Scheduled Job Start: frappe.monitor.flush for fhts.com
2021-06-09 22:44:29,692 INFO scheduler Scheduled Job Complete: frappe.monitor.flush for fhts.com
2021-06-09 22:44:29,781 INFO scheduler Scheduled Job Start: frappe.utils.global_search.sync_global_search for fhts.com
2021-06-09 22:44:29,922 INFO scheduler Scheduled Job Complete: frappe.utils.global_search.sync_global_search for fhts.com
2021-06-09 22:44:29,993 INFO scheduler Scheduled Job Start: frappe.integrations.doctype.razorpay_settings.razorpay_settings.capture_payment for fhts.com
2021-06-09 22:44:32,087 INFO scheduler Scheduled Job Complete: frappe.integrations.doctype.razorpay_settings.razorpay_settings.capture_payment for fhts.com
2021-06-09 22:44:32,188 INFO scheduler Scheduled Job Start: frappe.email.doctype.email_account.email_account.notify_unreplied for fhts.com
2021-06-09 22:44:33,009 INFO scheduler Scheduled Job Complete: frappe.email.doctype.email_account.email_account.notify_unreplied for fhts.com
2021-06-09 22:44:33,103 INFO scheduler Scheduled Job Start: frappe.email.doctype.email_account.email_account.pull for fhts.com
2021-06-09 22:44:33,582 INFO scheduler Scheduled Job Complete: frappe.email.doctype.email_account.email_account.pull for fhts.com
2021-06-09 22:44:33,683 INFO scheduler Scheduled Job Start: frappe.email.queue.flush for fhts.com
2021-06-09 22:44:33,986 INFO scheduler Scheduled Job Complete: frappe.email.queue.flush for fhts.com
2021-06-09 22:45:27,083 DEBUG scheduler Queued events for site fhts.com
2021-06-09 22:45:27,131 INFO scheduler Scheduled Job Start: frappe.twofactor.delete_all_barcodes_for_users for fhts.com
2021-06-09 22:45:28,479 INFO scheduler Scheduled Job Complete: frappe.twofactor.delete_all_barcodes_for_users for fhts.com
2021-06-09 22:45:28,612 INFO scheduler Scheduled Job Start: frappe.website.doctype.web_page.web_page.check_publish_status for fhts.com
2021-06-09 22:45:29,621 INFO scheduler Scheduled Job Complete: frappe.website.doctype.web_page.web_page.check_publish_status for fhts.com
2021-06-09 22:45:29,723 INFO scheduler Scheduled Job Start: frappe.oauth.delete_oauth2_data for fhts.com
2021-06-09 22:45:30,465 INFO scheduler Scheduled Job Complete: frappe.oauth.delete_oauth2_data for fhts.com
2021-06-09 22:46:27,300 DEBUG scheduler Queued events for site fhts.com
2021-06-09 22:47:27,497 DEBUG scheduler Queued events for site fhts.com
2021-06-09 22:48:27,829 DEBUG scheduler Queued events for site fhts.com
2021-06-09 22:48:27,879 INFO scheduler Scheduled Job Start: frappe.monitor.flush for fhts.com
2021-06-09 22:48:28,090 INFO scheduler Scheduled Job Complete: frappe.monitor.flush for fhts.com
2021-06-09 22:48:28,213 INFO scheduler Scheduled Job Start: frappe.utils.global_search.sync_global_search for fhts.com
2021-06-09 22:48:28,400 INFO scheduler Scheduled Job Complete: frappe.utils.global_search.sync_global_search for fhts.com
2021-06-09 22:48:28,500 INFO scheduler Scheduled Job Start: frappe.integrations.doctype.razorpay_settings.razorpay_settings.capture_payment for fhts.com
2021-06-09 22:48:29,148 INFO scheduler Scheduled Job Complete: frappe.integrations.doctype.razorpay_settings.razorpay_settings.capture_payment for fhts.com
2021-06-09 22:48:29,278 INFO scheduler Scheduled Job Start: frappe.email.doctype.email_account.email_account.notify_unreplied for fhts.com
2021-06-09 22:48:29,774 INFO scheduler Scheduled Job Complete: frappe.email.doctype.email_account.email_account.notify_unreplied for fhts.com
2021-06-09 22:48:29,858 INFO scheduler Scheduled Job Start: frappe.email.doctype.email_account.email_account.pull for fhts.com
2021-06-09 22:48:30,302 INFO scheduler Scheduled Job Complete: frappe.email.doctype.email_account.email_account.pull for fhts.com
2021-06-09 22:48:30,389 INFO scheduler Scheduled Job Start: frappe.email.queue.flush for fhts.com
2021-06-09 22:48:30,732 INFO scheduler Scheduled Job Complete: frappe.email.queue.flush for fhts.com
2021-06-09 22:49:28,008 DEBUG scheduler Queued events for site fhts.com
2021-06-09 22:50:28,500 DEBUG scheduler Queued events for site fhts.com
2021-06-09 22:51:28,762 DEBUG scheduler Queued events for site fhts.com
2021-06-09 22:52:29,088 DEBUG scheduler Queued events for site fhts.com
2021-06-09 22:52:31,381 INFO scheduler Scheduled Job Start: frappe.monitor.flush for fhts.com
2021-06-09 22:52:33,703 INFO scheduler Scheduled Job Complete: frappe.monitor.flush for fhts.com
2021-06-09 22:52:33,825 INFO scheduler Scheduled Job Start: frappe.utils.global_search.sync_global_search for fhts.com
2021-06-09 22:52:33,990 INFO scheduler Scheduled Job Complete: frappe.utils.global_search.sync_global_search for fhts.com
2021-06-09 22:52:34,077 INFO scheduler Scheduled Job Start: frappe.integrations.doctype.razorpay_settings.razorpay_settings.capture_payment for fhts.com
2021-06-09 22:52:37,186 INFO scheduler Scheduled Job Complete: frappe.integrations.doctype.razorpay_settings.razorpay_settings.capture_payment for fhts.com
2021-06-09 22:52:37,258 INFO scheduler Scheduled Job Start: frappe.email.doctype.email_account.email_account.notify_unreplied for fhts.com
2021-06-09 22:52:38,479 INFO scheduler Scheduled Job Complete: frappe.email.doctype.email_account.email_account.notify_unreplied for fhts.com
2021-06-09 22:52:38,548 INFO scheduler Scheduled Job Start: frappe.email.doctype.email_account.email_account.pull for fhts.com
2021-06-09 22:52:38,968 INFO scheduler Scheduled Job Complete: frappe.email.doctype.email_account.email_account.pull for fhts.com
2021-06-09 22:52:39,054 INFO scheduler Scheduled Job Start: frappe.email.queue.flush for fhts.com
2021-06-09 22:52:39,347 INFO scheduler Scheduled Job Complete: frappe.email.queue.flush for fhts.com
2021-06-09 22:53:29,366 DEBUG scheduler Queued events for site fhts.com
2021-06-09 22:54:29,590 DEBUG scheduler Queued events for site fhts.com
2021-06-09 22:55:29,879 DEBUG scheduler Queued events for site fhts.com
2021-06-09 22:56:30,131 DEBUG scheduler Queued events for site fhts.com
2021-06-09 22:56:30,163 INFO scheduler Scheduled Job Start: frappe.monitor.flush for fhts.com
2021-06-09 22:56:30,343 INFO scheduler Scheduled Job Complete: frappe.monitor.flush for fhts.com
2021-06-09 22:56:30,448 INFO scheduler Scheduled Job Start: frappe.utils.global_search.sync_global_search for fhts.com
2021-06-09 22:56:30,619 INFO scheduler Scheduled Job Complete: frappe.utils.global_search.sync_global_search for fhts.com
2021-06-09 22:56:30,724 INFO scheduler Scheduled Job Start: frappe.integrations.doctype.razorpay_settings.razorpay_settings.capture_payment for fhts.com
2021-06-09 22:56:31,124 INFO scheduler Scheduled Job Complete: frappe.integrations.doctype.razorpay_settings.razorpay_settings.capture_payment for fhts.com
2021-06-09 22:56:31,195 INFO scheduler Scheduled Job Start: frappe.email.doctype.email_account.email_account.notify_unreplied for fhts.com
2021-06-09 22:56:31,598 INFO scheduler Scheduled Job Complete: frappe.email.doctype.email_account.email_account.notify_unreplied for fhts.com
2021-06-09 22:56:31,669 INFO scheduler Scheduled Job Start: frappe.email.doctype.email_account.email_account.pull for fhts.com
2021-06-09 22:56:32,026 INFO scheduler Scheduled Job Complete: frappe.email.doctype.email_account.email_account.pull for fhts.com
2021-06-09 22:56:32,094 INFO scheduler Scheduled Job Start: frappe.email.queue.flush for fhts.com
2021-06-09 22:56:32,374 INFO scheduler Scheduled Job Complete: frappe.email.queue.flush for fhts.com
2021-06-09 22:57:30,386 DEBUG scheduler Queued events for site fhts.com
2021-06-09 22:58:30,640 DEBUG scheduler Queued events for site fhts.com
2021-06-09 22:59:30,896 DEBUG scheduler Queued events for site fhts.com
2021-06-09 23:00:31,195 INFO scheduler Scheduled Job Start: frappe.email.doctype.newsletter.newsletter.send_scheduled_email for fhts.com
2021-06-09 23:00:31,240 DEBUG scheduler Queued events for site fhts.com
2021-06-09 23:00:33,319 INFO scheduler Scheduled Job Complete: frappe.email.doctype.newsletter.newsletter.send_scheduled_email for fhts.com
2021-06-09 23:00:33,426 INFO scheduler Scheduled Job Start: frappe.integrations.doctype.google_calendar.google_calendar.sync for fhts.com
2021-06-09 23:00:34,560 INFO scheduler Scheduled Job Complete: frappe.integrations.doctype.google_calendar.google_calendar.sync for fhts.com
2021-06-09 23:00:34,697 INFO scheduler Scheduled Job Start: frappe.desk.form.document_follow.send_hourly_updates for fhts.com
2021-06-09 23:00:35,156 INFO scheduler Scheduled Job Complete: frappe.desk.form.document_follow.send_hourly_updates for fhts.com
2021-06-09 23:00:35,329 INFO scheduler Scheduled Job Start: frappe.deferred_insert.save_to_db for fhts.com
2021-06-09 23:00:36,131 INFO scheduler Scheduled Job Complete: frappe.deferred_insert.save_to_db for fhts.com
2021-06-09 23:00:36,245 INFO scheduler Scheduled Job Start: frappe.desk.page.backups.backups.delete_downloadable_backups for fhts.com
2021-06-09 23:00:36,688 INFO scheduler Scheduled Job Complete: frappe.desk.page.backups.backups.delete_downloadable_backups for fhts.com
2021-06-09 23:00:36,802 INFO scheduler Scheduled Job Start: frappe.utils.error.collect_error_snapshots for fhts.com
2021-06-09 23:00:37,356 INFO scheduler Scheduled Job Complete: frappe.utils.error.collect_error_snapshots for fhts.com
2021-06-09 23:00:37,473 INFO scheduler Scheduled Job Start: frappe.model.utils.user_settings.sync_user_settings for fhts.com
2021-06-09 23:00:38,359 INFO scheduler Scheduled Job Complete: frappe.model.utils.user_settings.sync_user_settings for fhts.com
2021-06-09 23:00:38,486 INFO scheduler Scheduled Job Start: frappe.model.utils.link_count.update_link_count for fhts.com
2021-06-09 23:00:38,907 INFO scheduler Scheduled Job Complete: frappe.model.utils.link_count.update_link_count for fhts.com
2021-06-09 23:00:39,050 INFO scheduler Scheduled Job Start: frappe.monitor.flush for fhts.com
2021-06-09 23:00:39,213 INFO scheduler Scheduled Job Complete: frappe.monitor.flush for fhts.com
2021-06-09 23:00:39,308 INFO scheduler Scheduled Job Start: frappe.utils.global_search.sync_global_search for fhts.com
2021-06-09 23:00:39,469 INFO scheduler Scheduled Job Complete: frappe.utils.global_search.sync_global_search for fhts.com
2021-06-09 23:00:39,558 INFO scheduler Scheduled Job Start: frappe.integrations.doctype.razorpay_settings.razorpay_settings.capture_payment for fhts.com
2021-06-09 23:00:39,940 INFO scheduler Scheduled Job Complete: frappe.integrations.doctype.razorpay_settings.razorpay_settings.capture_payment for fhts.com
2021-06-09 23:00:40,012 INFO scheduler Scheduled Job Start: frappe.email.doctype.email_account.email_account.notify_unreplied for fhts.com
2021-06-09 23:00:40,327 INFO scheduler Scheduled Job Complete: frappe.email.doctype.email_account.email_account.notify_unreplied for fhts.com
2021-06-09 23:00:40,397 INFO scheduler Scheduled Job Start: frappe.email.doctype.email_account.email_account.pull for fhts.com
2021-06-09 23:00:40,709 INFO scheduler Scheduled Job Complete: frappe.email.doctype.email_account.email_account.pull for fhts.com
2021-06-09 23:00:40,781 INFO scheduler Scheduled Job Start: frappe.email.queue.flush for fhts.com
2021-06-09 23:00:41,213 INFO scheduler Scheduled Job Complete: frappe.email.queue.flush for fhts.com
2021-06-09 23:00:41,282 INFO scheduler Scheduled Job Start: frappe.twofactor.delete_all_barcodes_for_users for fhts.com
2021-06-09 23:00:41,795 INFO scheduler Scheduled Job Complete: frappe.twofactor.delete_all_barcodes_for_users for fhts.com
2021-06-09 23:00:41,900 INFO scheduler Scheduled Job Start: frappe.website.doctype.web_page.web_page.check_publish_status for fhts.com
2021-06-09 23:00:42,632 INFO scheduler Scheduled Job Complete: frappe.website.doctype.web_page.web_page.check_publish_status for fhts.com
2021-06-09 23:00:42,755 INFO scheduler Scheduled Job Start: frappe.oauth.delete_oauth2_data for fhts.com
2021-06-09 23:00:43,311 INFO scheduler Scheduled Job Complete: frappe.oauth.delete_oauth2_data for fhts.com
2021-06-09 23:01:31,508 DEBUG scheduler Queued events for site fhts.com
2021-06-09 23:02:31,758 DEBUG scheduler Queued events for site fhts.com
2021-06-09 23:03:31,999 DEBUG scheduler Queued events for site fhts.com
2021-06-09 23:04:32,272 DEBUG scheduler Queued events for site fhts.com
2021-06-09 23:04:32,299 INFO scheduler Scheduled Job Start: frappe.monitor.flush for fhts.com
2021-06-09 23:04:32,498 INFO scheduler Scheduled Job Complete: frappe.monitor.flush for fhts.com
2021-06-09 23:04:32,582 INFO scheduler Scheduled Job Start: frappe.utils.global_search.sync_global_search for fhts.com
2021-06-09 23:04:32,740 INFO scheduler Scheduled Job Complete: frappe.utils.global_search.sync_global_search for fhts.com
2021-06-09 23:04:32,830 INFO scheduler Scheduled Job Start: frappe.integrations.doctype.razorpay_settings.razorpay_settings.capture_payment for fhts.com
2021-06-09 23:04:33,299 INFO scheduler Scheduled Job Complete: frappe.integrations.doctype.razorpay_settings.razorpay_settings.capture_payment for fhts.com
2021-06-09 23:04:33,367 INFO scheduler Scheduled Job Start: frappe.email.doctype.email_account.email_account.notify_unreplied for fhts.com
2021-06-09 23:04:33,721 INFO scheduler Scheduled Job Complete: frappe.email.doctype.email_account.email_account.notify_unreplied for fhts.com
2021-06-09 23:04:33,789 INFO scheduler Scheduled Job Start: frappe.email.doctype.email_account.email_account.pull for fhts.com
2021-06-09 23:04:34,149 INFO scheduler Scheduled Job Complete: frappe.email.doctype.email_account.email_account.pull for fhts.com
2021-06-09 23:04:34,221 INFO scheduler Scheduled Job Start: frappe.email.queue.flush for fhts.com
2021-06-09 23:04:34,467 INFO scheduler Scheduled Job Complete: frappe.email.queue.flush for fhts.com
2021-06-09 23:05:32,519 DEBUG scheduler Queued events for site fhts.com
2021-06-09 23:06:32,738 DEBUG scheduler Queued events for site fhts.com
2021-06-09 23:07:32,960 DEBUG scheduler Queued events for site fhts.com
2021-06-09 23:08:33,228 DEBUG scheduler Queued events for site fhts.com
2021-06-09 23:08:33,246 INFO scheduler Scheduled Job Start: frappe.monitor.flush for fhts.com
2021-06-09 23:08:33,428 INFO scheduler Scheduled Job Complete: frappe.monitor.flush for fhts.com
2021-06-09 23:08:33,511 INFO scheduler Scheduled Job Start: frappe.utils.global_search.sync_global_search for fhts.com
2021-06-09 23:08:33,641 INFO scheduler Scheduled Job Complete: frappe.utils.global_search.sync_global_search for fhts.com
2021-06-09 23:08:33,714 INFO scheduler Scheduled Job Start: frappe.integrations.doctype.razorpay_settings.razorpay_settings.capture_payment for fhts.com
2021-06-09 23:08:34,036 INFO scheduler Scheduled Job Complete: frappe.integrations.doctype.razorpay_settings.razorpay_settings.capture_payment for fhts.com
2021-06-09 23:08:34,101 INFO scheduler Scheduled Job Start: frappe.email.doctype.email_account.email_account.notify_unreplied for fhts.com
2021-06-09 23:08:34,419 INFO scheduler Scheduled Job Complete: frappe.email.doctype.email_account.email_account.notify_unreplied for fhts.com
2021-06-09 23:08:34,482 INFO scheduler Scheduled Job Start: frappe.email.doctype.email_account.email_account.pull for fhts.com
2021-06-09 23:08:34,758 INFO scheduler Scheduled Job Complete: frappe.email.doctype.email_account.email_account.pull for fhts.com
2021-06-09 23:08:34,823 INFO scheduler Scheduled Job Start: frappe.email.queue.flush for fhts.com
2021-06-09 23:08:35,135 INFO scheduler Scheduled Job Complete: frappe.email.queue.flush for fhts.com
2021-06-09 23:09:33,529 DEBUG scheduler Queued events for site fhts.com
2021-06-09 23:10:33,726 DEBUG scheduler Queued events for site fhts.com
2021-06-09 23:11:33,955 DEBUG scheduler Queued events for site fhts.com
2021-06-09 23:12:34,210 DEBUG scheduler Queued events for site fhts.com
2021-06-09 23:12:34,237 INFO scheduler Scheduled Job Start: frappe.monitor.flush for fhts.com
2021-06-09 23:12:34,429 INFO scheduler Scheduled Job Complete: frappe.monitor.flush for fhts.com
2021-06-09 23:12:34,549 INFO scheduler Scheduled Job Start: frappe.utils.global_search.sync_global_search for fhts.com
2021-06-09 23:12:34,693 INFO scheduler Scheduled Job Complete: frappe.utils.global_search.sync_global_search for fhts.com
2021-06-09 23:12:34,768 INFO scheduler Scheduled Job Start: frappe.integrations.doctype.razorpay_settings.razorpay_settings.capture_payment for fhts.com
2021-06-09 23:12:35,131 INFO scheduler Scheduled Job Complete: frappe.integrations.doctype.razorpay_settings.razorpay_settings.capture_payment for fhts.com
2021-06-09 23:12:35,200 INFO scheduler Scheduled Job Start: frappe.email.doctype.email_account.email_account.notify_unreplied for fhts.com
2021-06-09 23:12:35,526 INFO scheduler Scheduled Job Complete: frappe.email.doctype.email_account.email_account.notify_unreplied for fhts.com
2021-06-09 23:12:35,594 INFO scheduler Scheduled Job Start: frappe.email.doctype.email_account.email_account.pull for fhts.com
2021-06-09 23:12:35,890 INFO scheduler Scheduled Job Complete: frappe.email.doctype.email_account.email_account.pull for fhts.com
2021-06-09 23:12:35,956 INFO scheduler Scheduled Job Start: frappe.email.queue.flush for fhts.com
2021-06-09 23:12:36,233 INFO scheduler Scheduled Job Complete: frappe.email.queue.flush for fhts.com
2021-06-09 23:13:34,422 DEBUG scheduler Queued events for site fhts.com
2021-06-09 23:14:34,638 DEBUG scheduler Queued events for site fhts.com
2021-06-09 23:15:34,873 DEBUG scheduler Queued events for site fhts.com
2021-06-09 23:15:34,922 INFO scheduler Scheduled Job Start: frappe.twofactor.delete_all_barcodes_for_users for fhts.com
2021-06-09 23:15:35,336 INFO scheduler Scheduled Job Complete: frappe.twofactor.delete_all_barcodes_for_users for fhts.com
2021-06-09 23:15:35,446 INFO scheduler Scheduled Job Start: frappe.website.doctype.web_page.web_page.check_publish_status for fhts.com
2021-06-09 23:15:35,944 INFO scheduler Scheduled Job Complete: frappe.website.doctype.web_page.web_page.check_publish_status for fhts.com
2021-06-09 23:15:36,056 INFO scheduler Scheduled Job Start: frappe.oauth.delete_oauth2_data for fhts.com
2021-06-09 23:15:36,460 INFO scheduler Scheduled Job Complete: frappe.oauth.delete_oauth2_data for fhts.com
2021-06-09 23:16:35,105 DEBUG scheduler Queued events for site fhts.com
2021-06-09 23:16:35,134 INFO scheduler Scheduled Job Start: frappe.monitor.flush for fhts.com
2021-06-09 23:16:35,322 INFO scheduler Scheduled Job Complete: frappe.monitor.flush for fhts.com
2021-06-09 23:16:35,433 INFO scheduler Scheduled Job Start: frappe.utils.global_search.sync_global_search for fhts.com
2021-06-09 23:16:35,564 INFO scheduler Scheduled Job Complete: frappe.utils.global_search.sync_global_search for fhts.com
2021-06-09 23:16:35,642 INFO scheduler Scheduled Job Start: frappe.integrations.doctype.razorpay_settings.razorpay_settings.capture_payment for fhts.com
2021-06-09 23:16:35,959 INFO scheduler Scheduled Job Complete: frappe.integrations.doctype.razorpay_settings.razorpay_settings.capture_payment for fhts.com
2021-06-09 23:16:36,024 INFO scheduler Scheduled Job Start: frappe.email.doctype.email_account.email_account.notify_unreplied for fhts.com
2021-06-09 23:16:36,340 INFO scheduler Scheduled Job Complete: frappe.email.doctype.email_account.email_account.notify_unreplied for fhts.com
2021-06-09 23:16:36,403 INFO scheduler Scheduled Job Start: frappe.email.doctype.email_account.email_account.pull for fhts.com
2021-06-09 23:16:36,677 INFO scheduler Scheduled Job Complete: frappe.email.doctype.email_account.email_account.pull for fhts.com
2021-06-09 23:16:36,740 INFO scheduler Scheduled Job Start: frappe.email.queue.flush for fhts.com
2021-06-09 23:16:37,049 INFO scheduler Scheduled Job Complete: frappe.email.queue.flush for fhts.com
2021-06-10 15:48:03,188 INFO scheduler Scheduled Job Start: frappe.integrations.doctype.google_drive.google_drive.daily_backup for fhts.com
2021-06-10 15:48:03,188 DEBUG scheduler Queued events for site fhts.com
2021-06-10 15:48:03,188 INFO scheduler Scheduled Job Start: frappe.core.doctype.log_settings.log_settings.run_log_clean_up for fhts.com
2021-06-10 15:48:09,214 INFO scheduler Scheduled Job Complete: frappe.core.doctype.log_settings.log_settings.run_log_clean_up for fhts.com
2021-06-10 15:48:10,531 INFO scheduler Scheduled Job Start: frappe.core.doctype.prepared_report.prepared_report.delete_expired_prepared_reports for fhts.com
2021-06-10 15:48:15,867 INFO scheduler Scheduled Job Complete: frappe.core.doctype.prepared_report.prepared_report.delete_expired_prepared_reports for fhts.com
2021-06-10 15:48:15,975 INFO scheduler Scheduled Job Complete: frappe.integrations.doctype.google_drive.google_drive.daily_backup for fhts.com
2021-06-10 15:48:20,270 INFO scheduler Scheduled Job Start: frappe.email.doctype.unhandled_email.unhandled_email.remove_old_unhandled_emails for fhts.com
2021-06-10 15:48:20,270 INFO scheduler Scheduled Job Start: frappe.integrations.doctype.s3_backup_settings.s3_backup_settings.take_backups_daily for fhts.com
2021-06-10 15:48:29,497 INFO scheduler Scheduled Job Complete: frappe.email.doctype.unhandled_email.unhandled_email.remove_old_unhandled_emails for fhts.com
2021-06-10 15:48:29,707 INFO scheduler Scheduled Job Start: frappe.automation.doctype.auto_repeat.auto_repeat.set_auto_repeat_as_completed for fhts.com
2021-06-10 15:48:29,890 INFO scheduler Scheduled Job Complete: frappe.integrations.doctype.s3_backup_settings.s3_backup_settings.take_backups_daily for fhts.com
2021-06-10 15:48:30,008 INFO scheduler Scheduled Job Start: frappe.utils.change_log.check_for_update for fhts.com
2021-06-10 15:48:31,092 INFO scheduler Scheduled Job Complete: frappe.automation.doctype.auto_repeat.auto_repeat.set_auto_repeat_as_completed for fhts.com
2021-06-10 15:48:31,289 INFO scheduler Scheduled Job Start: frappe.automation.doctype.auto_repeat.auto_repeat.make_auto_repeat_entry for fhts.com
2021-06-10 15:48:31,827 INFO scheduler Scheduled Job Complete: frappe.automation.doctype.auto_repeat.auto_repeat.make_auto_repeat_entry for fhts.com
2021-06-10 15:48:32,038 INFO scheduler Scheduled Job Start: frappe.integrations.doctype.google_contacts.google_contacts.sync for fhts.com
2021-06-10 15:48:33,523 INFO scheduler Scheduled Job Complete: frappe.utils.change_log.check_for_update for fhts.com
2021-06-10 15:48:33,716 INFO scheduler Scheduled Job Start: frappe.integrations.doctype.dropbox_settings.dropbox_settings.take_backups_daily for fhts.com
2021-06-10 15:48:33,970 INFO scheduler Scheduled Job Complete: frappe.integrations.doctype.google_contacts.google_contacts.sync for fhts.com
2021-06-10 15:48:34,077 INFO scheduler Scheduled Job Start: frappe.social.doctype.energy_point_settings.energy_point_settings.allocate_review_points for fhts.com
2021-06-10 15:48:34,543 INFO scheduler Scheduled Job Complete: frappe.social.doctype.energy_point_settings.energy_point_settings.allocate_review_points for fhts.com
2021-06-10 15:48:34,742 INFO scheduler Scheduled Job Start: frappe.desk.form.document_follow.send_daily_updates for fhts.com
2021-06-10 15:48:35,259 INFO scheduler Scheduled Job Complete: frappe.desk.form.document_follow.send_daily_updates for fhts.com
2021-06-10 15:48:35,413 INFO scheduler Scheduled Job Start: frappe.website.doctype.personal_data_deletion_request.personal_data_deletion_request.remove_unverified_record for fhts.com
2021-06-10 15:48:35,622 INFO scheduler Scheduled Job Complete: frappe.integrations.doctype.dropbox_settings.dropbox_settings.take_backups_daily for fhts.com
2021-06-10 15:48:35,975 INFO scheduler Scheduled Job Complete: frappe.website.doctype.personal_data_deletion_request.personal_data_deletion_request.remove_unverified_record for fhts.com
2021-06-10 15:48:36,218 INFO scheduler Scheduled Job Start: frappe.email.doctype.auto_email_report.auto_email_report.send_daily for fhts.com
2021-06-10 15:48:41,957 INFO scheduler Scheduled Job Complete: frappe.email.doctype.auto_email_report.auto_email_report.send_daily for fhts.com
2021-06-10 15:48:42,106 INFO scheduler Scheduled Job Start: frappe.utils.scheduler.restrict_scheduler_events_if_dormant for fhts.com
2021-06-10 15:48:42,754 INFO scheduler Scheduled Job Failed: frappe.utils.scheduler.restrict_scheduler_events_if_dormant for fhts.com
2021-06-10 15:48:42,899 INFO scheduler Scheduled Job Start: frappe.realtime.remove_old_task_logs for fhts.com
2021-06-10 15:48:43,458 INFO scheduler Scheduled Job Complete: frappe.realtime.remove_old_task_logs for fhts.com
2021-06-10 15:48:43,705 INFO scheduler Scheduled Job Start: frappe.email.doctype.notification.notification.trigger_daily_alerts for fhts.com
2021-06-10 15:48:44,168 INFO scheduler Scheduled Job Complete: frappe.email.doctype.notification.notification.trigger_daily_alerts for fhts.com
2021-06-10 15:48:44,289 INFO scheduler Scheduled Job Start: frappe.sessions.clear_expired_sessions for fhts.com
2021-06-10 15:48:45,485 INFO scheduler Scheduled Job Complete: frappe.sessions.clear_expired_sessions for fhts.com
2021-06-10 15:48:45,598 INFO scheduler Scheduled Job Start: frappe.desk.doctype.event.event.send_event_digest for fhts.com
2021-06-10 15:48:46,253 INFO scheduler Scheduled Job Complete: frappe.desk.doctype.event.event.send_event_digest for fhts.com
2021-06-10 15:48:46,388 INFO scheduler Scheduled Job Start: frappe.core.doctype.error_log.error_log.set_old_logs_as_seen for fhts.com
2021-06-10 15:48:46,853 INFO scheduler Scheduled Job Complete: frappe.core.doctype.error_log.error_log.set_old_logs_as_seen for fhts.com
2021-06-10 15:48:47,005 INFO scheduler Scheduled Job Start: frappe.desk.notifications.clear_notifications for fhts.com
2021-06-10 15:48:47,357 INFO scheduler Scheduled Job Complete: frappe.desk.notifications.clear_notifications for fhts.com
2021-06-10 15:48:47,467 INFO scheduler Scheduled Job Start: frappe.email.queue.set_expiry_for_email_queue for fhts.com
2021-06-10 15:48:47,873 INFO scheduler Scheduled Job Complete: frappe.email.queue.set_expiry_for_email_queue for fhts.com
2021-06-10 15:48:47,987 INFO scheduler Scheduled Job Start: frappe.email.doctype.newsletter.newsletter.send_scheduled_email for fhts.com
2021-06-10 15:48:49,545 INFO scheduler Scheduled Job Complete: frappe.email.doctype.newsletter.newsletter.send_scheduled_email for fhts.com
2021-06-10 15:48:49,719 INFO scheduler Scheduled Job Start: frappe.integrations.doctype.google_calendar.google_calendar.sync for fhts.com
2021-06-10 15:48:50,421 INFO scheduler Scheduled Job Complete: frappe.integrations.doctype.google_calendar.google_calendar.sync for fhts.com
2021-06-10 15:48:50,558 INFO scheduler Scheduled Job Start: frappe.desk.form.document_follow.send_hourly_updates for fhts.com
2021-06-10 15:48:50,930 INFO scheduler Scheduled Job Complete: frappe.desk.form.document_follow.send_hourly_updates for fhts.com
2021-06-10 15:48:51,070 INFO scheduler Scheduled Job Start: frappe.deferred_insert.save_to_db for fhts.com
2021-06-10 15:48:51,425 INFO scheduler Scheduled Job Complete: frappe.deferred_insert.save_to_db for fhts.com
2021-06-10 15:48:51,579 INFO scheduler Scheduled Job Start: frappe.desk.page.backups.backups.delete_downloadable_backups for fhts.com
2021-06-10 15:48:52,531 INFO scheduler Scheduled Job Complete: frappe.desk.page.backups.backups.delete_downloadable_backups for fhts.com
2021-06-10 15:48:52,652 INFO scheduler Scheduled Job Start: frappe.utils.error.collect_error_snapshots for fhts.com
2021-06-10 15:48:53,532 INFO scheduler Scheduled Job Complete: frappe.utils.error.collect_error_snapshots for fhts.com
2021-06-10 15:48:53,665 INFO scheduler Scheduled Job Start: frappe.model.utils.user_settings.sync_user_settings for fhts.com
2021-06-10 15:48:54,191 INFO scheduler Scheduled Job Complete: frappe.model.utils.user_settings.sync_user_settings for fhts.com
2021-06-10 15:48:54,384 INFO scheduler Scheduled Job Start: frappe.model.utils.link_count.update_link_count for fhts.com
2021-06-10 15:48:55,031 INFO scheduler Scheduled Job Complete: frappe.model.utils.link_count.update_link_count for fhts.com
2021-06-10 15:48:55,184 INFO scheduler Scheduled Job Start: frappe.monitor.flush for fhts.com
2021-06-10 15:48:55,430 INFO scheduler Scheduled Job Complete: frappe.monitor.flush for fhts.com
2021-06-10 15:48:55,587 INFO scheduler Scheduled Job Start: frappe.utils.global_search.sync_global_search for fhts.com
2021-06-10 15:48:55,919 INFO scheduler Scheduled Job Complete: frappe.utils.global_search.sync_global_search for fhts.com
2021-06-10 15:48:56,014 INFO scheduler Scheduled Job Start: frappe.integrations.doctype.razorpay_settings.razorpay_settings.capture_payment for fhts.com
2021-06-10 15:48:56,670 INFO scheduler Scheduled Job Complete: frappe.integrations.doctype.razorpay_settings.razorpay_settings.capture_payment for fhts.com
2021-06-10 15:48:56,760 INFO scheduler Scheduled Job Start: frappe.email.doctype.email_account.email_account.notify_unreplied for fhts.com
2021-06-10 15:48:57,584 INFO scheduler Scheduled Job Complete: frappe.email.doctype.email_account.email_account.notify_unreplied for fhts.com
2021-06-10 15:48:57,709 INFO scheduler Scheduled Job Start: frappe.email.doctype.email_account.email_account.pull for fhts.com
2021-06-10 15:48:58,350 INFO scheduler Scheduled Job Complete: frappe.email.doctype.email_account.email_account.pull for fhts.com
2021-06-10 15:48:58,490 INFO scheduler Scheduled Job Start: frappe.email.queue.flush for fhts.com
2021-06-10 15:48:59,031 INFO scheduler Scheduled Job Complete: frappe.email.queue.flush for fhts.com
2021-06-10 15:48:59,142 INFO scheduler Scheduled Job Start: frappe.twofactor.delete_all_barcodes_for_users for fhts.com
2021-06-10 15:48:59,816 INFO scheduler Scheduled Job Complete: frappe.twofactor.delete_all_barcodes_for_users for fhts.com
2021-06-10 15:48:59,991 INFO scheduler Scheduled Job Start: frappe.website.doctype.web_page.web_page.check_publish_status for fhts.com
2021-06-10 15:49:01,115 INFO scheduler Scheduled Job Complete: frappe.website.doctype.web_page.web_page.check_publish_status for fhts.com
2021-06-10 15:49:01,360 INFO scheduler Scheduled Job Start: frappe.oauth.delete_oauth2_data for fhts.com
2021-06-10 15:49:03,400 INFO scheduler Scheduled Job Complete: frappe.oauth.delete_oauth2_data for fhts.com
2021-06-10 15:49:03,549 DEBUG scheduler Queued events for site fhts.com
2021-06-10 15:50:03,915 DEBUG scheduler Queued events for site fhts.com
2021-06-10 15:51:04,096 DEBUG scheduler Queued events for site fhts.com
2021-06-10 15:52:04,405 DEBUG scheduler Queued events for site fhts.com
2021-06-10 15:52:04,460 INFO scheduler Scheduled Job Start: frappe.monitor.flush for fhts.com
2021-06-10 15:52:04,738 INFO scheduler Scheduled Job Complete: frappe.monitor.flush for fhts.com
2021-06-10 15:52:04,868 INFO scheduler Scheduled Job Start: frappe.utils.global_search.sync_global_search for fhts.com
2021-06-10 15:52:05,034 INFO scheduler Scheduled Job Complete: frappe.utils.global_search.sync_global_search for fhts.com
2021-06-10 15:52:05,104 INFO scheduler Scheduled Job Start: frappe.integrations.doctype.razorpay_settings.razorpay_settings.capture_payment for fhts.com
2021-06-10 15:52:05,671 INFO scheduler Scheduled Job Complete: frappe.integrations.doctype.razorpay_settings.razorpay_settings.capture_payment for fhts.com
2021-06-10 15:52:05,741 INFO scheduler Scheduled Job Start: frappe.email.doctype.email_account.email_account.notify_unreplied for fhts.com
2021-06-10 15:52:06,179 INFO scheduler Scheduled Job Complete: frappe.email.doctype.email_account.email_account.notify_unreplied for fhts.com
2021-06-10 15:52:06,279 INFO scheduler Scheduled Job Start: frappe.email.doctype.email_account.email_account.pull for fhts.com
2021-06-10 15:52:06,634 INFO scheduler Scheduled Job Complete: frappe.email.doctype.email_account.email_account.pull for fhts.com
2021-06-10 15:52:06,698 INFO scheduler Scheduled Job Start: frappe.email.queue.flush for fhts.com
2021-06-10 15:52:07,137 INFO scheduler Scheduled Job Complete: frappe.email.queue.flush for fhts.com
2021-06-10 15:53:04,892 DEBUG scheduler Queued events for site fhts.com
2021-06-10 15:54:05,392 DEBUG scheduler Queued events for site fhts.com
2021-06-10 15:55:05,598 DEBUG scheduler Queued events for site fhts.com
2021-06-10 15:56:06,002 DEBUG scheduler Queued events for site fhts.com
2021-06-10 15:56:10,415 INFO scheduler Scheduled Job Start: frappe.monitor.flush for fhts.com
2021-06-10 15:56:13,220 INFO scheduler Scheduled Job Complete: frappe.monitor.flush for fhts.com
2021-06-10 15:56:13,371 INFO scheduler Scheduled Job Start: frappe.utils.global_search.sync_global_search for fhts.com
2021-06-10 15:56:13,528 INFO scheduler Scheduled Job Complete: frappe.utils.global_search.sync_global_search for fhts.com
2021-06-10 15:56:13,592 INFO scheduler Scheduled Job Start: frappe.integrations.doctype.razorpay_settings.razorpay_settings.capture_payment for fhts.com
2021-06-10 15:56:17,743 INFO scheduler Scheduled Job Complete: frappe.integrations.doctype.razorpay_settings.razorpay_settings.capture_payment for fhts.com
2021-06-10 15:56:18,293 INFO scheduler Scheduled Job Start: frappe.email.doctype.email_account.email_account.notify_unreplied for fhts.com
2021-06-10 15:56:19,906 INFO scheduler Scheduled Job Complete: frappe.email.doctype.email_account.email_account.notify_unreplied for fhts.com
2021-06-10 15:56:19,971 INFO scheduler Scheduled Job Start: frappe.email.doctype.email_account.email_account.pull for fhts.com
2021-06-10 15:56:20,428 INFO scheduler Scheduled Job Complete: frappe.email.doctype.email_account.email_account.pull for fhts.com
2021-06-10 15:56:20,623 INFO scheduler Scheduled Job Start: frappe.email.queue.flush for fhts.com
2021-06-10 15:56:21,120 INFO scheduler Scheduled Job Complete: frappe.email.queue.flush for fhts.com
2021-06-10 15:57:06,331 DEBUG scheduler Queued events for site fhts.com
2021-06-11 14:44:40,923 DEBUG scheduler Queued events for site fhts.com
2021-06-11 14:44:41,181 INFO scheduler Scheduled Job Start: frappe.integrations.doctype.google_drive.google_drive.daily_backup for fhts.com
2021-06-11 14:44:41,181 INFO scheduler Scheduled Job Start: frappe.core.doctype.log_settings.log_settings.run_log_clean_up for fhts.com
2021-06-11 14:44:47,026 INFO scheduler Scheduled Job Complete: frappe.core.doctype.log_settings.log_settings.run_log_clean_up for fhts.com
2021-06-11 14:44:47,210 INFO scheduler Scheduled Job Start: frappe.core.doctype.prepared_report.prepared_report.delete_expired_prepared_reports for fhts.com
2021-06-11 14:44:48,259 INFO scheduler Scheduled Job Complete: frappe.core.doctype.prepared_report.prepared_report.delete_expired_prepared_reports for fhts.com
2021-06-11 14:44:48,368 INFO scheduler Scheduled Job Start: frappe.email.doctype.unhandled_email.unhandled_email.remove_old_unhandled_emails for fhts.com
2021-06-11 14:44:48,877 INFO scheduler Scheduled Job Complete: frappe.email.doctype.unhandled_email.unhandled_email.remove_old_unhandled_emails for fhts.com
2021-06-11 14:44:49,054 INFO scheduler Scheduled Job Start: frappe.automation.doctype.auto_repeat.auto_repeat.set_auto_repeat_as_completed for fhts.com
2021-06-11 14:44:50,152 INFO scheduler Scheduled Job Complete: frappe.integrations.doctype.google_drive.google_drive.daily_backup for fhts.com
2021-06-11 14:44:50,215 INFO scheduler Scheduled Job Complete: frappe.automation.doctype.auto_repeat.auto_repeat.set_auto_repeat_as_completed for fhts.com
2021-06-11 14:44:50,271 INFO scheduler Scheduled Job Start: frappe.integrations.doctype.s3_backup_settings.s3_backup_settings.take_backups_daily for fhts.com
2021-06-11 14:44:50,322 INFO scheduler Scheduled Job Start: frappe.automation.doctype.auto_repeat.auto_repeat.make_auto_repeat_entry for fhts.com
2021-06-11 14:44:51,037 INFO scheduler Scheduled Job Complete: frappe.automation.doctype.auto_repeat.auto_repeat.make_auto_repeat_entry for fhts.com
2021-06-11 14:44:51,235 INFO scheduler Scheduled Job Start: frappe.integrations.doctype.google_contacts.google_contacts.sync for fhts.com
2021-06-11 14:44:51,464 INFO scheduler Scheduled Job Complete: frappe.integrations.doctype.s3_backup_settings.s3_backup_settings.take_backups_daily for fhts.com
2021-06-11 14:44:51,565 INFO scheduler Scheduled Job Start: frappe.utils.change_log.check_for_update for fhts.com
2021-06-11 14:44:51,846 INFO scheduler Scheduled Job Complete: frappe.integrations.doctype.google_contacts.google_contacts.sync for fhts.com
2021-06-11 14:44:51,992 INFO scheduler Scheduled Job Start: frappe.social.doctype.energy_point_settings.energy_point_settings.allocate_review_points for fhts.com
2021-06-11 14:44:52,363 INFO scheduler Scheduled Job Complete: frappe.social.doctype.energy_point_settings.energy_point_settings.allocate_review_points for fhts.com
2021-06-11 14:44:52,513 INFO scheduler Scheduled Job Start: frappe.desk.form.document_follow.send_daily_updates for fhts.com
2021-06-11 14:44:52,808 INFO scheduler Scheduled Job Complete: frappe.utils.change_log.check_for_update for fhts.com
2021-06-11 14:44:52,921 INFO scheduler Scheduled Job Start: frappe.integrations.doctype.dropbox_settings.dropbox_settings.take_backups_daily for fhts.com
2021-06-11 14:44:52,970 INFO scheduler Scheduled Job Complete: frappe.desk.form.document_follow.send_daily_updates for fhts.com
2021-06-11 14:44:53,064 INFO scheduler Scheduled Job Start: frappe.website.doctype.personal_data_deletion_request.personal_data_deletion_request.remove_unverified_record for fhts.com
2021-06-11 14:44:53,480 INFO scheduler Scheduled Job Complete: frappe.website.doctype.personal_data_deletion_request.personal_data_deletion_request.remove_unverified_record for fhts.com
2021-06-11 14:44:53,628 INFO scheduler Scheduled Job Start: frappe.email.doctype.auto_email_report.auto_email_report.send_daily for fhts.com
2021-06-11 14:44:53,788 INFO scheduler Scheduled Job Complete: frappe.integrations.doctype.dropbox_settings.dropbox_settings.take_backups_daily for fhts.com
2021-06-11 14:44:55,288 INFO scheduler Scheduled Job Complete: frappe.email.doctype.auto_email_report.auto_email_report.send_daily for fhts.com
2021-06-11 14:44:55,377 INFO scheduler Scheduled Job Start: frappe.utils.scheduler.restrict_scheduler_events_if_dormant for fhts.com
2021-06-11 14:44:55,731 INFO scheduler Scheduled Job Failed: frappe.utils.scheduler.restrict_scheduler_events_if_dormant for fhts.com
2021-06-11 14:44:55,910 INFO scheduler Scheduled Job Start: frappe.realtime.remove_old_task_logs for fhts.com
2021-06-11 14:44:56,431 INFO scheduler Scheduled Job Complete: frappe.realtime.remove_old_task_logs for fhts.com
2021-06-11 14:44:56,569 INFO scheduler Scheduled Job Start: frappe.email.doctype.notification.notification.trigger_daily_alerts for fhts.com
2021-06-11 14:44:56,927 INFO scheduler Scheduled Job Complete: frappe.email.doctype.notification.notification.trigger_daily_alerts for fhts.com
2021-06-11 14:44:57,036 INFO scheduler Scheduled Job Start: frappe.sessions.clear_expired_sessions for fhts.com
2021-06-11 14:44:57,431 INFO scheduler Scheduled Job Complete: frappe.sessions.clear_expired_sessions for fhts.com
2021-06-11 14:44:57,567 INFO scheduler Scheduled Job Start: frappe.desk.doctype.event.event.send_event_digest for fhts.com
2021-06-11 14:44:58,011 INFO scheduler Scheduled Job Complete: frappe.desk.doctype.event.event.send_event_digest for fhts.com
2021-06-11 14:44:58,124 INFO scheduler Scheduled Job Start: frappe.core.doctype.error_log.error_log.set_old_logs_as_seen for fhts.com
2021-06-11 14:44:58,519 INFO scheduler Scheduled Job Complete: frappe.core.doctype.error_log.error_log.set_old_logs_as_seen for fhts.com
2021-06-11 14:44:58,684 INFO scheduler Scheduled Job Start: frappe.desk.notifications.clear_notifications for fhts.com
2021-06-11 14:44:59,007 INFO scheduler Scheduled Job Complete: frappe.desk.notifications.clear_notifications for fhts.com
2021-06-11 14:44:59,122 INFO scheduler Scheduled Job Start: frappe.email.queue.set_expiry_for_email_queue for fhts.com
2021-06-11 14:44:59,573 INFO scheduler Scheduled Job Complete: frappe.email.queue.set_expiry_for_email_queue for fhts.com
2021-06-11 14:44:59,724 INFO scheduler Scheduled Job Start: frappe.email.doctype.newsletter.newsletter.send_scheduled_email for fhts.com
2021-06-11 14:45:02,987 INFO scheduler Scheduled Job Complete: frappe.email.doctype.newsletter.newsletter.send_scheduled_email for fhts.com
2021-06-11 14:45:03,227 INFO scheduler Scheduled Job Start: frappe.integrations.doctype.google_calendar.google_calendar.sync for fhts.com
2021-06-11 14:45:04,869 INFO scheduler Scheduled Job Complete: frappe.integrations.doctype.google_calendar.google_calendar.sync for fhts.com
2021-06-11 14:45:05,102 INFO scheduler Scheduled Job Start: frappe.desk.form.document_follow.send_hourly_updates for fhts.com
2021-06-11 14:45:05,553 INFO scheduler Scheduled Job Complete: frappe.desk.form.document_follow.send_hourly_updates for fhts.com
2021-06-11 14:45:05,654 INFO scheduler Scheduled Job Start: frappe.deferred_insert.save_to_db for fhts.com
2021-06-11 14:45:05,999 INFO scheduler Scheduled Job Complete: frappe.deferred_insert.save_to_db for fhts.com
2021-06-11 14:45:06,141 INFO scheduler Scheduled Job Start: frappe.desk.page.backups.backups.delete_downloadable_backups for fhts.com
2021-06-11 14:45:06,611 INFO scheduler Scheduled Job Complete: frappe.desk.page.backups.backups.delete_downloadable_backups for fhts.com
2021-06-11 14:45:06,704 INFO scheduler Scheduled Job Start: frappe.utils.error.collect_error_snapshots for fhts.com
2021-06-11 14:45:07,217 INFO scheduler Scheduled Job Complete: frappe.utils.error.collect_error_snapshots for fhts.com
2021-06-11 14:45:07,363 INFO scheduler Scheduled Job Start: frappe.model.utils.user_settings.sync_user_settings for fhts.com
2021-06-11 14:45:07,708 INFO scheduler Scheduled Job Complete: frappe.model.utils.user_settings.sync_user_settings for fhts.com
2021-06-11 14:45:07,958 INFO scheduler Scheduled Job Start: frappe.model.utils.link_count.update_link_count for fhts.com
2021-06-11 14:45:08,471 INFO scheduler Scheduled Job Complete: frappe.model.utils.link_count.update_link_count for fhts.com
2021-06-11 14:45:08,577 INFO scheduler Scheduled Job Start: frappe.monitor.flush for fhts.com
2021-06-11 14:45:08,726 INFO scheduler Scheduled Job Complete: frappe.monitor.flush for fhts.com
2021-06-11 14:45:08,826 INFO scheduler Scheduled Job Start: frappe.utils.global_search.sync_global_search for fhts.com
2021-06-11 14:45:08,979 INFO scheduler Scheduled Job Complete: frappe.utils.global_search.sync_global_search for fhts.com
2021-06-11 14:45:09,041 INFO scheduler Scheduled Job Start: frappe.integrations.doctype.razorpay_settings.razorpay_settings.capture_payment for fhts.com
2021-06-11 14:45:09,534 INFO scheduler Scheduled Job Complete: frappe.integrations.doctype.razorpay_settings.razorpay_settings.capture_payment for fhts.com
2021-06-11 14:45:09,603 INFO scheduler Scheduled Job Start: frappe.email.doctype.email_account.email_account.notify_unreplied for fhts.com
2021-06-11 14:45:10,346 INFO scheduler Scheduled Job Complete: frappe.email.doctype.email_account.email_account.notify_unreplied for fhts.com
2021-06-11 14:45:10,430 INFO scheduler Scheduled Job Start: frappe.email.doctype.email_account.email_account.pull for fhts.com
2021-06-11 14:45:10,758 INFO scheduler Scheduled Job Complete: frappe.email.doctype.email_account.email_account.pull for fhts.com
2021-06-11 14:45:10,835 INFO scheduler Scheduled Job Start: frappe.email.queue.flush for fhts.com
2021-06-11 14:45:11,133 INFO scheduler Scheduled Job Complete: frappe.email.queue.flush for fhts.com
2021-06-11 14:45:11,196 INFO scheduler Scheduled Job Start: frappe.twofactor.delete_all_barcodes_for_users for fhts.com
2021-06-11 14:45:11,701 INFO scheduler Scheduled Job Complete: frappe.twofactor.delete_all_barcodes_for_users for fhts.com
2021-06-11 14:45:11,806 INFO scheduler Scheduled Job Start: frappe.website.doctype.web_page.web_page.check_publish_status for fhts.com
2021-06-11 14:45:12,457 INFO scheduler Scheduled Job Complete: frappe.website.doctype.web_page.web_page.check_publish_status for fhts.com
2021-06-11 14:45:12,573 INFO scheduler Scheduled Job Start: frappe.oauth.delete_oauth2_data for fhts.com
2021-06-11 14:45:13,250 INFO scheduler Scheduled Job Complete: frappe.oauth.delete_oauth2_data for fhts.com
2021-06-11 14:45:41,247 DEBUG scheduler Queued events for site fhts.com
2021-06-11 14:46:41,463 DEBUG scheduler Queued events for site fhts.com
2021-06-11 14:47:41,681 DEBUG scheduler Queued events for site fhts.com
2021-06-11 14:48:41,923 DEBUG scheduler Queued events for site fhts.com
2021-06-11 14:48:41,951 INFO scheduler Scheduled Job Start: frappe.monitor.flush for fhts.com
