2021-06-21 18:29:17,552 INFO scheduler Scheduled Job Complete: frappe.model.utils.user_settings.sync_user_settings for fhts.com
2021-06-21 18:29:17,807 INFO scheduler Scheduled Job Start: frappe.model.utils.link_count.update_link_count for fhts.com
2021-06-21 18:29:18,319 INFO scheduler Scheduled Job Complete: frappe.model.utils.link_count.update_link_count for fhts.com
2021-06-21 18:29:18,533 INFO scheduler Scheduled Job Start: frappe.monitor.flush for fhts.com
2021-06-21 18:29:18,719 INFO scheduler Scheduled Job Complete: frappe.monitor.flush for fhts.com
2021-06-21 18:29:18,811 INFO scheduler Scheduled Job Start: frappe.utils.global_search.sync_global_search for fhts.com
2021-06-21 18:29:19,321 INFO scheduler Scheduled Job Complete: frappe.utils.global_search.sync_global_search for fhts.com
2021-06-21 18:29:19,412 INFO scheduler Scheduled Job Start: frappe.integrations.doctype.razorpay_settings.razorpay_settings.capture_payment for fhts.com
2021-06-21 18:29:19,981 INFO scheduler Scheduled Job Complete: frappe.integrations.doctype.razorpay_settings.razorpay_settings.capture_payment for fhts.com
2021-06-21 18:29:20,043 INFO scheduler Scheduled Job Start: frappe.email.doctype.email_account.email_account.notify_unreplied for fhts.com
2021-06-21 18:29:20,746 INFO scheduler Scheduled Job Complete: frappe.email.doctype.email_account.email_account.notify_unreplied for fhts.com
2021-06-21 18:29:20,818 INFO scheduler Scheduled Job Start: frappe.email.doctype.email_account.email_account.pull for fhts.com
2021-06-21 18:29:21,205 INFO scheduler Scheduled Job Complete: frappe.email.doctype.email_account.email_account.pull for fhts.com
2021-06-21 18:29:21,267 INFO scheduler Scheduled Job Start: frappe.email.queue.flush for fhts.com
2021-06-21 18:29:21,599 INFO scheduler Scheduled Job Complete: frappe.email.queue.flush for fhts.com
2021-06-21 18:29:21,662 INFO scheduler Scheduled Job Start: frappe.twofactor.delete_all_barcodes_for_users for fhts.com
2021-06-21 18:29:22,286 INFO scheduler Scheduled Job Complete: frappe.twofactor.delete_all_barcodes_for_users for fhts.com
2021-06-21 18:29:22,445 INFO scheduler Scheduled Job Start: frappe.website.doctype.web_page.web_page.check_publish_status for fhts.com
2021-06-21 18:29:22,954 INFO scheduler Scheduled Job Complete: frappe.website.doctype.web_page.web_page.check_publish_status for fhts.com
2021-06-21 18:29:23,059 INFO scheduler Scheduled Job Start: frappe.oauth.delete_oauth2_data for fhts.com
2021-06-21 18:29:23,568 INFO scheduler Scheduled Job Complete: frappe.oauth.delete_oauth2_data for fhts.com
