2021-06-23 11:46:54,971 DEBUG scheduler Queued events for site fhts.com
2021-06-23 11:47:55,202 DEBUG scheduler Queued events for site fhts.com
2021-06-23 11:48:55,449 DEBUG scheduler Queued events for site fhts.com
2021-06-23 11:48:55,479 INFO scheduler Scheduled Job Start: frappe.monitor.flush for fhts.com
2021-06-23 11:48:55,901 INFO scheduler Scheduled Job Complete: frappe.monitor.flush for fhts.com
2021-06-23 11:48:56,014 INFO scheduler Scheduled Job Start: frappe.utils.global_search.sync_global_search for fhts.com
2021-06-23 11:48:56,143 INFO scheduler Scheduled Job Complete: frappe.utils.global_search.sync_global_search for fhts.com
2021-06-23 11:48:56,205 INFO scheduler Scheduled Job Start: frappe.integrations.doctype.razorpay_settings.razorpay_settings.capture_payment for fhts.com
2021-06-23 11:48:56,528 INFO scheduler Scheduled Job Complete: frappe.integrations.doctype.razorpay_settings.razorpay_settings.capture_payment for fhts.com
2021-06-23 11:48:56,589 INFO scheduler Scheduled Job Start: frappe.email.doctype.email_account.email_account.notify_unreplied for fhts.com
2021-06-23 11:48:56,843 INFO scheduler Scheduled Job Complete: frappe.email.doctype.email_account.email_account.notify_unreplied for fhts.com
2021-06-23 11:48:56,904 INFO scheduler Scheduled Job Start: frappe.email.doctype.email_account.email_account.pull for fhts.com
2021-06-23 11:48:57,271 INFO scheduler Scheduled Job Complete: frappe.email.doctype.email_account.email_account.pull for fhts.com
2021-06-23 11:48:57,333 INFO scheduler Scheduled Job Start: frappe.email.queue.flush for fhts.com
2021-06-23 11:48:57,625 INFO scheduler Scheduled Job Complete: frappe.email.queue.flush for fhts.com
2021-06-23 11:49:55,657 DEBUG scheduler Queued events for site fhts.com
2021-06-23 11:50:55,853 DEBUG scheduler Queued events for site fhts.com
2021-06-23 11:51:56,081 DEBUG scheduler Queued events for site fhts.com
2021-06-23 11:52:56,330 DEBUG scheduler Queued events for site fhts.com
2021-06-23 11:52:56,360 INFO scheduler Scheduled Job Start: frappe.monitor.flush for fhts.com
2021-06-23 11:52:56,534 INFO scheduler Scheduled Job Complete: frappe.monitor.flush for fhts.com
2021-06-23 11:52:56,640 INFO scheduler Scheduled Job Start: frappe.utils.global_search.sync_global_search for fhts.com
2021-06-23 11:52:56,776 INFO scheduler Scheduled Job Complete: frappe.utils.global_search.sync_global_search for fhts.com
2021-06-23 11:52:56,846 INFO scheduler Scheduled Job Start: frappe.integrations.doctype.razorpay_settings.razorpay_settings.capture_payment for fhts.com
2021-06-23 11:52:57,157 INFO scheduler Scheduled Job Complete: frappe.integrations.doctype.razorpay_settings.razorpay_settings.capture_payment for fhts.com
2021-06-23 11:52:57,219 INFO scheduler Scheduled Job Start: frappe.email.doctype.email_account.email_account.notify_unreplied for fhts.com
2021-06-23 11:52:57,529 INFO scheduler Scheduled Job Complete: frappe.email.doctype.email_account.email_account.notify_unreplied for fhts.com
2021-06-23 11:52:57,590 INFO scheduler Scheduled Job Start: frappe.email.doctype.email_account.email_account.pull for fhts.com
2021-06-23 11:52:57,939 INFO scheduler Scheduled Job Complete: frappe.email.doctype.email_account.email_account.pull for fhts.com
2021-06-23 11:52:58,002 INFO scheduler Scheduled Job Start: frappe.email.queue.flush for fhts.com
2021-06-23 11:52:58,228 INFO scheduler Scheduled Job Complete: frappe.email.queue.flush for fhts.com
2021-06-23 11:53:56,594 DEBUG scheduler Queued events for site fhts.com
2021-06-23 11:54:56,820 DEBUG scheduler Queued events for site fhts.com
2021-06-23 11:55:57,030 DEBUG scheduler Queued events for site fhts.com
2021-06-23 11:56:57,260 DEBUG scheduler Queued events for site fhts.com
2021-06-23 11:56:57,403 INFO scheduler Scheduled Job Start: frappe.monitor.flush for fhts.com
2021-06-23 11:56:57,588 INFO scheduler Scheduled Job Complete: frappe.monitor.flush for fhts.com
2021-06-23 11:56:57,655 INFO scheduler Scheduled Job Start: frappe.utils.global_search.sync_global_search for fhts.com
2021-06-23 11:56:57,801 INFO scheduler Scheduled Job Complete: frappe.utils.global_search.sync_global_search for fhts.com
2021-06-23 11:56:57,892 INFO scheduler Scheduled Job Start: frappe.integrations.doctype.razorpay_settings.razorpay_settings.capture_payment for fhts.com
2021-06-23 11:56:58,241 INFO scheduler Scheduled Job Complete: frappe.integrations.doctype.razorpay_settings.razorpay_settings.capture_payment for fhts.com
2021-06-23 11:56:58,306 INFO scheduler Scheduled Job Start: frappe.email.doctype.email_account.email_account.notify_unreplied for fhts.com
2021-06-23 11:56:58,578 INFO scheduler Scheduled Job Complete: frappe.email.doctype.email_account.email_account.notify_unreplied for fhts.com
2021-06-23 11:56:58,641 INFO scheduler Scheduled Job Start: frappe.email.doctype.email_account.email_account.pull for fhts.com
2021-06-23 11:56:58,927 INFO scheduler Scheduled Job Complete: frappe.email.doctype.email_account.email_account.pull for fhts.com
2021-06-23 11:56:58,990 INFO scheduler Scheduled Job Start: frappe.email.queue.flush for fhts.com
2021-06-23 11:56:59,294 INFO scheduler Scheduled Job Complete: frappe.email.queue.flush for fhts.com
2021-06-23 11:57:57,487 DEBUG scheduler Queued events for site fhts.com
2021-06-23 11:58:57,694 DEBUG scheduler Queued events for site fhts.com
2021-06-23 11:59:57,921 DEBUG scheduler Queued events for site fhts.com
2021-06-23 12:00:58,176 INFO scheduler Scheduled Job Start: frappe.email.doctype.newsletter.newsletter.send_scheduled_email for fhts.com
2021-06-23 12:00:58,214 DEBUG scheduler Queued events for site fhts.com
2021-06-23 12:00:59,178 INFO scheduler Scheduled Job Complete: frappe.email.doctype.newsletter.newsletter.send_scheduled_email for fhts.com
2021-06-23 12:00:59,305 INFO scheduler Scheduled Job Start: frappe.integrations.doctype.google_calendar.google_calendar.sync for fhts.com
2021-06-23 12:01:00,492 INFO scheduler Scheduled Job Complete: frappe.integrations.doctype.google_calendar.google_calendar.sync for fhts.com
2021-06-23 12:01:00,603 INFO scheduler Scheduled Job Start: frappe.desk.form.document_follow.send_hourly_updates for fhts.com
2021-06-23 12:01:00,953 INFO scheduler Scheduled Job Complete: frappe.desk.form.document_follow.send_hourly_updates for fhts.com
2021-06-23 12:01:01,111 INFO scheduler Scheduled Job Start: frappe.deferred_insert.save_to_db for fhts.com
2021-06-23 12:01:01,687 INFO scheduler Scheduled Job Complete: frappe.deferred_insert.save_to_db for fhts.com
2021-06-23 12:01:01,826 INFO scheduler Scheduled Job Start: frappe.desk.page.backups.backups.delete_downloadable_backups for fhts.com
2021-06-23 12:01:02,399 INFO scheduler Scheduled Job Complete: frappe.desk.page.backups.backups.delete_downloadable_backups for fhts.com
2021-06-23 12:01:02,502 INFO scheduler Scheduled Job Start: frappe.utils.error.collect_error_snapshots for fhts.com
2021-06-23 12:01:02,932 INFO scheduler Scheduled Job Complete: frappe.utils.error.collect_error_snapshots for fhts.com
2021-06-23 12:01:03,107 INFO scheduler Scheduled Job Start: frappe.model.utils.user_settings.sync_user_settings for fhts.com
2021-06-23 12:01:03,485 INFO scheduler Scheduled Job Complete: frappe.model.utils.user_settings.sync_user_settings for fhts.com
2021-06-23 12:01:03,617 INFO scheduler Scheduled Job Start: frappe.model.utils.link_count.update_link_count for fhts.com
2021-06-23 12:01:04,023 INFO scheduler Scheduled Job Complete: frappe.model.utils.link_count.update_link_count for fhts.com
2021-06-23 12:01:04,165 INFO scheduler Scheduled Job Start: frappe.monitor.flush for fhts.com
2021-06-23 12:01:04,319 INFO scheduler Scheduled Job Complete: frappe.monitor.flush for fhts.com
2021-06-23 12:01:04,417 INFO scheduler Scheduled Job Start: frappe.utils.global_search.sync_global_search for fhts.com
2021-06-23 12:01:04,575 INFO scheduler Scheduled Job Complete: frappe.utils.global_search.sync_global_search for fhts.com
2021-06-23 12:01:04,686 INFO scheduler Scheduled Job Start: frappe.integrations.doctype.razorpay_settings.razorpay_settings.capture_payment for fhts.com
2021-06-23 12:01:05,113 INFO scheduler Scheduled Job Complete: frappe.integrations.doctype.razorpay_settings.razorpay_settings.capture_payment for fhts.com
2021-06-23 12:01:05,185 INFO scheduler Scheduled Job Start: frappe.email.doctype.email_account.email_account.notify_unreplied for fhts.com
2021-06-23 12:01:05,603 INFO scheduler Scheduled Job Complete: frappe.email.doctype.email_account.email_account.notify_unreplied for fhts.com
2021-06-23 12:01:05,711 INFO scheduler Scheduled Job Start: frappe.email.doctype.email_account.email_account.pull for fhts.com
2021-06-23 12:01:06,088 INFO scheduler Scheduled Job Complete: frappe.email.doctype.email_account.email_account.pull for fhts.com
2021-06-23 12:01:06,153 INFO scheduler Scheduled Job Start: frappe.email.queue.flush for fhts.com
2021-06-23 12:01:06,505 INFO scheduler Scheduled Job Complete: frappe.email.queue.flush for fhts.com
2021-06-23 12:01:06,618 INFO scheduler Scheduled Job Start: frappe.twofactor.delete_all_barcodes_for_users for fhts.com
2021-06-23 12:01:07,184 INFO scheduler Scheduled Job Complete: frappe.twofactor.delete_all_barcodes_for_users for fhts.com
2021-06-23 12:01:07,480 INFO scheduler Scheduled Job Start: frappe.website.doctype.web_page.web_page.check_publish_status for fhts.com
2021-06-23 12:01:07,934 INFO scheduler Scheduled Job Complete: frappe.website.doctype.web_page.web_page.check_publish_status for fhts.com
2021-06-23 12:01:08,030 INFO scheduler Scheduled Job Start: frappe.oauth.delete_oauth2_data for fhts.com
2021-06-23 12:01:08,517 INFO scheduler Scheduled Job Complete: frappe.oauth.delete_oauth2_data for fhts.com
2021-06-23 12:01:58,408 DEBUG scheduler Queued events for site fhts.com
2021-06-23 12:02:58,667 DEBUG scheduler Queued events for site fhts.com
2021-06-23 12:03:58,879 DEBUG scheduler Queued events for site fhts.com
2021-06-23 12:04:59,160 DEBUG scheduler Queued events for site fhts.com
2021-06-23 12:04:59,347 INFO scheduler Scheduled Job Start: frappe.monitor.flush for fhts.com
2021-06-23 12:04:59,718 INFO scheduler Scheduled Job Complete: frappe.monitor.flush for fhts.com
2021-06-23 12:04:59,787 INFO scheduler Scheduled Job Start: frappe.utils.global_search.sync_global_search for fhts.com
2021-06-23 12:05:00,197 INFO scheduler Scheduled Job Complete: frappe.utils.global_search.sync_global_search for fhts.com
2021-06-23 12:05:00,367 INFO scheduler Scheduled Job Start: frappe.integrations.doctype.razorpay_settings.razorpay_settings.capture_payment for fhts.com
2021-06-23 12:05:00,932 INFO scheduler Scheduled Job Complete: frappe.integrations.doctype.razorpay_settings.razorpay_settings.capture_payment for fhts.com
2021-06-23 12:05:01,026 INFO scheduler Scheduled Job Start: frappe.email.doctype.email_account.email_account.notify_unreplied for fhts.com
2021-06-23 12:05:01,694 INFO scheduler Scheduled Job Complete: frappe.email.doctype.email_account.email_account.notify_unreplied for fhts.com
2021-06-23 12:05:01,790 INFO scheduler Scheduled Job Start: frappe.email.doctype.email_account.email_account.pull for fhts.com
2021-06-23 12:05:02,123 INFO scheduler Scheduled Job Complete: frappe.email.doctype.email_account.email_account.pull for fhts.com
2021-06-23 12:05:02,194 INFO scheduler Scheduled Job Start: frappe.email.queue.flush for fhts.com
2021-06-23 12:05:02,437 INFO scheduler Scheduled Job Complete: frappe.email.queue.flush for fhts.com
2021-06-23 12:05:59,381 DEBUG scheduler Queued events for site fhts.com
2021-06-23 12:06:59,576 DEBUG scheduler Queued events for site fhts.com
2021-06-23 12:07:59,803 DEBUG scheduler Queued events for site fhts.com
2021-06-23 12:09:00,047 DEBUG scheduler Queued events for site fhts.com
2021-06-23 12:09:00,078 INFO scheduler Scheduled Job Start: frappe.monitor.flush for fhts.com
2021-06-23 12:09:00,529 INFO scheduler Scheduled Job Complete: frappe.monitor.flush for fhts.com
2021-06-23 12:09:00,609 INFO scheduler Scheduled Job Start: frappe.utils.global_search.sync_global_search for fhts.com
2021-06-23 12:09:00,751 INFO scheduler Scheduled Job Complete: frappe.utils.global_search.sync_global_search for fhts.com
2021-06-23 12:09:00,830 INFO scheduler Scheduled Job Start: frappe.integrations.doctype.razorpay_settings.razorpay_settings.capture_payment for fhts.com
2021-06-23 12:09:01,167 INFO scheduler Scheduled Job Complete: frappe.integrations.doctype.razorpay_settings.razorpay_settings.capture_payment for fhts.com
2021-06-23 12:09:01,230 INFO scheduler Scheduled Job Start: frappe.email.doctype.email_account.email_account.notify_unreplied for fhts.com
2021-06-23 12:09:01,486 INFO scheduler Scheduled Job Complete: frappe.email.doctype.email_account.email_account.notify_unreplied for fhts.com
2021-06-23 12:09:01,548 INFO scheduler Scheduled Job Start: frappe.email.doctype.email_account.email_account.pull for fhts.com
2021-06-23 12:09:01,926 INFO scheduler Scheduled Job Complete: frappe.email.doctype.email_account.email_account.pull for fhts.com
2021-06-23 12:09:01,989 INFO scheduler Scheduled Job Start: frappe.email.queue.flush for fhts.com
2021-06-23 12:09:02,278 INFO scheduler Scheduled Job Complete: frappe.email.queue.flush for fhts.com
2021-06-23 12:10:00,267 DEBUG scheduler Queued events for site fhts.com
2021-06-23 12:11:00,499 DEBUG scheduler Queued events for site fhts.com
2021-06-23 12:12:00,756 DEBUG scheduler Queued events for site fhts.com
2021-06-23 12:12:00,785 INFO scheduler Scheduled Job Start: frappe.monitor.flush for fhts.com
2021-06-23 12:12:00,957 INFO scheduler Scheduled Job Complete: frappe.monitor.flush for fhts.com
2021-06-23 12:12:01,069 INFO scheduler Scheduled Job Start: frappe.utils.global_search.sync_global_search for fhts.com
2021-06-23 12:12:01,200 INFO scheduler Scheduled Job Complete: frappe.utils.global_search.sync_global_search for fhts.com
2021-06-23 12:12:01,264 INFO scheduler Scheduled Job Start: frappe.integrations.doctype.razorpay_settings.razorpay_settings.capture_payment for fhts.com
2021-06-23 12:12:01,610 INFO scheduler Scheduled Job Complete: frappe.integrations.doctype.razorpay_settings.razorpay_settings.capture_payment for fhts.com
2021-06-23 12:12:01,672 INFO scheduler Scheduled Job Start: frappe.email.doctype.email_account.email_account.notify_unreplied for fhts.com
2021-06-23 12:12:01,935 INFO scheduler Scheduled Job Complete: frappe.email.doctype.email_account.email_account.notify_unreplied for fhts.com
2021-06-23 12:12:01,998 INFO scheduler Scheduled Job Start: frappe.email.doctype.email_account.email_account.pull for fhts.com
2021-06-23 12:12:02,363 INFO scheduler Scheduled Job Complete: frappe.email.doctype.email_account.email_account.pull for fhts.com
2021-06-23 12:12:02,425 INFO scheduler Scheduled Job Start: frappe.email.queue.flush for fhts.com
2021-06-23 12:12:02,717 INFO scheduler Scheduled Job Complete: frappe.email.queue.flush for fhts.com
2021-06-23 12:13:00,951 DEBUG scheduler Queued events for site fhts.com
2021-06-23 12:14:01,194 DEBUG scheduler Queued events for site fhts.com
2021-06-23 12:15:01,433 DEBUG scheduler Queued events for site fhts.com
2021-06-23 12:15:01,485 INFO scheduler Scheduled Job Start: frappe.twofactor.delete_all_barcodes_for_users for fhts.com
2021-06-23 12:15:02,107 INFO scheduler Scheduled Job Complete: frappe.twofactor.delete_all_barcodes_for_users for fhts.com
2021-06-23 12:15:02,233 INFO scheduler Scheduled Job Start: frappe.website.doctype.web_page.web_page.check_publish_status for fhts.com
2021-06-23 12:15:02,743 INFO scheduler Scheduled Job Complete: frappe.website.doctype.web_page.web_page.check_publish_status for fhts.com
2021-06-23 12:15:02,828 INFO scheduler Scheduled Job Start: frappe.oauth.delete_oauth2_data for fhts.com
2021-06-23 12:15:03,727 INFO scheduler Scheduled Job Complete: frappe.oauth.delete_oauth2_data for fhts.com
2021-06-23 12:16:01,683 DEBUG scheduler Queued events for site fhts.com
2021-06-23 12:16:01,712 INFO scheduler Scheduled Job Start: frappe.monitor.flush for fhts.com
2021-06-23 12:16:01,895 INFO scheduler Scheduled Job Complete: frappe.monitor.flush for fhts.com
2021-06-23 12:16:02,007 INFO scheduler Scheduled Job Start: frappe.utils.global_search.sync_global_search for fhts.com
2021-06-23 12:16:02,354 INFO scheduler Scheduled Job Complete: frappe.utils.global_search.sync_global_search for fhts.com
2021-06-23 12:16:02,451 INFO scheduler Scheduled Job Start: frappe.integrations.doctype.razorpay_settings.razorpay_settings.capture_payment for fhts.com
2021-06-23 12:16:02,778 INFO scheduler Scheduled Job Complete: frappe.integrations.doctype.razorpay_settings.razorpay_settings.capture_payment for fhts.com
2021-06-23 12:16:02,842 INFO scheduler Scheduled Job Start: frappe.email.doctype.email_account.email_account.notify_unreplied for fhts.com
2021-06-23 12:16:03,170 INFO scheduler Scheduled Job Complete: frappe.email.doctype.email_account.email_account.notify_unreplied for fhts.com
2021-06-23 12:16:03,235 INFO scheduler Scheduled Job Start: frappe.email.doctype.email_account.email_account.pull for fhts.com
2021-06-23 12:16:03,524 INFO scheduler Scheduled Job Complete: frappe.email.doctype.email_account.email_account.pull for fhts.com
2021-06-23 12:16:03,589 INFO scheduler Scheduled Job Start: frappe.email.queue.flush for fhts.com
2021-06-23 12:16:03,884 INFO scheduler Scheduled Job Complete: frappe.email.queue.flush for fhts.com
2021-06-23 12:17:01,946 DEBUG scheduler Queued events for site fhts.com
2021-06-23 12:18:02,165 DEBUG scheduler Queued events for site fhts.com
2021-06-23 12:19:02,506 DEBUG scheduler Queued events for site fhts.com
2021-06-23 12:20:02,885 DEBUG scheduler Queued events for site fhts.com
2021-06-23 12:20:04,330 INFO scheduler Scheduled Job Start: frappe.monitor.flush for fhts.com
2021-06-23 12:20:07,261 INFO scheduler Scheduled Job Complete: frappe.monitor.flush for fhts.com
2021-06-23 12:20:07,347 INFO scheduler Scheduled Job Start: frappe.utils.global_search.sync_global_search for fhts.com
2021-06-23 12:20:07,582 INFO scheduler Scheduled Job Complete: frappe.utils.global_search.sync_global_search for fhts.com
2021-06-23 12:20:07,660 INFO scheduler Scheduled Job Start: frappe.integrations.doctype.razorpay_settings.razorpay_settings.capture_payment for fhts.com
2021-06-23 12:20:09,526 INFO scheduler Scheduled Job Complete: frappe.integrations.doctype.razorpay_settings.razorpay_settings.capture_payment for fhts.com
2021-06-23 12:20:09,614 INFO scheduler Scheduled Job Start: frappe.email.doctype.email_account.email_account.notify_unreplied for fhts.com
2021-06-23 12:20:10,578 INFO scheduler Scheduled Job Complete: frappe.email.doctype.email_account.email_account.notify_unreplied for fhts.com
2021-06-23 12:20:10,644 INFO scheduler Scheduled Job Start: frappe.email.doctype.email_account.email_account.pull for fhts.com
2021-06-23 12:20:11,160 INFO scheduler Scheduled Job Complete: frappe.email.doctype.email_account.email_account.pull for fhts.com
2021-06-23 12:20:11,262 INFO scheduler Scheduled Job Start: frappe.email.queue.flush for fhts.com
2021-06-23 12:20:11,543 INFO scheduler Scheduled Job Complete: frappe.email.queue.flush for fhts.com
2021-06-23 12:21:03,190 DEBUG scheduler Queued events for site fhts.com
2021-06-23 12:22:03,472 DEBUG scheduler Queued events for site fhts.com
2021-06-23 12:23:03,704 DEBUG scheduler Queued events for site fhts.com
2021-06-23 12:24:04,000 DEBUG scheduler Queued events for site fhts.com
2021-06-23 12:24:08,386 INFO scheduler Scheduled Job Start: frappe.monitor.flush for fhts.com
2021-06-23 12:24:09,835 INFO scheduler Scheduled Job Complete: frappe.monitor.flush for fhts.com
2021-06-23 12:24:10,013 INFO scheduler Scheduled Job Start: frappe.utils.global_search.sync_global_search for fhts.com
2021-06-23 12:24:10,233 INFO scheduler Scheduled Job Complete: frappe.utils.global_search.sync_global_search for fhts.com
2021-06-23 12:24:10,348 INFO scheduler Scheduled Job Start: frappe.integrations.doctype.razorpay_settings.razorpay_settings.capture_payment for fhts.com
2021-06-23 12:24:12,064 INFO scheduler Scheduled Job Complete: frappe.integrations.doctype.razorpay_settings.razorpay_settings.capture_payment for fhts.com
2021-06-23 12:24:12,175 INFO scheduler Scheduled Job Start: frappe.email.doctype.email_account.email_account.notify_unreplied for fhts.com
2021-06-23 12:24:12,729 INFO scheduler Scheduled Job Complete: frappe.email.doctype.email_account.email_account.notify_unreplied for fhts.com
2021-06-23 12:24:12,836 INFO scheduler Scheduled Job Start: frappe.email.doctype.email_account.email_account.pull for fhts.com
2021-06-23 12:24:13,265 INFO scheduler Scheduled Job Complete: frappe.email.doctype.email_account.email_account.pull for fhts.com
2021-06-23 12:24:13,371 INFO scheduler Scheduled Job Start: frappe.email.queue.flush for fhts.com
2021-06-23 12:24:13,741 INFO scheduler Scheduled Job Complete: frappe.email.queue.flush for fhts.com
2021-06-23 12:25:04,418 DEBUG scheduler Queued events for site fhts.com
2021-06-23 12:26:04,684 DEBUG scheduler Queued events for site fhts.com
2021-06-23 12:27:04,878 DEBUG scheduler Queued events for site fhts.com
2021-06-23 12:28:05,145 DEBUG scheduler Queued events for site fhts.com
2021-06-23 12:28:08,502 INFO scheduler Scheduled Job Start: frappe.monitor.flush for fhts.com
2021-06-23 12:28:11,036 INFO scheduler Scheduled Job Complete: frappe.monitor.flush for fhts.com
2021-06-23 12:28:11,179 INFO scheduler Scheduled Job Start: frappe.utils.global_search.sync_global_search for fhts.com
2021-06-23 12:28:11,333 INFO scheduler Scheduled Job Complete: frappe.utils.global_search.sync_global_search for fhts.com
2021-06-23 12:28:11,402 INFO scheduler Scheduled Job Start: frappe.integrations.doctype.razorpay_settings.razorpay_settings.capture_payment for fhts.com
2021-06-23 12:28:13,970 INFO scheduler Scheduled Job Complete: frappe.integrations.doctype.razorpay_settings.razorpay_settings.capture_payment for fhts.com
2021-06-23 12:28:14,110 INFO scheduler Scheduled Job Start: frappe.email.doctype.email_account.email_account.notify_unreplied for fhts.com
2021-06-23 12:28:14,868 INFO scheduler Scheduled Job Complete: frappe.email.doctype.email_account.email_account.notify_unreplied for fhts.com
2021-06-23 12:28:15,002 INFO scheduler Scheduled Job Start: frappe.email.doctype.email_account.email_account.pull for fhts.com
2021-06-23 12:28:15,401 INFO scheduler Scheduled Job Complete: frappe.email.doctype.email_account.email_account.pull for fhts.com
2021-06-23 12:28:15,496 INFO scheduler Scheduled Job Start: frappe.email.queue.flush for fhts.com
2021-06-23 12:28:15,786 INFO scheduler Scheduled Job Complete: frappe.email.queue.flush for fhts.com
2021-06-23 12:29:05,385 DEBUG scheduler Queued events for site fhts.com
2021-06-23 12:30:05,627 DEBUG scheduler Queued events for site fhts.com
2021-06-23 12:30:05,677 INFO scheduler Scheduled Job Start: frappe.twofactor.delete_all_barcodes_for_users for fhts.com
2021-06-23 12:30:06,458 INFO scheduler Scheduled Job Complete: frappe.twofactor.delete_all_barcodes_for_users for fhts.com
2021-06-23 12:30:06,599 INFO scheduler Scheduled Job Start: frappe.website.doctype.web_page.web_page.check_publish_status for fhts.com
2021-06-23 12:30:07,032 INFO scheduler Scheduled Job Complete: frappe.website.doctype.web_page.web_page.check_publish_status for fhts.com
2021-06-23 12:30:07,137 INFO scheduler Scheduled Job Start: frappe.oauth.delete_oauth2_data for fhts.com
2021-06-23 12:30:07,665 INFO scheduler Scheduled Job Complete: frappe.oauth.delete_oauth2_data for fhts.com
2021-06-23 12:31:05,916 DEBUG scheduler Queued events for site fhts.com
2021-06-23 12:32:06,144 DEBUG scheduler Queued events for site fhts.com
2021-06-23 12:32:06,172 INFO scheduler Scheduled Job Start: frappe.monitor.flush for fhts.com
2021-06-23 12:32:06,357 INFO scheduler Scheduled Job Complete: frappe.monitor.flush for fhts.com
2021-06-23 12:32:06,467 INFO scheduler Scheduled Job Start: frappe.utils.global_search.sync_global_search for fhts.com
2021-06-23 12:32:06,610 INFO scheduler Scheduled Job Complete: frappe.utils.global_search.sync_global_search for fhts.com
2021-06-23 12:32:06,674 INFO scheduler Scheduled Job Start: frappe.integrations.doctype.razorpay_settings.razorpay_settings.capture_payment for fhts.com
2021-06-23 12:32:07,110 INFO scheduler Scheduled Job Complete: frappe.integrations.doctype.razorpay_settings.razorpay_settings.capture_payment for fhts.com
2021-06-23 12:32:07,174 INFO scheduler Scheduled Job Start: frappe.email.doctype.email_account.email_account.notify_unreplied for fhts.com
2021-06-23 12:32:07,510 INFO scheduler Scheduled Job Complete: frappe.email.doctype.email_account.email_account.notify_unreplied for fhts.com
2021-06-23 12:32:07,574 INFO scheduler Scheduled Job Start: frappe.email.doctype.email_account.email_account.pull for fhts.com
2021-06-23 12:32:07,915 INFO scheduler Scheduled Job Complete: frappe.email.doctype.email_account.email_account.pull for fhts.com
2021-06-23 12:32:07,980 INFO scheduler Scheduled Job Start: frappe.email.queue.flush for fhts.com
2021-06-23 12:32:08,230 INFO scheduler Scheduled Job Complete: frappe.email.queue.flush for fhts.com
2021-06-23 12:33:06,363 DEBUG scheduler Queued events for site fhts.com
2021-06-23 12:34:06,556 DEBUG scheduler Queued events for site fhts.com
2021-06-23 12:35:06,772 DEBUG scheduler Queued events for site fhts.com
2021-06-23 12:36:07,015 DEBUG scheduler Queued events for site fhts.com
2021-06-23 12:36:07,044 INFO scheduler Scheduled Job Start: frappe.monitor.flush for fhts.com
2021-06-23 12:36:07,219 INFO scheduler Scheduled Job Complete: frappe.monitor.flush for fhts.com
2021-06-23 12:36:07,307 INFO scheduler Scheduled Job Start: frappe.utils.global_search.sync_global_search for fhts.com
2021-06-23 12:36:07,507 INFO scheduler Scheduled Job Complete: frappe.utils.global_search.sync_global_search for fhts.com
2021-06-23 12:36:07,602 INFO scheduler Scheduled Job Start: frappe.integrations.doctype.razorpay_settings.razorpay_settings.capture_payment for fhts.com
2021-06-23 12:36:07,951 INFO scheduler Scheduled Job Complete: frappe.integrations.doctype.razorpay_settings.razorpay_settings.capture_payment for fhts.com
2021-06-23 12:36:08,020 INFO scheduler Scheduled Job Start: frappe.email.doctype.email_account.email_account.notify_unreplied for fhts.com
2021-06-23 12:36:08,362 INFO scheduler Scheduled Job Complete: frappe.email.doctype.email_account.email_account.notify_unreplied for fhts.com
2021-06-23 12:36:08,433 INFO scheduler Scheduled Job Start: frappe.email.doctype.email_account.email_account.pull for fhts.com
2021-06-23 12:36:08,719 INFO scheduler Scheduled Job Complete: frappe.email.doctype.email_account.email_account.pull for fhts.com
2021-06-23 12:36:08,805 INFO scheduler Scheduled Job Start: frappe.email.queue.flush for fhts.com
2021-06-23 12:36:09,062 INFO scheduler Scheduled Job Complete: frappe.email.queue.flush for fhts.com
2021-06-23 12:37:07,234 DEBUG scheduler Queued events for site fhts.com
2021-06-23 12:38:07,480 DEBUG scheduler Queued events for site fhts.com
2021-06-23 12:39:07,701 DEBUG scheduler Queued events for site fhts.com
2021-06-23 12:40:08,014 DEBUG scheduler Queued events for site fhts.com
2021-06-23 12:40:08,050 INFO scheduler Scheduled Job Start: frappe.monitor.flush for fhts.com
2021-06-23 12:40:08,207 INFO scheduler Scheduled Job Complete: frappe.monitor.flush for fhts.com
2021-06-23 12:40:08,285 INFO scheduler Scheduled Job Start: frappe.utils.global_search.sync_global_search for fhts.com
2021-06-23 12:40:08,496 INFO scheduler Scheduled Job Complete: frappe.utils.global_search.sync_global_search for fhts.com
2021-06-23 12:40:08,581 INFO scheduler Scheduled Job Start: frappe.integrations.doctype.razorpay_settings.razorpay_settings.capture_payment for fhts.com
2021-06-23 12:40:08,984 INFO scheduler Scheduled Job Complete: frappe.integrations.doctype.razorpay_settings.razorpay_settings.capture_payment for fhts.com
2021-06-23 12:40:09,058 INFO scheduler Scheduled Job Start: frappe.email.doctype.email_account.email_account.notify_unreplied for fhts.com
2021-06-23 12:40:09,377 INFO scheduler Scheduled Job Complete: frappe.email.doctype.email_account.email_account.notify_unreplied for fhts.com
2021-06-23 12:40:09,445 INFO scheduler Scheduled Job Start: frappe.email.doctype.email_account.email_account.pull for fhts.com
2021-06-23 12:40:09,787 INFO scheduler Scheduled Job Complete: frappe.email.doctype.email_account.email_account.pull for fhts.com
2021-06-23 12:40:09,854 INFO scheduler Scheduled Job Start: frappe.email.queue.flush for fhts.com
2021-06-23 12:40:10,160 INFO scheduler Scheduled Job Complete: frappe.email.queue.flush for fhts.com
2021-06-23 12:41:08,309 DEBUG scheduler Queued events for site fhts.com
2021-06-23 12:42:08,574 DEBUG scheduler Queued events for site fhts.com
2021-06-23 12:43:08,797 DEBUG scheduler Queued events for site fhts.com
2021-06-23 12:44:09,034 DEBUG scheduler Queued events for site fhts.com
2021-06-23 12:44:09,118 INFO scheduler Scheduled Job Start: frappe.monitor.flush for fhts.com
2021-06-23 12:44:09,276 INFO scheduler Scheduled Job Complete: frappe.monitor.flush for fhts.com
2021-06-23 12:44:09,348 INFO scheduler Scheduled Job Start: frappe.utils.global_search.sync_global_search for fhts.com
2021-06-23 12:44:09,487 INFO scheduler Scheduled Job Complete: frappe.utils.global_search.sync_global_search for fhts.com
2021-06-23 12:44:09,552 INFO scheduler Scheduled Job Start: frappe.integrations.doctype.razorpay_settings.razorpay_settings.capture_payment for fhts.com
2021-06-23 12:44:09,899 INFO scheduler Scheduled Job Complete: frappe.integrations.doctype.razorpay_settings.razorpay_settings.capture_payment for fhts.com
2021-06-23 12:44:09,967 INFO scheduler Scheduled Job Start: frappe.email.doctype.email_account.email_account.notify_unreplied for fhts.com
2021-06-23 12:44:10,302 INFO scheduler Scheduled Job Complete: frappe.email.doctype.email_account.email_account.notify_unreplied for fhts.com
2021-06-23 12:44:10,369 INFO scheduler Scheduled Job Start: frappe.email.doctype.email_account.email_account.pull for fhts.com
2021-06-23 12:44:10,669 INFO scheduler Scheduled Job Complete: frappe.email.doctype.email_account.email_account.pull for fhts.com
2021-06-23 12:44:10,736 INFO scheduler Scheduled Job Start: frappe.email.queue.flush for fhts.com
2021-06-23 12:44:11,050 INFO scheduler Scheduled Job Complete: frappe.email.queue.flush for fhts.com
2021-06-23 12:45:09,292 DEBUG scheduler Queued events for site fhts.com
2021-06-23 12:45:09,355 INFO scheduler Scheduled Job Start: frappe.twofactor.delete_all_barcodes_for_users for fhts.com
2021-06-23 12:45:09,852 INFO scheduler Scheduled Job Complete: frappe.twofactor.delete_all_barcodes_for_users for fhts.com
2021-06-23 12:45:10,071 INFO scheduler Scheduled Job Start: frappe.website.doctype.web_page.web_page.check_publish_status for fhts.com
2021-06-23 12:45:10,615 INFO scheduler Scheduled Job Complete: frappe.website.doctype.web_page.web_page.check_publish_status for fhts.com
2021-06-23 12:45:10,744 INFO scheduler Scheduled Job Start: frappe.oauth.delete_oauth2_data for fhts.com
2021-06-23 12:45:11,225 INFO scheduler Scheduled Job Complete: frappe.oauth.delete_oauth2_data for fhts.com
2021-06-23 12:46:09,514 DEBUG scheduler Queued events for site fhts.com
2021-06-23 12:47:09,725 DEBUG scheduler Queued events for site fhts.com
2021-06-23 15:09:51,436 DEBUG scheduler Queued events for site fhts.com
2021-06-23 15:09:51,860 INFO scheduler Scheduled Job Start: frappe.email.doctype.newsletter.newsletter.send_scheduled_email for fhts.com
2021-06-23 15:09:57,120 INFO scheduler Scheduled Job Complete: frappe.email.doctype.newsletter.newsletter.send_scheduled_email for fhts.com
2021-06-23 15:09:57,277 INFO scheduler Scheduled Job Start: frappe.integrations.doctype.google_calendar.google_calendar.sync for fhts.com
2021-06-23 15:09:59,916 INFO scheduler Scheduled Job Complete: frappe.integrations.doctype.google_calendar.google_calendar.sync for fhts.com
2021-06-23 15:10:00,070 INFO scheduler Scheduled Job Start: frappe.desk.form.document_follow.send_hourly_updates for fhts.com
2021-06-23 15:10:00,446 INFO scheduler Scheduled Job Complete: frappe.desk.form.document_follow.send_hourly_updates for fhts.com
2021-06-23 15:10:00,555 INFO scheduler Scheduled Job Start: frappe.deferred_insert.save_to_db for fhts.com
2021-06-23 15:10:00,940 INFO scheduler Scheduled Job Complete: frappe.deferred_insert.save_to_db for fhts.com
2021-06-23 15:10:01,101 INFO scheduler Scheduled Job Start: frappe.desk.page.backups.backups.delete_downloadable_backups for fhts.com
2021-06-23 15:10:01,590 INFO scheduler Scheduled Job Complete: frappe.desk.page.backups.backups.delete_downloadable_backups for fhts.com
2021-06-23 15:10:01,715 INFO scheduler Scheduled Job Start: frappe.utils.error.collect_error_snapshots for fhts.com
2021-06-23 15:10:03,307 INFO scheduler Scheduled Job Complete: frappe.utils.error.collect_error_snapshots for fhts.com
2021-06-23 15:10:03,471 INFO scheduler Scheduled Job Start: frappe.model.utils.user_settings.sync_user_settings for fhts.com
2021-06-23 15:10:03,887 INFO scheduler Scheduled Job Complete: frappe.model.utils.user_settings.sync_user_settings for fhts.com
2021-06-23 15:10:04,009 INFO scheduler Scheduled Job Start: frappe.model.utils.link_count.update_link_count for fhts.com
2021-06-23 15:10:04,467 INFO scheduler Scheduled Job Complete: frappe.model.utils.link_count.update_link_count for fhts.com
2021-06-23 15:10:04,651 INFO scheduler Scheduled Job Start: frappe.monitor.flush for fhts.com
2021-06-23 15:10:04,785 INFO scheduler Scheduled Job Complete: frappe.monitor.flush for fhts.com
2021-06-23 15:10:04,860 INFO scheduler Scheduled Job Start: frappe.utils.global_search.sync_global_search for fhts.com
2021-06-23 15:10:04,994 INFO scheduler Scheduled Job Complete: frappe.utils.global_search.sync_global_search for fhts.com
2021-06-23 15:10:05,055 INFO scheduler Scheduled Job Start: frappe.integrations.doctype.razorpay_settings.razorpay_settings.capture_payment for fhts.com
2021-06-23 15:10:05,547 INFO scheduler Scheduled Job Complete: frappe.integrations.doctype.razorpay_settings.razorpay_settings.capture_payment for fhts.com
2021-06-23 15:10:05,610 INFO scheduler Scheduled Job Start: frappe.email.doctype.email_account.email_account.notify_unreplied for fhts.com
2021-06-23 15:10:06,216 INFO scheduler Scheduled Job Complete: frappe.email.doctype.email_account.email_account.notify_unreplied for fhts.com
2021-06-23 15:10:06,278 INFO scheduler Scheduled Job Start: frappe.email.doctype.email_account.email_account.pull for fhts.com
2021-06-23 15:10:06,566 INFO scheduler Scheduled Job Complete: frappe.email.doctype.email_account.email_account.pull for fhts.com
2021-06-23 15:10:06,628 INFO scheduler Scheduled Job Start: frappe.email.queue.flush for fhts.com
2021-06-23 15:10:06,876 INFO scheduler Scheduled Job Complete: frappe.email.queue.flush for fhts.com
2021-06-23 15:10:06,938 INFO scheduler Scheduled Job Start: frappe.twofactor.delete_all_barcodes_for_users for fhts.com
2021-06-23 15:10:07,482 INFO scheduler Scheduled Job Complete: frappe.twofactor.delete_all_barcodes_for_users for fhts.com
2021-06-23 15:10:07,638 INFO scheduler Scheduled Job Start: frappe.website.doctype.web_page.web_page.check_publish_status for fhts.com
2021-06-23 15:10:08,300 INFO scheduler Scheduled Job Complete: frappe.website.doctype.web_page.web_page.check_publish_status for fhts.com
2021-06-23 15:10:08,408 INFO scheduler Scheduled Job Start: frappe.oauth.delete_oauth2_data for fhts.com
2021-06-23 15:10:08,889 INFO scheduler Scheduled Job Complete: frappe.oauth.delete_oauth2_data for fhts.com
2021-06-27 17:25:16,055 DEBUG scheduler Queued events for site fhts.com
2021-06-27 17:25:20,106 INFO scheduler Scheduled Job Start: frappe.integrations.doctype.google_drive.google_drive.weekly_backup for fhts.com
2021-06-27 17:25:20,113 INFO scheduler Scheduled Job Start: frappe.core.doctype.log_settings.log_settings.run_log_clean_up for fhts.com
2021-06-27 17:25:30,901 INFO scheduler Scheduled Job Complete: frappe.core.doctype.log_settings.log_settings.run_log_clean_up for fhts.com
2021-06-27 17:25:31,145 INFO scheduler Scheduled Job Start: frappe.core.doctype.prepared_report.prepared_report.delete_expired_prepared_reports for fhts.com
2021-06-27 17:25:33,122 INFO scheduler Scheduled Job Complete: frappe.core.doctype.prepared_report.prepared_report.delete_expired_prepared_reports for fhts.com
2021-06-27 17:25:33,327 INFO scheduler Scheduled Job Start: frappe.email.doctype.unhandled_email.unhandled_email.remove_old_unhandled_emails for fhts.com
2021-06-27 17:25:33,476 INFO scheduler Scheduled Job Complete: frappe.integrations.doctype.google_drive.google_drive.weekly_backup for fhts.com
2021-06-27 17:25:33,653 INFO scheduler Scheduled Job Start: frappe.social.doctype.energy_point_log.energy_point_log.send_weekly_summary for fhts.com
2021-06-27 17:25:33,903 INFO scheduler Scheduled Job Complete: frappe.email.doctype.unhandled_email.unhandled_email.remove_old_unhandled_emails for fhts.com
2021-06-27 17:25:34,057 INFO scheduler Scheduled Job Start: frappe.automation.doctype.auto_repeat.auto_repeat.set_auto_repeat_as_completed for fhts.com
2021-06-27 17:25:34,090 INFO scheduler Scheduled Job Complete: frappe.social.doctype.energy_point_log.energy_point_log.send_weekly_summary for fhts.com
2021-06-27 17:25:34,266 INFO scheduler Scheduled Job Start: frappe.desk.form.document_follow.send_weekly_updates for fhts.com
2021-06-27 17:25:34,689 INFO scheduler Scheduled Job Complete: frappe.automation.doctype.auto_repeat.auto_repeat.set_auto_repeat_as_completed for fhts.com
2021-06-27 17:25:34,795 INFO scheduler Scheduled Job Complete: frappe.desk.form.document_follow.send_weekly_updates for fhts.com
2021-06-27 17:25:34,809 INFO scheduler Scheduled Job Start: frappe.automation.doctype.auto_repeat.auto_repeat.make_auto_repeat_entry for fhts.com
2021-06-27 17:25:34,897 INFO scheduler Scheduled Job Start: frappe.desk.doctype.route_history.route_history.flush_old_route_records for fhts.com
2021-06-27 17:25:35,189 INFO scheduler Scheduled Job Complete: frappe.automation.doctype.auto_repeat.auto_repeat.make_auto_repeat_entry for fhts.com
2021-06-27 17:25:35,283 INFO scheduler Scheduled Job Start: frappe.integrations.doctype.google_contacts.google_contacts.sync for fhts.com
2021-06-27 17:25:35,516 INFO scheduler Scheduled Job Complete: frappe.desk.doctype.route_history.route_history.flush_old_route_records for fhts.com
2021-06-27 17:25:35,617 INFO scheduler Scheduled Job Start: frappe.integrations.doctype.s3_backup_settings.s3_backup_settings.take_backups_weekly for fhts.com
2021-06-27 17:25:35,998 INFO scheduler Scheduled Job Complete: frappe.integrations.doctype.google_contacts.google_contacts.sync for fhts.com
2021-06-27 17:25:36,108 INFO scheduler Scheduled Job Start: frappe.social.doctype.energy_point_settings.energy_point_settings.allocate_review_points for fhts.com
2021-06-27 17:25:36,406 INFO scheduler Scheduled Job Complete: frappe.integrations.doctype.s3_backup_settings.s3_backup_settings.take_backups_weekly for fhts.com
2021-06-27 17:25:36,513 INFO scheduler Scheduled Job Complete: frappe.social.doctype.energy_point_settings.energy_point_settings.allocate_review_points for fhts.com
2021-06-27 17:25:36,518 INFO scheduler Scheduled Job Start: frappe.integrations.doctype.dropbox_settings.dropbox_settings.take_backups_weekly for fhts.com
2021-06-27 17:25:36,651 INFO scheduler Scheduled Job Start: frappe.desk.form.document_follow.send_daily_updates for fhts.com
2021-06-27 17:25:37,108 INFO scheduler Scheduled Job Complete: frappe.desk.form.document_follow.send_daily_updates for fhts.com
2021-06-27 17:25:37,269 INFO scheduler Scheduled Job Start: frappe.website.doctype.personal_data_deletion_request.personal_data_deletion_request.remove_unverified_record for fhts.com
2021-06-27 17:25:37,363 INFO scheduler Scheduled Job Complete: frappe.integrations.doctype.dropbox_settings.dropbox_settings.take_backups_weekly for fhts.com
2021-06-27 17:25:37,500 INFO scheduler Scheduled Job Start: frappe.integrations.doctype.google_drive.google_drive.daily_backup for fhts.com
2021-06-27 17:25:37,785 INFO scheduler Scheduled Job Complete: frappe.website.doctype.personal_data_deletion_request.personal_data_deletion_request.remove_unverified_record for fhts.com
2021-06-27 17:25:37,955 INFO scheduler Scheduled Job Start: frappe.email.doctype.auto_email_report.auto_email_report.send_daily for fhts.com
2021-06-27 17:25:38,118 INFO scheduler Scheduled Job Complete: frappe.integrations.doctype.google_drive.google_drive.daily_backup for fhts.com
2021-06-27 17:25:38,276 INFO scheduler Scheduled Job Start: frappe.integrations.doctype.s3_backup_settings.s3_backup_settings.take_backups_daily for fhts.com
2021-06-27 17:25:38,837 INFO scheduler Scheduled Job Complete: frappe.integrations.doctype.s3_backup_settings.s3_backup_settings.take_backups_daily for fhts.com
2021-06-27 17:25:39,070 INFO scheduler Scheduled Job Start: frappe.utils.change_log.check_for_update for fhts.com
2021-06-27 17:25:41,616 INFO scheduler Scheduled Job Complete: frappe.utils.change_log.check_for_update for fhts.com
2021-06-27 17:25:41,792 INFO scheduler Scheduled Job Start: frappe.integrations.doctype.dropbox_settings.dropbox_settings.take_backups_daily for fhts.com
2021-06-27 17:25:42,543 INFO scheduler Scheduled Job Complete: frappe.integrations.doctype.dropbox_settings.dropbox_settings.take_backups_daily for fhts.com
2021-06-27 17:25:43,371 INFO scheduler Scheduled Job Complete: frappe.email.doctype.auto_email_report.auto_email_report.send_daily for fhts.com
2021-06-27 17:25:43,605 INFO scheduler Scheduled Job Start: frappe.utils.scheduler.restrict_scheduler_events_if_dormant for fhts.com
2021-06-27 17:25:44,125 INFO scheduler Scheduled Job Failed: frappe.utils.scheduler.restrict_scheduler_events_if_dormant for fhts.com
2021-06-27 17:25:44,459 INFO scheduler Scheduled Job Start: frappe.realtime.remove_old_task_logs for fhts.com
2021-06-27 17:25:45,753 INFO scheduler Scheduled Job Complete: frappe.realtime.remove_old_task_logs for fhts.com
2021-06-27 17:25:45,900 INFO scheduler Scheduled Job Start: frappe.email.doctype.notification.notification.trigger_daily_alerts for fhts.com
2021-06-27 17:25:46,322 INFO scheduler Scheduled Job Complete: frappe.email.doctype.notification.notification.trigger_daily_alerts for fhts.com
2021-06-27 17:25:46,480 INFO scheduler Scheduled Job Start: frappe.sessions.clear_expired_sessions for fhts.com
2021-06-27 17:25:47,307 INFO scheduler Scheduled Job Complete: frappe.sessions.clear_expired_sessions for fhts.com
2021-06-27 17:25:47,529 INFO scheduler Scheduled Job Start: frappe.desk.doctype.event.event.send_event_digest for fhts.com
2021-06-27 17:25:48,340 INFO scheduler Scheduled Job Complete: frappe.desk.doctype.event.event.send_event_digest for fhts.com
2021-06-27 17:25:48,488 INFO scheduler Scheduled Job Start: frappe.core.doctype.error_log.error_log.set_old_logs_as_seen for fhts.com
2021-06-27 17:25:49,099 INFO scheduler Scheduled Job Complete: frappe.core.doctype.error_log.error_log.set_old_logs_as_seen for fhts.com
2021-06-27 17:25:49,238 INFO scheduler Scheduled Job Start: frappe.desk.notifications.clear_notifications for fhts.com
2021-06-27 17:25:49,715 INFO scheduler Scheduled Job Complete: frappe.desk.notifications.clear_notifications for fhts.com
2021-06-27 17:25:49,980 INFO scheduler Scheduled Job Start: frappe.email.queue.set_expiry_for_email_queue for fhts.com
2021-06-27 17:25:50,475 INFO scheduler Scheduled Job Complete: frappe.email.queue.set_expiry_for_email_queue for fhts.com
2021-06-27 17:25:50,694 INFO scheduler Scheduled Job Start: frappe.email.doctype.newsletter.newsletter.send_scheduled_email for fhts.com
2021-06-27 17:25:52,256 INFO scheduler Scheduled Job Complete: frappe.email.doctype.newsletter.newsletter.send_scheduled_email for fhts.com
2021-06-27 17:25:53,237 INFO scheduler Scheduled Job Start: frappe.integrations.doctype.google_calendar.google_calendar.sync for fhts.com
2021-06-27 17:25:54,377 INFO scheduler Scheduled Job Complete: frappe.integrations.doctype.google_calendar.google_calendar.sync for fhts.com
2021-06-27 17:25:57,676 INFO scheduler Scheduled Job Start: frappe.desk.form.document_follow.send_hourly_updates for fhts.com
2021-06-27 17:26:02,276 INFO scheduler Scheduled Job Complete: frappe.desk.form.document_follow.send_hourly_updates for fhts.com
2021-06-27 17:26:02,374 INFO scheduler Scheduled Job Start: frappe.deferred_insert.save_to_db for fhts.com
2021-06-27 17:26:02,706 INFO scheduler Scheduled Job Complete: frappe.deferred_insert.save_to_db for fhts.com
2021-06-27 17:26:02,821 INFO scheduler Scheduled Job Start: frappe.desk.page.backups.backups.delete_downloadable_backups for fhts.com
2021-06-27 17:26:03,290 INFO scheduler Scheduled Job Complete: frappe.desk.page.backups.backups.delete_downloadable_backups for fhts.com
2021-06-27 17:26:03,379 INFO scheduler Scheduled Job Start: frappe.utils.error.collect_error_snapshots for fhts.com
2021-06-27 17:26:03,765 INFO scheduler Scheduled Job Complete: frappe.utils.error.collect_error_snapshots for fhts.com
2021-06-27 17:26:03,874 INFO scheduler Scheduled Job Start: frappe.model.utils.user_settings.sync_user_settings for fhts.com
2021-06-27 17:26:04,193 INFO scheduler Scheduled Job Complete: frappe.model.utils.user_settings.sync_user_settings for fhts.com
2021-06-27 17:26:04,317 INFO scheduler Scheduled Job Start: frappe.model.utils.link_count.update_link_count for fhts.com
2021-06-27 17:26:04,827 INFO scheduler Scheduled Job Complete: frappe.model.utils.link_count.update_link_count for fhts.com
2021-06-27 17:26:04,981 INFO scheduler Scheduled Job Start: frappe.monitor.flush for fhts.com
2021-06-27 17:26:05,122 INFO scheduler Scheduled Job Complete: frappe.monitor.flush for fhts.com
2021-06-27 17:26:05,186 INFO scheduler Scheduled Job Start: frappe.utils.global_search.sync_global_search for fhts.com
2021-06-27 17:26:05,369 INFO scheduler Scheduled Job Complete: frappe.utils.global_search.sync_global_search for fhts.com
2021-06-27 17:26:05,474 INFO scheduler Scheduled Job Start: frappe.integrations.doctype.razorpay_settings.razorpay_settings.capture_payment for fhts.com
2021-06-27 17:26:05,957 INFO scheduler Scheduled Job Complete: frappe.integrations.doctype.razorpay_settings.razorpay_settings.capture_payment for fhts.com
2021-06-27 17:26:06,021 INFO scheduler Scheduled Job Start: frappe.email.doctype.email_account.email_account.notify_unreplied for fhts.com
2021-06-27 17:26:06,466 INFO scheduler Scheduled Job Complete: frappe.email.doctype.email_account.email_account.notify_unreplied for fhts.com
2021-06-27 17:26:06,529 INFO scheduler Scheduled Job Start: frappe.email.doctype.email_account.email_account.pull for fhts.com
2021-06-27 17:26:06,838 INFO scheduler Scheduled Job Complete: frappe.email.doctype.email_account.email_account.pull for fhts.com
2021-06-27 17:26:06,901 INFO scheduler Scheduled Job Start: frappe.email.queue.flush for fhts.com
2021-06-27 17:26:07,132 INFO scheduler Scheduled Job Complete: frappe.email.queue.flush for fhts.com
2021-06-27 17:26:07,196 INFO scheduler Scheduled Job Start: frappe.twofactor.delete_all_barcodes_for_users for fhts.com
2021-06-27 17:26:07,680 INFO scheduler Scheduled Job Complete: frappe.twofactor.delete_all_barcodes_for_users for fhts.com
2021-06-27 17:26:07,788 INFO scheduler Scheduled Job Start: frappe.website.doctype.web_page.web_page.check_publish_status for fhts.com
2021-06-27 17:26:08,264 INFO scheduler Scheduled Job Complete: frappe.website.doctype.web_page.web_page.check_publish_status for fhts.com
2021-06-27 17:26:08,406 INFO scheduler Scheduled Job Start: frappe.oauth.delete_oauth2_data for fhts.com
2021-06-27 17:26:09,182 INFO scheduler Scheduled Job Complete: frappe.oauth.delete_oauth2_data for fhts.com
2021-06-27 17:26:16,484 DEBUG scheduler Queued events for site fhts.com
2021-06-27 17:27:16,690 DEBUG scheduler Queued events for site fhts.com
2021-06-27 17:28:16,937 DEBUG scheduler Queued events for site fhts.com
2021-06-27 17:28:16,967 INFO scheduler Scheduled Job Start: frappe.monitor.flush for fhts.com
2021-06-27 17:28:17,147 INFO scheduler Scheduled Job Complete: frappe.monitor.flush for fhts.com
2021-06-27 17:28:17,241 INFO scheduler Scheduled Job Start: frappe.utils.global_search.sync_global_search for fhts.com
2021-06-27 17:28:17,390 INFO scheduler Scheduled Job Complete: frappe.utils.global_search.sync_global_search for fhts.com
2021-06-27 17:28:17,453 INFO scheduler Scheduled Job Start: frappe.integrations.doctype.razorpay_settings.razorpay_settings.capture_payment for fhts.com
2021-06-27 17:28:17,809 INFO scheduler Scheduled Job Complete: frappe.integrations.doctype.razorpay_settings.razorpay_settings.capture_payment for fhts.com
2021-06-27 17:28:17,872 INFO scheduler Scheduled Job Start: frappe.email.doctype.email_account.email_account.notify_unreplied for fhts.com
2021-06-27 17:28:18,215 INFO scheduler Scheduled Job Complete: frappe.email.doctype.email_account.email_account.notify_unreplied for fhts.com
2021-06-27 17:28:18,278 INFO scheduler Scheduled Job Start: frappe.email.doctype.email_account.email_account.pull for fhts.com
2021-06-27 17:28:18,543 INFO scheduler Scheduled Job Complete: frappe.email.doctype.email_account.email_account.pull for fhts.com
2021-06-27 17:28:18,605 INFO scheduler Scheduled Job Start: frappe.email.queue.flush for fhts.com
2021-06-27 17:28:18,932 INFO scheduler Scheduled Job Complete: frappe.email.queue.flush for fhts.com
2021-06-27 17:29:17,139 DEBUG scheduler Queued events for site fhts.com
2021-06-27 17:30:17,358 DEBUG scheduler Queued events for site fhts.com
2021-06-27 17:30:17,406 INFO scheduler Scheduled Job Start: frappe.twofactor.delete_all_barcodes_for_users for fhts.com
2021-06-27 17:30:17,812 INFO scheduler Scheduled Job Complete: frappe.twofactor.delete_all_barcodes_for_users for fhts.com
2021-06-27 17:30:17,926 INFO scheduler Scheduled Job Start: frappe.website.doctype.web_page.web_page.check_publish_status for fhts.com
2021-06-27 17:30:18,444 INFO scheduler Scheduled Job Complete: frappe.website.doctype.web_page.web_page.check_publish_status for fhts.com
2021-06-27 17:30:18,589 INFO scheduler Scheduled Job Start: frappe.oauth.delete_oauth2_data for fhts.com
2021-06-27 17:30:18,945 INFO scheduler Scheduled Job Complete: frappe.oauth.delete_oauth2_data for fhts.com
2021-06-27 17:31:17,604 DEBUG scheduler Queued events for site fhts.com
2021-06-27 17:32:17,860 DEBUG scheduler Queued events for site fhts.com
2021-06-27 17:32:17,884 INFO scheduler Scheduled Job Start: frappe.monitor.flush for fhts.com
2021-06-27 17:32:18,071 INFO scheduler Scheduled Job Complete: frappe.monitor.flush for fhts.com
2021-06-27 17:32:18,152 INFO scheduler Scheduled Job Start: frappe.utils.global_search.sync_global_search for fhts.com
2021-06-27 17:32:18,303 INFO scheduler Scheduled Job Complete: frappe.utils.global_search.sync_global_search for fhts.com
2021-06-27 17:32:18,373 INFO scheduler Scheduled Job Start: frappe.integrations.doctype.razorpay_settings.razorpay_settings.capture_payment for fhts.com
2021-06-27 17:32:18,728 INFO scheduler Scheduled Job Complete: frappe.integrations.doctype.razorpay_settings.razorpay_settings.capture_payment for fhts.com
2021-06-27 17:32:18,790 INFO scheduler Scheduled Job Start: frappe.email.doctype.email_account.email_account.notify_unreplied for fhts.com
2021-06-27 17:32:19,090 INFO scheduler Scheduled Job Complete: frappe.email.doctype.email_account.email_account.notify_unreplied for fhts.com
2021-06-27 17:32:19,153 INFO scheduler Scheduled Job Start: frappe.email.doctype.email_account.email_account.pull for fhts.com
2021-06-27 17:32:19,452 INFO scheduler Scheduled Job Complete: frappe.email.doctype.email_account.email_account.pull for fhts.com
2021-06-27 17:32:19,514 INFO scheduler Scheduled Job Start: frappe.email.queue.flush for fhts.com
2021-06-27 17:32:19,832 INFO scheduler Scheduled Job Complete: frappe.email.queue.flush for fhts.com
2021-06-27 17:33:18,068 DEBUG scheduler Queued events for site fhts.com
2021-06-27 17:34:18,279 DEBUG scheduler Queued events for site fhts.com
2021-06-27 17:35:18,503 DEBUG scheduler Queued events for site fhts.com
2021-06-27 17:36:18,737 DEBUG scheduler Queued events for site fhts.com
2021-06-27 17:36:18,847 INFO scheduler Scheduled Job Start: frappe.monitor.flush for fhts.com
2021-06-27 17:36:19,079 INFO scheduler Scheduled Job Complete: frappe.monitor.flush for fhts.com
2021-06-27 17:36:19,144 INFO scheduler Scheduled Job Start: frappe.utils.global_search.sync_global_search for fhts.com
2021-06-27 17:36:19,289 INFO scheduler Scheduled Job Complete: frappe.utils.global_search.sync_global_search for fhts.com
2021-06-27 17:36:19,355 INFO scheduler Scheduled Job Start: frappe.integrations.doctype.razorpay_settings.razorpay_settings.capture_payment for fhts.com
2021-06-27 17:36:19,725 INFO scheduler Scheduled Job Complete: frappe.integrations.doctype.razorpay_settings.razorpay_settings.capture_payment for fhts.com
2021-06-27 17:36:19,790 INFO scheduler Scheduled Job Start: frappe.email.doctype.email_account.email_account.notify_unreplied for fhts.com
2021-06-27 17:36:20,078 INFO scheduler Scheduled Job Complete: frappe.email.doctype.email_account.email_account.notify_unreplied for fhts.com
2021-06-27 17:36:20,141 INFO scheduler Scheduled Job Start: frappe.email.doctype.email_account.email_account.pull for fhts.com
2021-06-27 17:36:20,442 INFO scheduler Scheduled Job Complete: frappe.email.doctype.email_account.email_account.pull for fhts.com
2021-06-27 17:36:20,504 INFO scheduler Scheduled Job Start: frappe.email.queue.flush for fhts.com
2021-06-27 17:36:20,735 INFO scheduler Scheduled Job Complete: frappe.email.queue.flush for fhts.com
2021-06-27 17:37:18,962 DEBUG scheduler Queued events for site fhts.com
2021-06-27 17:38:19,188 DEBUG scheduler Queued events for site fhts.com
2021-06-27 17:39:19,379 DEBUG scheduler Queued events for site fhts.com
2021-06-27 17:40:19,602 DEBUG scheduler Queued events for site fhts.com
2021-06-27 17:40:19,631 INFO scheduler Scheduled Job Start: frappe.monitor.flush for fhts.com
2021-06-27 17:40:19,814 INFO scheduler Scheduled Job Complete: frappe.monitor.flush for fhts.com
2021-06-27 17:40:19,919 INFO scheduler Scheduled Job Start: frappe.utils.global_search.sync_global_search for fhts.com
2021-06-27 17:40:20,067 INFO scheduler Scheduled Job Complete: frappe.utils.global_search.sync_global_search for fhts.com
2021-06-27 17:40:20,131 INFO scheduler Scheduled Job Start: frappe.integrations.doctype.razorpay_settings.razorpay_settings.capture_payment for fhts.com
2021-06-27 17:40:20,469 INFO scheduler Scheduled Job Complete: frappe.integrations.doctype.razorpay_settings.razorpay_settings.capture_payment for fhts.com
2021-06-27 17:40:20,537 INFO scheduler Scheduled Job Start: frappe.email.doctype.email_account.email_account.notify_unreplied for fhts.com
2021-06-27 17:40:20,823 INFO scheduler Scheduled Job Complete: frappe.email.doctype.email_account.email_account.notify_unreplied for fhts.com
2021-06-27 17:40:20,885 INFO scheduler Scheduled Job Start: frappe.email.doctype.email_account.email_account.pull for fhts.com
2021-06-27 17:40:21,274 INFO scheduler Scheduled Job Complete: frappe.email.doctype.email_account.email_account.pull for fhts.com
2021-06-27 17:40:21,338 INFO scheduler Scheduled Job Start: frappe.email.queue.flush for fhts.com
2021-06-27 17:40:21,634 INFO scheduler Scheduled Job Complete: frappe.email.queue.flush for fhts.com
2021-06-27 17:41:19,815 DEBUG scheduler Queued events for site fhts.com
2021-06-27 17:42:20,015 DEBUG scheduler Queued events for site fhts.com
2021-06-27 17:43:20,245 DEBUG scheduler Queued events for site fhts.com
2021-06-27 17:44:20,491 DEBUG scheduler Queued events for site fhts.com
2021-06-27 17:44:20,520 INFO scheduler Scheduled Job Start: frappe.monitor.flush for fhts.com
2021-06-27 17:44:20,708 INFO scheduler Scheduled Job Complete: frappe.monitor.flush for fhts.com
2021-06-27 17:44:20,818 INFO scheduler Scheduled Job Start: frappe.utils.global_search.sync_global_search for fhts.com
2021-06-27 17:44:21,097 INFO scheduler Scheduled Job Complete: frappe.utils.global_search.sync_global_search for fhts.com
2021-06-27 17:44:21,228 INFO scheduler Scheduled Job Start: frappe.integrations.doctype.razorpay_settings.razorpay_settings.capture_payment for fhts.com
2021-06-27 17:44:21,670 INFO scheduler Scheduled Job Complete: frappe.integrations.doctype.razorpay_settings.razorpay_settings.capture_payment for fhts.com
2021-06-27 17:44:21,786 INFO scheduler Scheduled Job Start: frappe.email.doctype.email_account.email_account.notify_unreplied for fhts.com
2021-06-27 17:44:22,236 INFO scheduler Scheduled Job Complete: frappe.email.doctype.email_account.email_account.notify_unreplied for fhts.com
2021-06-27 17:44:22,305 INFO scheduler Scheduled Job Start: frappe.email.doctype.email_account.email_account.pull for fhts.com
2021-06-27 17:44:22,706 INFO scheduler Scheduled Job Complete: frappe.email.doctype.email_account.email_account.pull for fhts.com
2021-06-27 17:44:22,821 INFO scheduler Scheduled Job Start: frappe.email.queue.flush for fhts.com
2021-06-27 17:44:23,154 INFO scheduler Scheduled Job Complete: frappe.email.queue.flush for fhts.com
2021-06-27 17:45:20,731 DEBUG scheduler Queued events for site fhts.com
2021-06-27 17:45:20,809 INFO scheduler Scheduled Job Start: frappe.twofactor.delete_all_barcodes_for_users for fhts.com
2021-06-27 17:45:21,212 INFO scheduler Scheduled Job Complete: frappe.twofactor.delete_all_barcodes_for_users for fhts.com
2021-06-27 17:45:21,301 INFO scheduler Scheduled Job Start: frappe.website.doctype.web_page.web_page.check_publish_status for fhts.com
2021-06-27 17:45:21,724 INFO scheduler Scheduled Job Complete: frappe.website.doctype.web_page.web_page.check_publish_status for fhts.com
2021-06-27 17:45:21,822 INFO scheduler Scheduled Job Start: frappe.oauth.delete_oauth2_data for fhts.com
2021-06-27 17:45:22,213 INFO scheduler Scheduled Job Complete: frappe.oauth.delete_oauth2_data for fhts.com
2021-06-27 17:46:20,923 DEBUG scheduler Queued events for site fhts.com
2021-06-27 17:47:21,131 DEBUG scheduler Queued events for site fhts.com
2021-06-27 17:48:21,355 DEBUG scheduler Queued events for site fhts.com
2021-06-27 17:48:21,385 INFO scheduler Scheduled Job Start: frappe.monitor.flush for fhts.com
2021-06-27 17:48:21,534 INFO scheduler Scheduled Job Complete: frappe.monitor.flush for fhts.com
2021-06-27 17:48:21,598 INFO scheduler Scheduled Job Start: frappe.utils.global_search.sync_global_search for fhts.com
2021-06-27 17:48:21,745 INFO scheduler Scheduled Job Complete: frappe.utils.global_search.sync_global_search for fhts.com
2021-06-27 17:48:21,808 INFO scheduler Scheduled Job Start: frappe.integrations.doctype.razorpay_settings.razorpay_settings.capture_payment for fhts.com
2021-06-27 17:48:22,286 INFO scheduler Scheduled Job Complete: frappe.integrations.doctype.razorpay_settings.razorpay_settings.capture_payment for fhts.com
2021-06-27 17:48:22,352 INFO scheduler Scheduled Job Start: frappe.email.doctype.email_account.email_account.notify_unreplied for fhts.com
2021-06-27 17:48:22,659 INFO scheduler Scheduled Job Complete: frappe.email.doctype.email_account.email_account.notify_unreplied for fhts.com
2021-06-27 17:48:22,723 INFO scheduler Scheduled Job Start: frappe.email.doctype.email_account.email_account.pull for fhts.com
2021-06-27 17:48:23,088 INFO scheduler Scheduled Job Complete: frappe.email.doctype.email_account.email_account.pull for fhts.com
2021-06-27 17:48:23,153 INFO scheduler Scheduled Job Start: frappe.email.queue.flush for fhts.com
2021-06-27 17:48:23,376 INFO scheduler Scheduled Job Complete: frappe.email.queue.flush for fhts.com
2021-06-27 17:49:21,537 DEBUG scheduler Queued events for site fhts.com
2021-06-27 17:50:21,797 DEBUG scheduler Queued events for site fhts.com
2021-06-27 17:51:22,018 DEBUG scheduler Queued events for site fhts.com
2021-06-27 17:52:22,297 DEBUG scheduler Queued events for site fhts.com
2021-06-27 17:52:22,328 INFO scheduler Scheduled Job Start: frappe.monitor.flush for fhts.com
2021-06-27 17:52:22,501 INFO scheduler Scheduled Job Complete: frappe.monitor.flush for fhts.com
2021-06-27 17:52:22,610 INFO scheduler Scheduled Job Start: frappe.utils.global_search.sync_global_search for fhts.com
2021-06-27 17:52:22,843 INFO scheduler Scheduled Job Complete: frappe.utils.global_search.sync_global_search for fhts.com
2021-06-27 17:52:22,945 INFO scheduler Scheduled Job Start: frappe.integrations.doctype.razorpay_settings.razorpay_settings.capture_payment for fhts.com
2021-06-27 17:52:23,293 INFO scheduler Scheduled Job Complete: frappe.integrations.doctype.razorpay_settings.razorpay_settings.capture_payment for fhts.com
2021-06-27 17:52:23,361 INFO scheduler Scheduled Job Start: frappe.email.doctype.email_account.email_account.notify_unreplied for fhts.com
2021-06-27 17:52:23,697 INFO scheduler Scheduled Job Complete: frappe.email.doctype.email_account.email_account.notify_unreplied for fhts.com
2021-06-27 17:52:23,762 INFO scheduler Scheduled Job Start: frappe.email.doctype.email_account.email_account.pull for fhts.com
2021-06-27 17:52:24,054 INFO scheduler Scheduled Job Complete: frappe.email.doctype.email_account.email_account.pull for fhts.com
2021-06-27 17:52:24,118 INFO scheduler Scheduled Job Start: frappe.email.queue.flush for fhts.com
2021-06-27 17:52:24,387 INFO scheduler Scheduled Job Complete: frappe.email.queue.flush for fhts.com
2021-06-27 17:53:22,512 DEBUG scheduler Queued events for site fhts.com
2021-06-27 17:54:22,884 DEBUG scheduler Queued events for site fhts.com
2021-06-27 17:55:23,086 DEBUG scheduler Queued events for site fhts.com
2021-06-27 17:56:23,325 DEBUG scheduler Queued events for site fhts.com
2021-06-27 17:56:23,356 INFO scheduler Scheduled Job Start: frappe.monitor.flush for fhts.com
2021-06-27 17:56:23,537 INFO scheduler Scheduled Job Complete: frappe.monitor.flush for fhts.com
2021-06-27 17:56:23,632 INFO scheduler Scheduled Job Start: frappe.utils.global_search.sync_global_search for fhts.com
2021-06-27 17:56:23,813 INFO scheduler Scheduled Job Complete: frappe.utils.global_search.sync_global_search for fhts.com
2021-06-27 17:56:23,893 INFO scheduler Scheduled Job Start: frappe.integrations.doctype.razorpay_settings.razorpay_settings.capture_payment for fhts.com
2021-06-27 17:56:24,223 INFO scheduler Scheduled Job Complete: frappe.integrations.doctype.razorpay_settings.razorpay_settings.capture_payment for fhts.com
2021-06-27 17:56:24,289 INFO scheduler Scheduled Job Start: frappe.email.doctype.email_account.email_account.notify_unreplied for fhts.com
2021-06-27 17:56:24,696 INFO scheduler Scheduled Job Complete: frappe.email.doctype.email_account.email_account.notify_unreplied for fhts.com
2021-06-27 17:56:24,759 INFO scheduler Scheduled Job Start: frappe.email.doctype.email_account.email_account.pull for fhts.com
2021-06-27 17:56:25,136 INFO scheduler Scheduled Job Complete: frappe.email.doctype.email_account.email_account.pull for fhts.com
2021-06-27 17:56:25,199 INFO scheduler Scheduled Job Start: frappe.email.queue.flush for fhts.com
2021-06-27 17:56:25,470 INFO scheduler Scheduled Job Complete: frappe.email.queue.flush for fhts.com
2021-06-27 17:57:23,547 DEBUG scheduler Queued events for site fhts.com
2021-06-27 17:58:23,758 DEBUG scheduler Queued events for site fhts.com
2021-06-27 17:59:23,982 DEBUG scheduler Queued events for site fhts.com
2021-06-27 18:00:24,260 INFO scheduler Scheduled Job Start: frappe.email.doctype.newsletter.newsletter.send_scheduled_email for fhts.com
2021-06-27 18:00:24,322 DEBUG scheduler Queued events for site fhts.com
2021-06-27 18:00:24,712 INFO scheduler Scheduled Job Complete: frappe.email.doctype.newsletter.newsletter.send_scheduled_email for fhts.com
2021-06-27 18:00:24,884 INFO scheduler Scheduled Job Start: frappe.integrations.doctype.google_calendar.google_calendar.sync for fhts.com
2021-06-27 18:00:25,740 INFO scheduler Scheduled Job Complete: frappe.integrations.doctype.google_calendar.google_calendar.sync for fhts.com
2021-06-27 18:00:25,871 INFO scheduler Scheduled Job Start: frappe.desk.form.document_follow.send_hourly_updates for fhts.com
2021-06-27 18:00:26,278 INFO scheduler Scheduled Job Complete: frappe.desk.form.document_follow.send_hourly_updates for fhts.com
2021-06-27 18:00:26,382 INFO scheduler Scheduled Job Start: frappe.deferred_insert.save_to_db for fhts.com
2021-06-27 18:00:27,362 INFO scheduler Scheduled Job Complete: frappe.deferred_insert.save_to_db for fhts.com
2021-06-27 18:00:27,492 INFO scheduler Scheduled Job Start: frappe.desk.page.backups.backups.delete_downloadable_backups for fhts.com
2021-06-27 18:00:27,927 INFO scheduler Scheduled Job Complete: frappe.desk.page.backups.backups.delete_downloadable_backups for fhts.com
2021-06-27 18:00:28,031 INFO scheduler Scheduled Job Start: frappe.utils.error.collect_error_snapshots for fhts.com
2021-06-27 18:00:28,533 INFO scheduler Scheduled Job Complete: frappe.utils.error.collect_error_snapshots for fhts.com
2021-06-27 18:00:28,685 INFO scheduler Scheduled Job Start: frappe.model.utils.user_settings.sync_user_settings for fhts.com
2021-06-27 18:00:29,066 INFO scheduler Scheduled Job Complete: frappe.model.utils.user_settings.sync_user_settings for fhts.com
2021-06-27 18:00:29,234 INFO scheduler Scheduled Job Start: frappe.model.utils.link_count.update_link_count for fhts.com
2021-06-27 18:00:29,620 INFO scheduler Scheduled Job Complete: frappe.model.utils.link_count.update_link_count for fhts.com
2021-06-27 18:00:29,771 INFO scheduler Scheduled Job Start: frappe.monitor.flush for fhts.com
2021-06-27 18:00:29,916 INFO scheduler Scheduled Job Complete: frappe.monitor.flush for fhts.com
2021-06-27 18:00:29,999 INFO scheduler Scheduled Job Start: frappe.utils.global_search.sync_global_search for fhts.com
2021-06-27 18:00:30,137 INFO scheduler Scheduled Job Complete: frappe.utils.global_search.sync_global_search for fhts.com
2021-06-27 18:00:30,201 INFO scheduler Scheduled Job Start: frappe.integrations.doctype.razorpay_settings.razorpay_settings.capture_payment for fhts.com
2021-06-27 18:00:30,532 INFO scheduler Scheduled Job Complete: frappe.integrations.doctype.razorpay_settings.razorpay_settings.capture_payment for fhts.com
2021-06-27 18:00:30,595 INFO scheduler Scheduled Job Start: frappe.email.doctype.email_account.email_account.notify_unreplied for fhts.com
2021-06-27 18:00:30,913 INFO scheduler Scheduled Job Complete: frappe.email.doctype.email_account.email_account.notify_unreplied for fhts.com
2021-06-27 18:00:30,976 INFO scheduler Scheduled Job Start: frappe.email.doctype.email_account.email_account.pull for fhts.com
2021-06-27 18:00:31,369 INFO scheduler Scheduled Job Complete: frappe.email.doctype.email_account.email_account.pull for fhts.com
2021-06-27 18:00:31,432 INFO scheduler Scheduled Job Start: frappe.email.queue.flush for fhts.com
2021-06-27 18:00:31,835 INFO scheduler Scheduled Job Complete: frappe.email.queue.flush for fhts.com
2021-06-27 18:00:31,897 INFO scheduler Scheduled Job Start: frappe.twofactor.delete_all_barcodes_for_users for fhts.com
2021-06-27 18:00:32,277 INFO scheduler Scheduled Job Complete: frappe.twofactor.delete_all_barcodes_for_users for fhts.com
2021-06-27 18:00:32,409 INFO scheduler Scheduled Job Start: frappe.website.doctype.web_page.web_page.check_publish_status for fhts.com
2021-06-27 18:00:32,843 INFO scheduler Scheduled Job Complete: frappe.website.doctype.web_page.web_page.check_publish_status for fhts.com
2021-06-27 18:00:32,944 INFO scheduler Scheduled Job Start: frappe.oauth.delete_oauth2_data for fhts.com
2021-06-27 18:00:33,351 INFO scheduler Scheduled Job Complete: frappe.oauth.delete_oauth2_data for fhts.com
2021-06-27 18:01:24,547 DEBUG scheduler Queued events for site fhts.com
2021-06-27 18:02:24,805 DEBUG scheduler Queued events for site fhts.com
2021-06-27 18:03:25,022 DEBUG scheduler Queued events for site fhts.com
2021-06-27 18:04:25,254 DEBUG scheduler Queued events for site fhts.com
2021-06-27 18:04:25,281 INFO scheduler Scheduled Job Start: frappe.monitor.flush for fhts.com
2021-06-27 18:04:25,489 INFO scheduler Scheduled Job Complete: frappe.monitor.flush for fhts.com
2021-06-27 18:04:25,613 INFO scheduler Scheduled Job Start: frappe.utils.global_search.sync_global_search for fhts.com
2021-06-27 18:04:25,787 INFO scheduler Scheduled Job Complete: frappe.utils.global_search.sync_global_search for fhts.com
2021-06-27 18:04:25,866 INFO scheduler Scheduled Job Start: frappe.integrations.doctype.razorpay_settings.razorpay_settings.capture_payment for fhts.com
2021-06-27 18:04:26,297 INFO scheduler Scheduled Job Complete: frappe.integrations.doctype.razorpay_settings.razorpay_settings.capture_payment for fhts.com
2021-06-27 18:04:26,416 INFO scheduler Scheduled Job Start: frappe.email.doctype.email_account.email_account.notify_unreplied for fhts.com
2021-06-27 18:04:26,776 INFO scheduler Scheduled Job Complete: frappe.email.doctype.email_account.email_account.notify_unreplied for fhts.com
2021-06-27 18:04:26,842 INFO scheduler Scheduled Job Start: frappe.email.doctype.email_account.email_account.pull for fhts.com
2021-06-27 18:04:27,122 INFO scheduler Scheduled Job Complete: frappe.email.doctype.email_account.email_account.pull for fhts.com
2021-06-27 18:04:27,187 INFO scheduler Scheduled Job Start: frappe.email.queue.flush for fhts.com
2021-06-27 18:04:27,507 INFO scheduler Scheduled Job Complete: frappe.email.queue.flush for fhts.com
2021-06-27 18:05:25,467 DEBUG scheduler Queued events for site fhts.com
2021-06-27 18:06:25,688 DEBUG scheduler Queued events for site fhts.com
2021-06-27 18:07:25,887 DEBUG scheduler Queued events for site fhts.com
2021-06-27 18:08:26,150 DEBUG scheduler Queued events for site fhts.com
2021-06-27 18:08:26,183 INFO scheduler Scheduled Job Start: frappe.monitor.flush for fhts.com
2021-06-27 18:08:26,370 INFO scheduler Scheduled Job Complete: frappe.monitor.flush for fhts.com
2021-06-27 18:08:26,453 INFO scheduler Scheduled Job Start: frappe.utils.global_search.sync_global_search for fhts.com
2021-06-27 18:08:26,604 INFO scheduler Scheduled Job Complete: frappe.utils.global_search.sync_global_search for fhts.com
2021-06-27 18:08:26,667 INFO scheduler Scheduled Job Start: frappe.integrations.doctype.razorpay_settings.razorpay_settings.capture_payment for fhts.com
2021-06-27 18:08:27,011 INFO scheduler Scheduled Job Complete: frappe.integrations.doctype.razorpay_settings.razorpay_settings.capture_payment for fhts.com
2021-06-27 18:08:27,079 INFO scheduler Scheduled Job Start: frappe.email.doctype.email_account.email_account.notify_unreplied for fhts.com
2021-06-27 18:08:27,416 INFO scheduler Scheduled Job Complete: frappe.email.doctype.email_account.email_account.notify_unreplied for fhts.com
2021-06-27 18:08:27,480 INFO scheduler Scheduled Job Start: frappe.email.doctype.email_account.email_account.pull for fhts.com
2021-06-27 18:08:27,870 INFO scheduler Scheduled Job Complete: frappe.email.doctype.email_account.email_account.pull for fhts.com
2021-06-27 18:08:27,933 INFO scheduler Scheduled Job Start: frappe.email.queue.flush for fhts.com
2021-06-27 18:08:28,194 INFO scheduler Scheduled Job Complete: frappe.email.queue.flush for fhts.com
2021-06-27 18:09:26,344 DEBUG scheduler Queued events for site fhts.com
2021-06-27 18:10:26,568 DEBUG scheduler Queued events for site fhts.com
2021-06-27 18:11:27,020 DEBUG scheduler Queued events for site fhts.com
2021-06-27 18:12:27,318 DEBUG scheduler Queued events for site fhts.com
2021-06-27 18:12:27,858 INFO scheduler Scheduled Job Start: frappe.monitor.flush for fhts.com
2021-06-27 18:12:28,930 INFO scheduler Scheduled Job Complete: frappe.monitor.flush for fhts.com
2021-06-27 18:12:29,046 INFO scheduler Scheduled Job Start: frappe.utils.global_search.sync_global_search for fhts.com
2021-06-27 18:12:29,205 INFO scheduler Scheduled Job Complete: frappe.utils.global_search.sync_global_search for fhts.com
2021-06-27 18:12:29,269 INFO scheduler Scheduled Job Start: frappe.integrations.doctype.razorpay_settings.razorpay_settings.capture_payment for fhts.com
2021-06-27 18:12:30,346 INFO scheduler Scheduled Job Complete: frappe.integrations.doctype.razorpay_settings.razorpay_settings.capture_payment for fhts.com
2021-06-27 18:12:30,417 INFO scheduler Scheduled Job Start: frappe.email.doctype.email_account.email_account.notify_unreplied for fhts.com
2021-06-27 18:12:31,136 INFO scheduler Scheduled Job Complete: frappe.email.doctype.email_account.email_account.notify_unreplied for fhts.com
2021-06-27 18:12:31,215 INFO scheduler Scheduled Job Start: frappe.email.doctype.email_account.email_account.pull for fhts.com
2021-06-27 18:12:31,596 INFO scheduler Scheduled Job Complete: frappe.email.doctype.email_account.email_account.pull for fhts.com
2021-06-27 18:12:31,659 INFO scheduler Scheduled Job Start: frappe.email.queue.flush for fhts.com
2021-06-27 18:12:31,928 INFO scheduler Scheduled Job Complete: frappe.email.queue.flush for fhts.com
2021-06-27 18:13:27,590 DEBUG scheduler Queued events for site fhts.com
2021-06-27 18:14:27,801 DEBUG scheduler Queued events for site fhts.com
2021-06-27 18:15:28,028 DEBUG scheduler Queued events for site fhts.com
2021-06-27 18:15:28,175 INFO scheduler Scheduled Job Start: frappe.twofactor.delete_all_barcodes_for_users for fhts.com
2021-06-27 18:15:29,654 INFO scheduler Scheduled Job Complete: frappe.twofactor.delete_all_barcodes_for_users for fhts.com
2021-06-27 18:15:29,813 INFO scheduler Scheduled Job Start: frappe.website.doctype.web_page.web_page.check_publish_status for fhts.com
2021-06-27 18:15:30,909 INFO scheduler Scheduled Job Complete: frappe.website.doctype.web_page.web_page.check_publish_status for fhts.com
2021-06-27 18:15:31,039 INFO scheduler Scheduled Job Start: frappe.oauth.delete_oauth2_data for fhts.com
2021-06-27 18:15:31,519 INFO scheduler Scheduled Job Complete: frappe.oauth.delete_oauth2_data for fhts.com
2021-06-27 18:16:28,250 DEBUG scheduler Queued events for site fhts.com
2021-06-27 18:16:28,278 INFO scheduler Scheduled Job Start: frappe.monitor.flush for fhts.com
2021-06-27 18:16:28,447 INFO scheduler Scheduled Job Complete: frappe.monitor.flush for fhts.com
2021-06-27 18:16:28,563 INFO scheduler Scheduled Job Start: frappe.utils.global_search.sync_global_search for fhts.com
2021-06-27 18:16:28,712 INFO scheduler Scheduled Job Complete: frappe.utils.global_search.sync_global_search for fhts.com
2021-06-27 18:16:28,807 INFO scheduler Scheduled Job Start: frappe.integrations.doctype.razorpay_settings.razorpay_settings.capture_payment for fhts.com
2021-06-27 18:16:29,136 INFO scheduler Scheduled Job Complete: frappe.integrations.doctype.razorpay_settings.razorpay_settings.capture_payment for fhts.com
2021-06-27 18:16:29,199 INFO scheduler Scheduled Job Start: frappe.email.doctype.email_account.email_account.notify_unreplied for fhts.com
2021-06-27 18:16:29,504 INFO scheduler Scheduled Job Complete: frappe.email.doctype.email_account.email_account.notify_unreplied for fhts.com
2021-06-27 18:16:29,565 INFO scheduler Scheduled Job Start: frappe.email.doctype.email_account.email_account.pull for fhts.com
2021-06-27 18:16:29,854 INFO scheduler Scheduled Job Complete: frappe.email.doctype.email_account.email_account.pull for fhts.com
2021-06-27 18:16:29,919 INFO scheduler Scheduled Job Start: frappe.email.queue.flush for fhts.com
2021-06-27 18:16:30,256 INFO scheduler Scheduled Job Complete: frappe.email.queue.flush for fhts.com
2021-06-27 18:17:28,453 DEBUG scheduler Queued events for site fhts.com
2021-06-27 18:18:28,728 DEBUG scheduler Queued events for site fhts.com
2021-06-27 18:19:28,971 DEBUG scheduler Queued events for site fhts.com
2021-06-27 18:20:29,205 DEBUG scheduler Queued events for site fhts.com
2021-06-27 18:20:29,233 INFO scheduler Scheduled Job Start: frappe.monitor.flush for fhts.com
2021-06-27 18:20:29,408 INFO scheduler Scheduled Job Complete: frappe.monitor.flush for fhts.com
2021-06-27 18:20:29,516 INFO scheduler Scheduled Job Start: frappe.utils.global_search.sync_global_search for fhts.com
2021-06-27 18:20:29,663 INFO scheduler Scheduled Job Complete: frappe.utils.global_search.sync_global_search for fhts.com
2021-06-27 18:20:29,727 INFO scheduler Scheduled Job Start: frappe.integrations.doctype.razorpay_settings.razorpay_settings.capture_payment for fhts.com
2021-06-27 18:20:30,068 INFO scheduler Scheduled Job Complete: frappe.integrations.doctype.razorpay_settings.razorpay_settings.capture_payment for fhts.com
2021-06-27 18:20:30,133 INFO scheduler Scheduled Job Start: frappe.email.doctype.email_account.email_account.notify_unreplied for fhts.com
2021-06-27 18:20:30,427 INFO scheduler Scheduled Job Complete: frappe.email.doctype.email_account.email_account.notify_unreplied for fhts.com
2021-06-27 18:20:30,501 INFO scheduler Scheduled Job Start: frappe.email.doctype.email_account.email_account.pull for fhts.com
2021-06-27 18:20:30,843 INFO scheduler Scheduled Job Complete: frappe.email.doctype.email_account.email_account.pull for fhts.com
2021-06-27 18:20:30,905 INFO scheduler Scheduled Job Start: frappe.email.queue.flush for fhts.com
2021-06-27 18:20:31,201 INFO scheduler Scheduled Job Complete: frappe.email.queue.flush for fhts.com
2021-06-27 18:21:29,412 DEBUG scheduler Queued events for site fhts.com
2021-06-27 18:22:29,646 DEBUG scheduler Queued events for site fhts.com
2021-06-27 18:23:29,868 DEBUG scheduler Queued events for site fhts.com
2021-06-27 18:24:30,119 DEBUG scheduler Queued events for site fhts.com
2021-06-27 18:24:30,147 INFO scheduler Scheduled Job Start: frappe.monitor.flush for fhts.com
2021-06-27 18:24:30,328 INFO scheduler Scheduled Job Complete: frappe.monitor.flush for fhts.com
2021-06-27 18:24:30,424 INFO scheduler Scheduled Job Start: frappe.utils.global_search.sync_global_search for fhts.com
2021-06-27 18:24:30,591 INFO scheduler Scheduled Job Complete: frappe.utils.global_search.sync_global_search for fhts.com
2021-06-27 18:24:30,672 INFO scheduler Scheduled Job Start: frappe.integrations.doctype.razorpay_settings.razorpay_settings.capture_payment for fhts.com
2021-06-27 18:24:31,028 INFO scheduler Scheduled Job Complete: frappe.integrations.doctype.razorpay_settings.razorpay_settings.capture_payment for fhts.com
2021-06-27 18:24:31,149 INFO scheduler Scheduled Job Start: frappe.email.doctype.email_account.email_account.notify_unreplied for fhts.com
2021-06-27 18:24:31,589 INFO scheduler Scheduled Job Complete: frappe.email.doctype.email_account.email_account.notify_unreplied for fhts.com
2021-06-27 18:24:31,658 INFO scheduler Scheduled Job Start: frappe.email.doctype.email_account.email_account.pull for fhts.com
2021-06-27 18:24:32,001 INFO scheduler Scheduled Job Complete: frappe.email.doctype.email_account.email_account.pull for fhts.com
2021-06-27 18:24:32,070 INFO scheduler Scheduled Job Start: frappe.email.queue.flush for fhts.com
2021-06-27 18:24:32,367 INFO scheduler Scheduled Job Complete: frappe.email.queue.flush for fhts.com
2021-06-27 18:25:30,320 DEBUG scheduler Queued events for site fhts.com
2021-06-27 18:26:30,544 DEBUG scheduler Queued events for site fhts.com
2021-06-27 18:27:30,765 DEBUG scheduler Queued events for site fhts.com
2021-06-27 18:28:31,020 DEBUG scheduler Queued events for site fhts.com
2021-06-27 18:28:31,050 INFO scheduler Scheduled Job Start: frappe.monitor.flush for fhts.com
2021-06-27 18:28:31,226 INFO scheduler Scheduled Job Complete: frappe.monitor.flush for fhts.com
2021-06-27 18:28:31,313 INFO scheduler Scheduled Job Start: frappe.utils.global_search.sync_global_search for fhts.com
2021-06-27 18:28:31,448 INFO scheduler Scheduled Job Complete: frappe.utils.global_search.sync_global_search for fhts.com
2021-06-27 18:28:31,510 INFO scheduler Scheduled Job Start: frappe.integrations.doctype.razorpay_settings.razorpay_settings.capture_payment for fhts.com
2021-06-27 18:28:31,841 INFO scheduler Scheduled Job Complete: frappe.integrations.doctype.razorpay_settings.razorpay_settings.capture_payment for fhts.com
2021-06-27 18:28:31,907 INFO scheduler Scheduled Job Start: frappe.email.doctype.email_account.email_account.notify_unreplied for fhts.com
2021-06-27 18:28:32,212 INFO scheduler Scheduled Job Complete: frappe.email.doctype.email_account.email_account.notify_unreplied for fhts.com
2021-06-27 18:28:32,276 INFO scheduler Scheduled Job Start: frappe.email.doctype.email_account.email_account.pull for fhts.com
2021-06-27 18:28:32,567 INFO scheduler Scheduled Job Complete: frappe.email.doctype.email_account.email_account.pull for fhts.com
2021-06-27 18:28:32,628 INFO scheduler Scheduled Job Start: frappe.email.queue.flush for fhts.com
2021-06-27 18:28:32,946 INFO scheduler Scheduled Job Complete: frappe.email.queue.flush for fhts.com
2021-06-27 18:29:31,227 DEBUG scheduler Queued events for site fhts.com
2021-06-27 18:30:31,462 DEBUG scheduler Queued events for site fhts.com
2021-06-27 18:30:31,512 INFO scheduler Scheduled Job Start: frappe.twofactor.delete_all_barcodes_for_users for fhts.com
2021-06-27 18:30:32,271 INFO scheduler Scheduled Job Complete: frappe.twofactor.delete_all_barcodes_for_users for fhts.com
2021-06-27 18:30:32,360 INFO scheduler Scheduled Job Start: frappe.website.doctype.web_page.web_page.check_publish_status for fhts.com
2021-06-27 18:30:33,219 INFO scheduler Scheduled Job Complete: frappe.website.doctype.web_page.web_page.check_publish_status for fhts.com
2021-06-27 18:30:33,312 INFO scheduler Scheduled Job Start: frappe.oauth.delete_oauth2_data for fhts.com
2021-06-27 18:30:34,127 INFO scheduler Scheduled Job Complete: frappe.oauth.delete_oauth2_data for fhts.com
2021-06-27 18:31:31,681 DEBUG scheduler Queued events for site fhts.com
2021-06-27 18:32:31,918 DEBUG scheduler Queued events for site fhts.com
2021-06-27 18:32:31,947 INFO scheduler Scheduled Job Start: frappe.monitor.flush for fhts.com
2021-06-27 18:32:32,089 INFO scheduler Scheduled Job Complete: frappe.monitor.flush for fhts.com
2021-06-27 18:32:32,152 INFO scheduler Scheduled Job Start: frappe.utils.global_search.sync_global_search for fhts.com
2021-06-27 18:32:32,301 INFO scheduler Scheduled Job Complete: frappe.utils.global_search.sync_global_search for fhts.com
2021-06-27 18:32:32,366 INFO scheduler Scheduled Job Start: frappe.integrations.doctype.razorpay_settings.razorpay_settings.capture_payment for fhts.com
2021-06-27 18:32:32,708 INFO scheduler Scheduled Job Complete: frappe.integrations.doctype.razorpay_settings.razorpay_settings.capture_payment for fhts.com
2021-06-27 18:32:32,771 INFO scheduler Scheduled Job Start: frappe.email.doctype.email_account.email_account.notify_unreplied for fhts.com
2021-06-27 18:32:33,104 INFO scheduler Scheduled Job Complete: frappe.email.doctype.email_account.email_account.notify_unreplied for fhts.com
2021-06-27 18:32:33,166 INFO scheduler Scheduled Job Start: frappe.email.doctype.email_account.email_account.pull for fhts.com
2021-06-27 18:32:33,497 INFO scheduler Scheduled Job Complete: frappe.email.doctype.email_account.email_account.pull for fhts.com
2021-06-27 18:32:33,559 INFO scheduler Scheduled Job Start: frappe.email.queue.flush for fhts.com
2021-06-27 18:32:33,856 INFO scheduler Scheduled Job Complete: frappe.email.queue.flush for fhts.com
2021-06-27 18:33:32,141 DEBUG scheduler Queued events for site fhts.com
2021-06-27 18:34:32,356 DEBUG scheduler Queued events for site fhts.com
2021-06-27 18:35:32,553 DEBUG scheduler Queued events for site fhts.com
2021-06-27 18:36:32,821 DEBUG scheduler Queued events for site fhts.com
2021-06-27 18:36:32,848 INFO scheduler Scheduled Job Start: frappe.monitor.flush for fhts.com
2021-06-27 18:36:33,295 INFO scheduler Scheduled Job Complete: frappe.monitor.flush for fhts.com
2021-06-27 18:36:33,420 INFO scheduler Scheduled Job Start: frappe.utils.global_search.sync_global_search for fhts.com
2021-06-27 18:36:33,627 INFO scheduler Scheduled Job Complete: frappe.utils.global_search.sync_global_search for fhts.com
2021-06-27 18:36:33,739 INFO scheduler Scheduled Job Start: frappe.integrations.doctype.razorpay_settings.razorpay_settings.capture_payment for fhts.com
2021-06-27 18:36:34,107 INFO scheduler Scheduled Job Complete: frappe.integrations.doctype.razorpay_settings.razorpay_settings.capture_payment for fhts.com
2021-06-27 18:36:34,171 INFO scheduler Scheduled Job Start: frappe.email.doctype.email_account.email_account.notify_unreplied for fhts.com
2021-06-27 18:36:34,521 INFO scheduler Scheduled Job Complete: frappe.email.doctype.email_account.email_account.notify_unreplied for fhts.com
2021-06-27 18:36:34,586 INFO scheduler Scheduled Job Start: frappe.email.doctype.email_account.email_account.pull for fhts.com
2021-06-27 18:36:34,881 INFO scheduler Scheduled Job Complete: frappe.email.doctype.email_account.email_account.pull for fhts.com
2021-06-27 18:36:34,950 INFO scheduler Scheduled Job Start: frappe.email.queue.flush for fhts.com
2021-06-27 18:36:35,253 INFO scheduler Scheduled Job Complete: frappe.email.queue.flush for fhts.com
2021-06-27 18:37:33,043 DEBUG scheduler Queued events for site fhts.com
2021-06-27 18:38:33,618 DEBUG scheduler Queued events for site fhts.com
2021-06-27 18:39:33,905 DEBUG scheduler Queued events for site fhts.com
2021-06-27 18:40:34,181 DEBUG scheduler Queued events for site fhts.com
2021-06-27 18:40:34,348 INFO scheduler Scheduled Job Start: frappe.monitor.flush for fhts.com
2021-06-27 18:40:34,500 INFO scheduler Scheduled Job Complete: frappe.monitor.flush for fhts.com
2021-06-27 18:40:34,563 INFO scheduler Scheduled Job Start: frappe.utils.global_search.sync_global_search for fhts.com
2021-06-27 18:40:34,722 INFO scheduler Scheduled Job Complete: frappe.utils.global_search.sync_global_search for fhts.com
2021-06-27 18:40:34,785 INFO scheduler Scheduled Job Start: frappe.integrations.doctype.razorpay_settings.razorpay_settings.capture_payment for fhts.com
2021-06-27 18:40:35,469 INFO scheduler Scheduled Job Complete: frappe.integrations.doctype.razorpay_settings.razorpay_settings.capture_payment for fhts.com
2021-06-27 18:40:35,534 INFO scheduler Scheduled Job Start: frappe.email.doctype.email_account.email_account.notify_unreplied for fhts.com
2021-06-27 18:40:36,117 INFO scheduler Scheduled Job Complete: frappe.email.doctype.email_account.email_account.notify_unreplied for fhts.com
2021-06-27 18:40:36,181 INFO scheduler Scheduled Job Start: frappe.email.doctype.email_account.email_account.pull for fhts.com
2021-06-27 18:40:36,471 INFO scheduler Scheduled Job Complete: frappe.email.doctype.email_account.email_account.pull for fhts.com
2021-06-27 18:40:36,535 INFO scheduler Scheduled Job Start: frappe.email.queue.flush for fhts.com
2021-06-27 18:40:36,904 INFO scheduler Scheduled Job Complete: frappe.email.queue.flush for fhts.com
2021-06-27 18:41:34,455 DEBUG scheduler Queued events for site fhts.com
2021-06-27 18:42:34,675 DEBUG scheduler Queued events for site fhts.com
2021-06-27 18:43:34,904 DEBUG scheduler Queued events for site fhts.com
2021-06-27 18:44:35,151 DEBUG scheduler Queued events for site fhts.com
2021-06-27 18:44:35,233 INFO scheduler Scheduled Job Start: frappe.monitor.flush for fhts.com
2021-06-27 18:44:35,385 INFO scheduler Scheduled Job Complete: frappe.monitor.flush for fhts.com
2021-06-27 18:44:35,449 INFO scheduler Scheduled Job Start: frappe.utils.global_search.sync_global_search for fhts.com
2021-06-27 18:44:35,595 INFO scheduler Scheduled Job Complete: frappe.utils.global_search.sync_global_search for fhts.com
2021-06-27 18:44:35,660 INFO scheduler Scheduled Job Start: frappe.integrations.doctype.razorpay_settings.razorpay_settings.capture_payment for fhts.com
2021-06-27 18:44:36,025 INFO scheduler Scheduled Job Complete: frappe.integrations.doctype.razorpay_settings.razorpay_settings.capture_payment for fhts.com
2021-06-27 18:44:36,091 INFO scheduler Scheduled Job Start: frappe.email.doctype.email_account.email_account.notify_unreplied for fhts.com
2021-06-27 18:44:36,444 INFO scheduler Scheduled Job Complete: frappe.email.doctype.email_account.email_account.notify_unreplied for fhts.com
2021-06-27 18:44:36,515 INFO scheduler Scheduled Job Start: frappe.email.doctype.email_account.email_account.pull for fhts.com
2021-06-27 18:44:36,843 INFO scheduler Scheduled Job Complete: frappe.email.doctype.email_account.email_account.pull for fhts.com
2021-06-27 18:44:36,908 INFO scheduler Scheduled Job Start: frappe.email.queue.flush for fhts.com
2021-06-27 18:44:37,152 INFO scheduler Scheduled Job Complete: frappe.email.queue.flush for fhts.com
2021-06-27 18:45:35,386 DEBUG scheduler Queued events for site fhts.com
2021-06-27 18:45:35,434 INFO scheduler Scheduled Job Start: frappe.twofactor.delete_all_barcodes_for_users for fhts.com
2021-06-27 18:45:35,946 INFO scheduler Scheduled Job Complete: frappe.twofactor.delete_all_barcodes_for_users for fhts.com
2021-06-27 18:45:36,189 INFO scheduler Scheduled Job Start: frappe.website.doctype.web_page.web_page.check_publish_status for fhts.com
2021-06-27 18:45:36,981 INFO scheduler Scheduled Job Complete: frappe.website.doctype.web_page.web_page.check_publish_status for fhts.com
2021-06-27 18:45:37,112 INFO scheduler Scheduled Job Start: frappe.oauth.delete_oauth2_data for fhts.com
2021-06-27 18:45:37,639 INFO scheduler Scheduled Job Complete: frappe.oauth.delete_oauth2_data for fhts.com
2021-06-27 18:46:35,608 DEBUG scheduler Queued events for site fhts.com
2021-06-27 18:47:35,890 DEBUG scheduler Queued events for site fhts.com
2021-06-27 18:48:36,097 DEBUG scheduler Queued events for site fhts.com
2021-06-27 18:48:36,130 INFO scheduler Scheduled Job Start: frappe.monitor.flush for fhts.com
2021-06-27 18:48:36,313 INFO scheduler Scheduled Job Complete: frappe.monitor.flush for fhts.com
2021-06-27 18:48:36,416 INFO scheduler Scheduled Job Start: frappe.utils.global_search.sync_global_search for fhts.com
2021-06-27 18:48:36,568 INFO scheduler Scheduled Job Complete: frappe.utils.global_search.sync_global_search for fhts.com
2021-06-27 18:48:36,635 INFO scheduler Scheduled Job Start: frappe.integrations.doctype.razorpay_settings.razorpay_settings.capture_payment for fhts.com
2021-06-27 18:48:36,981 INFO scheduler Scheduled Job Complete: frappe.integrations.doctype.razorpay_settings.razorpay_settings.capture_payment for fhts.com
2021-06-27 18:48:37,045 INFO scheduler Scheduled Job Start: frappe.email.doctype.email_account.email_account.notify_unreplied for fhts.com
2021-06-27 18:48:37,371 INFO scheduler Scheduled Job Complete: frappe.email.doctype.email_account.email_account.notify_unreplied for fhts.com
2021-06-27 18:48:37,437 INFO scheduler Scheduled Job Start: frappe.email.doctype.email_account.email_account.pull for fhts.com
2021-06-27 18:48:37,727 INFO scheduler Scheduled Job Complete: frappe.email.doctype.email_account.email_account.pull for fhts.com
2021-06-27 18:48:37,796 INFO scheduler Scheduled Job Start: frappe.email.queue.flush for fhts.com
2021-06-27 18:48:38,150 INFO scheduler Scheduled Job Complete: frappe.email.queue.flush for fhts.com
2021-06-27 18:49:36,308 DEBUG scheduler Queued events for site fhts.com
2021-06-27 18:50:36,540 DEBUG scheduler Queued events for site fhts.com
2021-06-27 18:51:36,749 DEBUG scheduler Queued events for site fhts.com
2021-06-27 18:52:37,358 DEBUG scheduler Queued events for site fhts.com
2021-06-27 18:52:45,859 INFO scheduler Scheduled Job Start: frappe.monitor.flush for fhts.com
2021-06-27 18:52:49,942 INFO scheduler Scheduled Job Complete: frappe.monitor.flush for fhts.com
2021-06-27 18:52:50,127 INFO scheduler Scheduled Job Start: frappe.utils.global_search.sync_global_search for fhts.com
2021-06-27 18:52:50,463 INFO scheduler Scheduled Job Complete: frappe.utils.global_search.sync_global_search for fhts.com
2021-06-27 18:52:50,604 INFO scheduler Scheduled Job Start: frappe.integrations.doctype.razorpay_settings.razorpay_settings.capture_payment for fhts.com
2021-06-27 18:52:54,911 INFO scheduler Scheduled Job Complete: frappe.integrations.doctype.razorpay_settings.razorpay_settings.capture_payment for fhts.com
2021-06-27 18:52:55,007 INFO scheduler Scheduled Job Start: frappe.email.doctype.email_account.email_account.notify_unreplied for fhts.com
2021-06-27 18:52:55,873 INFO scheduler Scheduled Job Complete: frappe.email.doctype.email_account.email_account.notify_unreplied for fhts.com
2021-06-27 18:52:55,940 INFO scheduler Scheduled Job Start: frappe.email.doctype.email_account.email_account.pull for fhts.com
2021-06-27 18:52:56,307 INFO scheduler Scheduled Job Complete: frappe.email.doctype.email_account.email_account.pull for fhts.com
2021-06-27 18:52:56,384 INFO scheduler Scheduled Job Start: frappe.email.queue.flush for fhts.com
2021-06-27 18:52:56,682 INFO scheduler Scheduled Job Complete: frappe.email.queue.flush for fhts.com
2021-06-27 18:53:37,557 DEBUG scheduler Queued events for site fhts.com
2021-06-27 18:54:37,754 DEBUG scheduler Queued events for site fhts.com
2021-06-27 18:55:38,111 DEBUG scheduler Queued events for site fhts.com
2021-06-27 18:56:38,437 DEBUG scheduler Queued events for site fhts.com
2021-06-27 18:56:39,011 INFO scheduler Scheduled Job Start: frappe.monitor.flush for fhts.com
2021-06-27 18:56:39,791 INFO scheduler Scheduled Job Complete: frappe.monitor.flush for fhts.com
2021-06-27 18:56:39,920 INFO scheduler Scheduled Job Start: frappe.utils.global_search.sync_global_search for fhts.com
2021-06-27 18:56:40,128 INFO scheduler Scheduled Job Complete: frappe.utils.global_search.sync_global_search for fhts.com
2021-06-27 18:56:40,219 INFO scheduler Scheduled Job Start: frappe.integrations.doctype.razorpay_settings.razorpay_settings.capture_payment for fhts.com
2021-06-27 18:56:40,867 INFO scheduler Scheduled Job Complete: frappe.integrations.doctype.razorpay_settings.razorpay_settings.capture_payment for fhts.com
2021-06-27 18:56:40,943 INFO scheduler Scheduled Job Start: frappe.email.doctype.email_account.email_account.notify_unreplied for fhts.com
2021-06-27 18:56:41,283 INFO scheduler Scheduled Job Complete: frappe.email.doctype.email_account.email_account.notify_unreplied for fhts.com
2021-06-27 18:56:41,359 INFO scheduler Scheduled Job Start: frappe.email.doctype.email_account.email_account.pull for fhts.com
2021-06-27 18:56:41,717 INFO scheduler Scheduled Job Complete: frappe.email.doctype.email_account.email_account.pull for fhts.com
2021-06-27 18:56:41,835 INFO scheduler Scheduled Job Start: frappe.email.queue.flush for fhts.com
2021-06-27 18:56:42,100 INFO scheduler Scheduled Job Complete: frappe.email.queue.flush for fhts.com
2021-06-27 18:57:38,667 DEBUG scheduler Queued events for site fhts.com
2021-06-27 18:58:38,848 DEBUG scheduler Queued events for site fhts.com
2021-06-27 18:59:39,096 DEBUG scheduler Queued events for site fhts.com
2021-06-27 19:00:39,340 INFO scheduler Scheduled Job Start: frappe.email.doctype.newsletter.newsletter.send_scheduled_email for fhts.com
2021-06-27 19:00:39,467 DEBUG scheduler Queued events for site fhts.com
2021-06-27 19:00:41,703 INFO scheduler Scheduled Job Complete: frappe.email.doctype.newsletter.newsletter.send_scheduled_email for fhts.com
2021-06-27 19:00:41,886 INFO scheduler Scheduled Job Start: frappe.integrations.doctype.google_calendar.google_calendar.sync for fhts.com
2021-06-27 19:00:43,026 INFO scheduler Scheduled Job Complete: frappe.integrations.doctype.google_calendar.google_calendar.sync for fhts.com
2021-06-27 19:00:43,144 INFO scheduler Scheduled Job Start: frappe.desk.form.document_follow.send_hourly_updates for fhts.com
2021-06-27 19:00:43,507 INFO scheduler Scheduled Job Complete: frappe.desk.form.document_follow.send_hourly_updates for fhts.com
2021-06-27 19:00:43,618 INFO scheduler Scheduled Job Start: frappe.deferred_insert.save_to_db for fhts.com
2021-06-27 19:00:44,485 INFO scheduler Scheduled Job Complete: frappe.deferred_insert.save_to_db for fhts.com
2021-06-27 19:00:44,646 INFO scheduler Scheduled Job Start: frappe.desk.page.backups.backups.delete_downloadable_backups for fhts.com
2021-06-27 19:00:45,208 INFO scheduler Scheduled Job Complete: frappe.desk.page.backups.backups.delete_downloadable_backups for fhts.com
2021-06-27 19:00:45,323 INFO scheduler Scheduled Job Start: frappe.utils.error.collect_error_snapshots for fhts.com
2021-06-27 19:00:46,179 INFO scheduler Scheduled Job Complete: frappe.utils.error.collect_error_snapshots for fhts.com
2021-06-27 19:00:46,316 INFO scheduler Scheduled Job Start: frappe.model.utils.user_settings.sync_user_settings for fhts.com
2021-06-27 19:00:46,800 INFO scheduler Scheduled Job Complete: frappe.model.utils.user_settings.sync_user_settings for fhts.com
2021-06-27 19:00:46,938 INFO scheduler Scheduled Job Start: frappe.model.utils.link_count.update_link_count for fhts.com
2021-06-27 19:00:47,377 INFO scheduler Scheduled Job Complete: frappe.model.utils.link_count.update_link_count for fhts.com
2021-06-27 19:00:47,504 INFO scheduler Scheduled Job Start: frappe.monitor.flush for fhts.com
2021-06-27 19:00:47,676 INFO scheduler Scheduled Job Complete: frappe.monitor.flush for fhts.com
2021-06-27 19:00:47,749 INFO scheduler Scheduled Job Start: frappe.utils.global_search.sync_global_search for fhts.com
2021-06-27 19:00:47,911 INFO scheduler Scheduled Job Complete: frappe.utils.global_search.sync_global_search for fhts.com
2021-06-27 19:00:48,004 INFO scheduler Scheduled Job Start: frappe.integrations.doctype.razorpay_settings.razorpay_settings.capture_payment for fhts.com
2021-06-27 19:00:48,454 INFO scheduler Scheduled Job Complete: frappe.integrations.doctype.razorpay_settings.razorpay_settings.capture_payment for fhts.com
2021-06-27 19:00:48,524 INFO scheduler Scheduled Job Start: frappe.email.doctype.email_account.email_account.notify_unreplied for fhts.com
2021-06-27 19:00:48,799 INFO scheduler Scheduled Job Complete: frappe.email.doctype.email_account.email_account.notify_unreplied for fhts.com
2021-06-27 19:00:48,869 INFO scheduler Scheduled Job Start: frappe.email.doctype.email_account.email_account.pull for fhts.com
2021-06-27 19:00:49,166 INFO scheduler Scheduled Job Complete: frappe.email.doctype.email_account.email_account.pull for fhts.com
2021-06-27 19:00:49,232 INFO scheduler Scheduled Job Start: frappe.email.queue.flush for fhts.com
2021-06-27 19:00:49,545 INFO scheduler Scheduled Job Complete: frappe.email.queue.flush for fhts.com
2021-06-27 19:00:49,611 INFO scheduler Scheduled Job Start: frappe.twofactor.delete_all_barcodes_for_users for fhts.com
2021-06-27 19:00:50,185 INFO scheduler Scheduled Job Complete: frappe.twofactor.delete_all_barcodes_for_users for fhts.com
2021-06-27 19:00:50,291 INFO scheduler Scheduled Job Start: frappe.website.doctype.web_page.web_page.check_publish_status for fhts.com
2021-06-27 19:00:50,921 INFO scheduler Scheduled Job Complete: frappe.website.doctype.web_page.web_page.check_publish_status for fhts.com
2021-06-27 19:00:51,031 INFO scheduler Scheduled Job Start: frappe.oauth.delete_oauth2_data for fhts.com
2021-06-27 19:00:51,558 INFO scheduler Scheduled Job Complete: frappe.oauth.delete_oauth2_data for fhts.com
2021-06-27 19:01:39,844 DEBUG scheduler Queued events for site fhts.com
2021-06-27 19:02:40,121 DEBUG scheduler Queued events for site fhts.com
2021-06-27 19:03:40,336 DEBUG scheduler Queued events for site fhts.com
2021-06-27 19:04:40,586 DEBUG scheduler Queued events for site fhts.com
2021-06-27 19:04:40,611 INFO scheduler Scheduled Job Start: frappe.monitor.flush for fhts.com
2021-06-27 19:05:40,822 DEBUG scheduler Queued events for site fhts.com
