2021-07-01 15:02:59,741 INFO scheduler Scheduled Job Complete: frappe.email.doctype.auto_email_report.auto_email_report.send_daily for fhts.com
2021-07-01 15:03:00,053 INFO scheduler Scheduled Job Start: frappe.utils.scheduler.restrict_scheduler_events_if_dormant for fhts.com
2021-07-01 15:03:00,485 INFO scheduler Scheduled Job Failed: frappe.utils.scheduler.restrict_scheduler_events_if_dormant for fhts.com
2021-07-01 15:03:00,635 INFO scheduler Scheduled Job Start: frappe.realtime.remove_old_task_logs for fhts.com
2021-07-01 15:03:01,114 INFO scheduler Scheduled Job Complete: frappe.realtime.remove_old_task_logs for fhts.com
2021-07-01 15:03:01,211 INFO scheduler Scheduled Job Start: frappe.email.doctype.notification.notification.trigger_daily_alerts for fhts.com
2021-07-01 15:03:01,590 INFO scheduler Scheduled Job Complete: frappe.email.doctype.notification.notification.trigger_daily_alerts for fhts.com
2021-07-01 15:03:01,678 INFO scheduler Scheduled Job Start: frappe.sessions.clear_expired_sessions for fhts.com
2021-07-01 15:03:02,148 INFO scheduler Scheduled Job Complete: frappe.sessions.clear_expired_sessions for fhts.com
2021-07-01 15:03:02,297 INFO scheduler Scheduled Job Start: frappe.desk.doctype.event.event.send_event_digest for fhts.com
2021-07-01 15:03:03,060 INFO scheduler Scheduled Job Complete: frappe.desk.doctype.event.event.send_event_digest for fhts.com
2021-07-01 15:03:03,277 INFO scheduler Scheduled Job Start: frappe.core.doctype.error_log.error_log.set_old_logs_as_seen for fhts.com
2021-07-01 15:03:03,784 INFO scheduler Scheduled Job Complete: frappe.core.doctype.error_log.error_log.set_old_logs_as_seen for fhts.com
2021-07-01 15:03:03,939 INFO scheduler Scheduled Job Start: frappe.desk.notifications.clear_notifications for fhts.com
2021-07-01 15:03:04,316 INFO scheduler Scheduled Job Complete: frappe.desk.notifications.clear_notifications for fhts.com
2021-07-01 15:03:04,538 INFO scheduler Scheduled Job Start: frappe.email.queue.set_expiry_for_email_queue for fhts.com
2021-07-01 15:03:05,230 INFO scheduler Scheduled Job Complete: frappe.email.queue.set_expiry_for_email_queue for fhts.com
2021-07-01 15:03:07,131 INFO scheduler Scheduled Job Start: frappe.email.doctype.newsletter.newsletter.send_scheduled_email for fhts.com
2021-07-01 15:03:12,798 INFO scheduler Scheduled Job Complete: frappe.email.doctype.newsletter.newsletter.send_scheduled_email for fhts.com
2021-07-01 15:03:12,989 INFO scheduler Scheduled Job Start: frappe.integrations.doctype.google_calendar.google_calendar.sync for fhts.com
2021-07-01 15:03:14,581 INFO scheduler Scheduled Job Complete: frappe.integrations.doctype.google_calendar.google_calendar.sync for fhts.com
2021-07-01 15:03:14,699 INFO scheduler Scheduled Job Start: frappe.desk.form.document_follow.send_hourly_updates for fhts.com
2021-07-01 15:03:15,155 INFO scheduler Scheduled Job Complete: frappe.desk.form.document_follow.send_hourly_updates for fhts.com
2021-07-01 15:03:15,433 INFO scheduler Scheduled Job Start: frappe.deferred_insert.save_to_db for fhts.com
2021-07-01 15:03:16,044 INFO scheduler Scheduled Job Complete: frappe.deferred_insert.save_to_db for fhts.com
2021-07-01 15:03:16,153 INFO scheduler Scheduled Job Start: frappe.desk.page.backups.backups.delete_downloadable_backups for fhts.com
2021-07-01 15:03:17,891 INFO scheduler Scheduled Job Complete: frappe.desk.page.backups.backups.delete_downloadable_backups for fhts.com
2021-07-01 15:03:18,075 INFO scheduler Scheduled Job Start: frappe.utils.error.collect_error_snapshots for fhts.com
2021-07-01 15:03:18,697 INFO scheduler Scheduled Job Complete: frappe.utils.error.collect_error_snapshots for fhts.com
2021-07-01 15:03:18,860 INFO scheduler Scheduled Job Start: frappe.model.utils.user_settings.sync_user_settings for fhts.com
2021-07-01 15:03:19,292 INFO scheduler Scheduled Job Complete: frappe.model.utils.user_settings.sync_user_settings for fhts.com
2021-07-01 15:03:19,492 INFO scheduler Scheduled Job Start: frappe.model.utils.link_count.update_link_count for fhts.com
2021-07-01 15:03:19,909 INFO scheduler Scheduled Job Complete: frappe.model.utils.link_count.update_link_count for fhts.com
2021-07-01 15:03:20,031 INFO scheduler Scheduled Job Start: frappe.monitor.flush for fhts.com
2021-07-01 15:03:20,173 INFO scheduler Scheduled Job Complete: frappe.monitor.flush for fhts.com
2021-07-01 15:03:20,236 INFO scheduler Scheduled Job Start: frappe.utils.global_search.sync_global_search for fhts.com
2021-07-01 15:03:20,847 INFO scheduler Scheduled Job Complete: frappe.utils.global_search.sync_global_search for fhts.com
2021-07-01 15:03:20,989 INFO scheduler Scheduled Job Start: frappe.integrations.doctype.razorpay_settings.razorpay_settings.capture_payment for fhts.com
2021-07-01 15:03:21,978 INFO scheduler Scheduled Job Complete: frappe.integrations.doctype.razorpay_settings.razorpay_settings.capture_payment for fhts.com
2021-07-01 15:03:22,055 INFO scheduler Scheduled Job Start: frappe.email.doctype.email_account.email_account.notify_unreplied for fhts.com
2021-07-01 15:03:25,223 INFO scheduler Scheduled Job Complete: frappe.email.doctype.email_account.email_account.notify_unreplied for fhts.com
2021-07-01 15:03:25,289 INFO scheduler Scheduled Job Start: frappe.email.doctype.email_account.email_account.pull for fhts.com
2021-07-01 15:03:25,801 INFO scheduler Scheduled Job Complete: frappe.email.doctype.email_account.email_account.pull for fhts.com
2021-07-01 15:03:25,864 INFO scheduler Scheduled Job Start: frappe.email.queue.flush for fhts.com
2021-07-01 15:03:26,536 INFO scheduler Scheduled Job Complete: frappe.email.queue.flush for fhts.com
2021-07-01 15:03:26,610 INFO scheduler Scheduled Job Start: frappe.twofactor.delete_all_barcodes_for_users for fhts.com
2021-07-01 15:03:28,485 INFO scheduler Scheduled Job Complete: frappe.twofactor.delete_all_barcodes_for_users for fhts.com
2021-07-01 15:03:28,673 INFO scheduler Scheduled Job Start: frappe.website.doctype.web_page.web_page.check_publish_status for fhts.com
2021-07-01 15:03:29,301 INFO scheduler Scheduled Job Complete: frappe.website.doctype.web_page.web_page.check_publish_status for fhts.com
2021-07-01 15:03:29,397 INFO scheduler Scheduled Job Start: frappe.oauth.delete_oauth2_data for fhts.com
2021-07-01 15:03:29,908 INFO scheduler Scheduled Job Complete: frappe.oauth.delete_oauth2_data for fhts.com
2021-07-01 15:04:11,616 INFO scheduler Scheduled Job Start: frappe.monitor.flush for fhts.com
2021-07-01 15:04:11,822 INFO scheduler Scheduled Job Complete: frappe.monitor.flush for fhts.com
