2021-06-12 15:14:48,170 DEBUG scheduler Queued events for site fhts.com
2021-06-12 15:15:48,411 DEBUG scheduler Queued events for site fhts.com
2021-06-12 15:15:48,458 INFO scheduler Scheduled Job Start: frappe.twofactor.delete_all_barcodes_for_users for fhts.com
2021-06-12 15:15:49,434 INFO scheduler Scheduled Job Complete: frappe.twofactor.delete_all_barcodes_for_users for fhts.com
2021-06-12 15:15:49,525 INFO scheduler Scheduled Job Start: frappe.website.doctype.web_page.web_page.check_publish_status for fhts.com
2021-06-12 15:15:50,120 INFO scheduler Scheduled Job Complete: frappe.website.doctype.web_page.web_page.check_publish_status for fhts.com
2021-06-12 15:15:50,212 INFO scheduler Scheduled Job Start: frappe.oauth.delete_oauth2_data for fhts.com
2021-06-12 15:15:51,064 INFO scheduler Scheduled Job Complete: frappe.oauth.delete_oauth2_data for fhts.com
2021-06-12 15:16:48,636 DEBUG scheduler Queued events for site fhts.com
2021-06-12 15:16:48,665 INFO scheduler Scheduled Job Start: frappe.monitor.flush for fhts.com
2021-06-12 15:16:48,834 INFO scheduler Scheduled Job Complete: frappe.monitor.flush for fhts.com
2021-06-12 15:16:48,903 INFO scheduler Scheduled Job Start: frappe.utils.global_search.sync_global_search for fhts.com
2021-06-12 15:16:49,080 INFO scheduler Scheduled Job Complete: frappe.utils.global_search.sync_global_search for fhts.com
2021-06-12 15:16:49,191 INFO scheduler Scheduled Job Start: frappe.integrations.doctype.razorpay_settings.razorpay_settings.capture_payment for fhts.com
2021-06-12 15:16:49,529 INFO scheduler Scheduled Job Complete: frappe.integrations.doctype.razorpay_settings.razorpay_settings.capture_payment for fhts.com
2021-06-12 15:16:49,589 INFO scheduler Scheduled Job Start: frappe.email.doctype.email_account.email_account.notify_unreplied for fhts.com
2021-06-12 15:16:49,923 INFO scheduler Scheduled Job Complete: frappe.email.doctype.email_account.email_account.notify_unreplied for fhts.com
2021-06-12 15:16:49,984 INFO scheduler Scheduled Job Start: frappe.email.doctype.email_account.email_account.pull for fhts.com
2021-06-12 15:16:50,264 INFO scheduler Scheduled Job Complete: frappe.email.doctype.email_account.email_account.pull for fhts.com
2021-06-12 15:16:50,325 INFO scheduler Scheduled Job Start: frappe.email.queue.flush for fhts.com
2021-06-12 15:16:50,652 INFO scheduler Scheduled Job Complete: frappe.email.queue.flush for fhts.com
2021-06-12 15:17:48,861 DEBUG scheduler Queued events for site fhts.com
2021-06-12 15:18:49,058 DEBUG scheduler Queued events for site fhts.com
2021-06-12 15:19:49,285 DEBUG scheduler Queued events for site fhts.com
2021-06-12 15:20:49,535 DEBUG scheduler Queued events for site fhts.com
2021-06-12 15:20:49,563 INFO scheduler Scheduled Job Start: frappe.monitor.flush for fhts.com
2021-06-12 15:20:50,006 INFO scheduler Scheduled Job Complete: frappe.monitor.flush for fhts.com
2021-06-12 15:20:50,122 INFO scheduler Scheduled Job Start: frappe.utils.global_search.sync_global_search for fhts.com
2021-06-12 15:20:50,270 INFO scheduler Scheduled Job Complete: frappe.utils.global_search.sync_global_search for fhts.com
2021-06-12 15:20:50,334 INFO scheduler Scheduled Job Start: frappe.integrations.doctype.razorpay_settings.razorpay_settings.capture_payment for fhts.com
2021-06-12 15:20:50,670 INFO scheduler Scheduled Job Complete: frappe.integrations.doctype.razorpay_settings.razorpay_settings.capture_payment for fhts.com
2021-06-12 15:20:50,732 INFO scheduler Scheduled Job Start: frappe.email.doctype.email_account.email_account.notify_unreplied for fhts.com
2021-06-12 15:20:51,004 INFO scheduler Scheduled Job Complete: frappe.email.doctype.email_account.email_account.notify_unreplied for fhts.com
2021-06-12 15:20:51,065 INFO scheduler Scheduled Job Start: frappe.email.doctype.email_account.email_account.pull for fhts.com
2021-06-12 15:20:51,446 INFO scheduler Scheduled Job Complete: frappe.email.doctype.email_account.email_account.pull for fhts.com
2021-06-12 15:20:51,508 INFO scheduler Scheduled Job Start: frappe.email.queue.flush for fhts.com
2021-06-12 15:20:51,831 INFO scheduler Scheduled Job Complete: frappe.email.queue.flush for fhts.com
2021-06-12 15:21:49,762 DEBUG scheduler Queued events for site fhts.com
2021-06-12 15:22:49,942 DEBUG scheduler Queued events for site fhts.com
2021-06-12 15:23:50,128 DEBUG scheduler Queued events for site fhts.com
2021-06-12 15:24:50,339 DEBUG scheduler Queued events for site fhts.com
2021-06-12 15:24:50,368 INFO scheduler Scheduled Job Start: frappe.monitor.flush for fhts.com
2021-06-12 15:24:50,799 INFO scheduler Scheduled Job Complete: frappe.monitor.flush for fhts.com
2021-06-12 15:24:50,908 INFO scheduler Scheduled Job Start: frappe.utils.global_search.sync_global_search for fhts.com
2021-06-12 15:24:51,052 INFO scheduler Scheduled Job Complete: frappe.utils.global_search.sync_global_search for fhts.com
2021-06-12 15:24:51,112 INFO scheduler Scheduled Job Start: frappe.integrations.doctype.razorpay_settings.razorpay_settings.capture_payment for fhts.com
2021-06-12 15:24:51,434 INFO scheduler Scheduled Job Complete: frappe.integrations.doctype.razorpay_settings.razorpay_settings.capture_payment for fhts.com
2021-06-12 15:24:51,496 INFO scheduler Scheduled Job Start: frappe.email.doctype.email_account.email_account.notify_unreplied for fhts.com
2021-06-12 15:24:51,874 INFO scheduler Scheduled Job Complete: frappe.email.doctype.email_account.email_account.notify_unreplied for fhts.com
2021-06-12 15:24:51,936 INFO scheduler Scheduled Job Start: frappe.email.doctype.email_account.email_account.pull for fhts.com
2021-06-12 15:24:52,231 INFO scheduler Scheduled Job Complete: frappe.email.doctype.email_account.email_account.pull for fhts.com
2021-06-12 15:24:52,293 INFO scheduler Scheduled Job Start: frappe.email.queue.flush for fhts.com
2021-06-12 15:24:52,604 INFO scheduler Scheduled Job Complete: frappe.email.queue.flush for fhts.com
2021-06-12 15:25:50,558 DEBUG scheduler Queued events for site fhts.com
2021-06-12 15:26:50,749 DEBUG scheduler Queued events for site fhts.com
2021-06-12 15:27:50,971 DEBUG scheduler Queued events for site fhts.com
2021-06-12 15:28:51,217 DEBUG scheduler Queued events for site fhts.com
2021-06-12 15:28:51,244 INFO scheduler Scheduled Job Start: frappe.monitor.flush for fhts.com
2021-06-12 15:28:51,423 INFO scheduler Scheduled Job Complete: frappe.monitor.flush for fhts.com
2021-06-12 15:28:51,533 INFO scheduler Scheduled Job Start: frappe.utils.global_search.sync_global_search for fhts.com
2021-06-12 15:28:51,665 INFO scheduler Scheduled Job Complete: frappe.utils.global_search.sync_global_search for fhts.com
2021-06-12 15:28:51,741 INFO scheduler Scheduled Job Start: frappe.integrations.doctype.razorpay_settings.razorpay_settings.capture_payment for fhts.com
2021-06-12 15:28:52,058 INFO scheduler Scheduled Job Complete: frappe.integrations.doctype.razorpay_settings.razorpay_settings.capture_payment for fhts.com
2021-06-12 15:28:52,119 INFO scheduler Scheduled Job Start: frappe.email.doctype.email_account.email_account.notify_unreplied for fhts.com
2021-06-12 15:28:52,421 INFO scheduler Scheduled Job Complete: frappe.email.doctype.email_account.email_account.notify_unreplied for fhts.com
2021-06-12 15:28:52,484 INFO scheduler Scheduled Job Start: frappe.email.doctype.email_account.email_account.pull for fhts.com
2021-06-12 15:28:52,751 INFO scheduler Scheduled Job Complete: frappe.email.doctype.email_account.email_account.pull for fhts.com
2021-06-12 15:28:52,812 INFO scheduler Scheduled Job Start: frappe.email.queue.flush for fhts.com
2021-06-12 15:28:53,140 INFO scheduler Scheduled Job Complete: frappe.email.queue.flush for fhts.com
2021-06-12 15:39:59,021 DEBUG scheduler Queued events for site fhts.com
2021-06-12 15:39:59,129 INFO scheduler Scheduled Job Start: frappe.monitor.flush for fhts.com
2021-06-12 15:39:59,572 INFO scheduler Scheduled Job Complete: frappe.monitor.flush for fhts.com
2021-06-12 15:39:59,659 INFO scheduler Scheduled Job Start: frappe.utils.global_search.sync_global_search for fhts.com
2021-06-12 15:39:59,928 INFO scheduler Scheduled Job Complete: frappe.utils.global_search.sync_global_search for fhts.com
2021-06-12 15:40:00,022 INFO scheduler Scheduled Job Start: frappe.integrations.doctype.razorpay_settings.razorpay_settings.capture_payment for fhts.com
2021-06-12 15:40:00,661 INFO scheduler Scheduled Job Complete: frappe.integrations.doctype.razorpay_settings.razorpay_settings.capture_payment for fhts.com
2021-06-12 15:40:00,726 INFO scheduler Scheduled Job Start: frappe.email.doctype.email_account.email_account.notify_unreplied for fhts.com
2021-06-12 15:40:01,142 INFO scheduler Scheduled Job Complete: frappe.email.doctype.email_account.email_account.notify_unreplied for fhts.com
2021-06-12 15:40:01,205 INFO scheduler Scheduled Job Start: frappe.email.doctype.email_account.email_account.pull for fhts.com
2021-06-12 15:40:01,519 INFO scheduler Scheduled Job Complete: frappe.email.doctype.email_account.email_account.pull for fhts.com
2021-06-12 15:40:01,580 INFO scheduler Scheduled Job Start: frappe.email.queue.flush for fhts.com
2021-06-12 15:40:01,849 INFO scheduler Scheduled Job Complete: frappe.email.queue.flush for fhts.com
2021-06-12 15:40:01,912 INFO scheduler Scheduled Job Start: frappe.twofactor.delete_all_barcodes_for_users for fhts.com
2021-06-12 15:40:02,372 INFO scheduler Scheduled Job Complete: frappe.twofactor.delete_all_barcodes_for_users for fhts.com
2021-06-12 15:40:02,496 INFO scheduler Scheduled Job Start: frappe.website.doctype.web_page.web_page.check_publish_status for fhts.com
2021-06-12 15:40:02,954 INFO scheduler Scheduled Job Complete: frappe.website.doctype.web_page.web_page.check_publish_status for fhts.com
2021-06-12 15:40:03,165 INFO scheduler Scheduled Job Start: frappe.oauth.delete_oauth2_data for fhts.com
2021-06-12 15:40:04,121 INFO scheduler Scheduled Job Complete: frappe.oauth.delete_oauth2_data for fhts.com
2021-06-12 15:41:00,113 DEBUG scheduler Queued events for site fhts.com
2021-06-12 15:41:00,291 INFO scheduler Scheduled Job Start: frappe.monitor.flush for fhts.com
2021-06-12 15:41:05,971 INFO scheduler Scheduled Job Complete: frappe.monitor.flush for fhts.com
2021-06-12 15:41:06,051 INFO scheduler Scheduled Job Start: frappe.utils.global_search.sync_global_search for fhts.com
2021-06-12 15:41:06,340 INFO scheduler Scheduled Job Complete: frappe.utils.global_search.sync_global_search for fhts.com
2021-06-12 15:42:00,571 DEBUG scheduler Queued events for site fhts.com
2021-06-12 15:43:00,803 DEBUG scheduler Queued events for site fhts.com
2021-06-12 15:44:01,046 DEBUG scheduler Queued events for site fhts.com
2021-06-12 15:44:02,121 INFO scheduler Scheduled Job Start: frappe.monitor.flush for fhts.com
2021-06-12 15:44:06,172 INFO scheduler Scheduled Job Complete: frappe.monitor.flush for fhts.com
2021-06-12 15:44:07,077 INFO scheduler Scheduled Job Start: frappe.utils.global_search.sync_global_search for fhts.com
2021-06-12 15:44:07,313 INFO scheduler Scheduled Job Complete: frappe.utils.global_search.sync_global_search for fhts.com
2021-06-12 15:44:07,393 INFO scheduler Scheduled Job Start: frappe.integrations.doctype.razorpay_settings.razorpay_settings.capture_payment for fhts.com
2021-06-12 15:44:11,272 INFO scheduler Scheduled Job Complete: frappe.integrations.doctype.razorpay_settings.razorpay_settings.capture_payment for fhts.com
2021-06-12 15:44:11,431 INFO scheduler Scheduled Job Start: frappe.email.doctype.email_account.email_account.notify_unreplied for fhts.com
2021-06-12 15:44:12,571 INFO scheduler Scheduled Job Complete: frappe.email.doctype.email_account.email_account.notify_unreplied for fhts.com
2021-06-12 15:44:12,715 INFO scheduler Scheduled Job Start: frappe.email.doctype.email_account.email_account.pull for fhts.com
2021-06-12 15:44:13,380 INFO scheduler Scheduled Job Complete: frappe.email.doctype.email_account.email_account.pull for fhts.com
2021-06-12 15:44:13,472 INFO scheduler Scheduled Job Start: frappe.email.queue.flush for fhts.com
2021-06-12 15:44:13,865 INFO scheduler Scheduled Job Complete: frappe.email.queue.flush for fhts.com
2021-06-12 15:45:01,339 DEBUG scheduler Queued events for site fhts.com
2021-06-12 15:45:01,398 INFO scheduler Scheduled Job Start: frappe.twofactor.delete_all_barcodes_for_users for fhts.com
2021-06-12 15:45:04,409 INFO scheduler Scheduled Job Complete: frappe.twofactor.delete_all_barcodes_for_users for fhts.com
2021-06-12 15:45:04,864 INFO scheduler Scheduled Job Start: frappe.website.doctype.web_page.web_page.check_publish_status for fhts.com
2021-06-12 15:45:08,789 INFO scheduler Scheduled Job Complete: frappe.website.doctype.web_page.web_page.check_publish_status for fhts.com
2021-06-12 15:45:10,219 INFO scheduler Scheduled Job Start: frappe.oauth.delete_oauth2_data for fhts.com
2021-06-12 15:45:13,524 INFO scheduler Scheduled Job Complete: frappe.oauth.delete_oauth2_data for fhts.com
2021-06-12 15:46:01,736 DEBUG scheduler Queued events for site fhts.com
2021-06-12 15:47:03,399 DEBUG scheduler Queued events for site fhts.com
2021-06-12 15:48:03,798 DEBUG scheduler Queued events for site fhts.com
2021-06-12 15:48:15,336 INFO scheduler Scheduled Job Start: frappe.monitor.flush for fhts.com
2021-06-12 15:48:23,134 INFO scheduler Scheduled Job Complete: frappe.monitor.flush for fhts.com
2021-06-12 15:48:23,301 INFO scheduler Scheduled Job Start: frappe.utils.global_search.sync_global_search for fhts.com
2021-06-12 15:48:23,474 INFO scheduler Scheduled Job Complete: frappe.utils.global_search.sync_global_search for fhts.com
2021-06-12 15:48:23,550 INFO scheduler Scheduled Job Start: frappe.integrations.doctype.razorpay_settings.razorpay_settings.capture_payment for fhts.com
2021-06-12 15:48:29,219 INFO scheduler Scheduled Job Complete: frappe.integrations.doctype.razorpay_settings.razorpay_settings.capture_payment for fhts.com
2021-06-12 15:48:29,360 INFO scheduler Scheduled Job Start: frappe.email.doctype.email_account.email_account.notify_unreplied for fhts.com
2021-06-12 15:48:30,653 INFO scheduler Scheduled Job Complete: frappe.email.doctype.email_account.email_account.notify_unreplied for fhts.com
2021-06-12 15:48:30,724 INFO scheduler Scheduled Job Start: frappe.email.doctype.email_account.email_account.pull for fhts.com
2021-06-12 15:48:31,169 INFO scheduler Scheduled Job Complete: frappe.email.doctype.email_account.email_account.pull for fhts.com
2021-06-12 15:48:31,275 INFO scheduler Scheduled Job Start: frappe.email.queue.flush for fhts.com
2021-06-12 15:48:31,714 INFO scheduler Scheduled Job Complete: frappe.email.queue.flush for fhts.com
2021-06-12 15:49:04,080 DEBUG scheduler Queued events for site fhts.com
2021-06-12 15:50:04,459 DEBUG scheduler Queued events for site fhts.com
2021-06-12 15:51:04,873 DEBUG scheduler Queued events for site fhts.com
2021-06-12 15:52:05,597 DEBUG scheduler Queued events for site fhts.com
2021-06-12 15:52:07,073 INFO scheduler Scheduled Job Start: frappe.monitor.flush for fhts.com
2021-06-12 15:52:09,362 INFO scheduler Scheduled Job Complete: frappe.monitor.flush for fhts.com
2021-06-12 15:52:09,491 INFO scheduler Scheduled Job Start: frappe.utils.global_search.sync_global_search for fhts.com
2021-06-12 15:52:09,685 INFO scheduler Scheduled Job Complete: frappe.utils.global_search.sync_global_search for fhts.com
2021-06-12 15:52:09,788 INFO scheduler Scheduled Job Start: frappe.integrations.doctype.razorpay_settings.razorpay_settings.capture_payment for fhts.com
2021-06-12 15:52:13,145 INFO scheduler Scheduled Job Complete: frappe.integrations.doctype.razorpay_settings.razorpay_settings.capture_payment for fhts.com
2021-06-12 15:52:13,255 INFO scheduler Scheduled Job Start: frappe.email.doctype.email_account.email_account.notify_unreplied for fhts.com
2021-06-12 15:52:15,661 INFO scheduler Scheduled Job Complete: frappe.email.doctype.email_account.email_account.notify_unreplied for fhts.com
2021-06-12 15:52:15,767 INFO scheduler Scheduled Job Start: frappe.email.doctype.email_account.email_account.pull for fhts.com
2021-06-12 15:52:16,460 INFO scheduler Scheduled Job Complete: frappe.email.doctype.email_account.email_account.pull for fhts.com
2021-06-12 15:52:16,535 INFO scheduler Scheduled Job Start: frappe.email.queue.flush for fhts.com
2021-06-12 15:52:16,859 INFO scheduler Scheduled Job Complete: frappe.email.queue.flush for fhts.com
2021-06-12 15:53:05,936 DEBUG scheduler Queued events for site fhts.com
2021-06-12 15:54:06,141 DEBUG scheduler Queued events for site fhts.com
2021-06-12 15:55:06,419 DEBUG scheduler Queued events for site fhts.com
2021-06-12 15:56:06,660 INFO scheduler Scheduled Job Start: frappe.monitor.flush for fhts.com
2021-06-12 15:56:06,694 DEBUG scheduler Queued events for site fhts.com
2021-06-12 15:56:06,830 INFO scheduler Scheduled Job Complete: frappe.monitor.flush for fhts.com
2021-06-12 15:56:06,942 INFO scheduler Scheduled Job Start: frappe.utils.global_search.sync_global_search for fhts.com
2021-06-12 15:56:07,154 INFO scheduler Scheduled Job Complete: frappe.utils.global_search.sync_global_search for fhts.com
2021-06-12 15:56:07,269 INFO scheduler Scheduled Job Start: frappe.integrations.doctype.razorpay_settings.razorpay_settings.capture_payment for fhts.com
2021-06-12 15:56:07,620 INFO scheduler Scheduled Job Complete: frappe.integrations.doctype.razorpay_settings.razorpay_settings.capture_payment for fhts.com
2021-06-12 15:56:07,687 INFO scheduler Scheduled Job Start: frappe.email.doctype.email_account.email_account.notify_unreplied for fhts.com
2021-06-12 15:56:08,025 INFO scheduler Scheduled Job Complete: frappe.email.doctype.email_account.email_account.notify_unreplied for fhts.com
2021-06-12 15:56:08,090 INFO scheduler Scheduled Job Start: frappe.email.doctype.email_account.email_account.pull for fhts.com
2021-06-12 15:56:08,451 INFO scheduler Scheduled Job Complete: frappe.email.doctype.email_account.email_account.pull for fhts.com
2021-06-12 15:56:08,516 INFO scheduler Scheduled Job Start: frappe.email.queue.flush for fhts.com
2021-06-12 15:56:08,765 INFO scheduler Scheduled Job Complete: frappe.email.queue.flush for fhts.com
2021-06-12 15:57:06,971 DEBUG scheduler Queued events for site fhts.com
2021-06-12 15:58:07,437 DEBUG scheduler Queued events for site fhts.com
2021-06-12 15:59:07,818 DEBUG scheduler Queued events for site fhts.com
2021-06-12 16:00:08,331 INFO scheduler Scheduled Job Start: frappe.email.doctype.newsletter.newsletter.send_scheduled_email for fhts.com
2021-06-12 16:00:08,499 DEBUG scheduler Queued events for site fhts.com
2021-06-12 16:00:09,611 INFO scheduler Scheduled Job Complete: frappe.email.doctype.newsletter.newsletter.send_scheduled_email for fhts.com
2021-06-12 16:00:09,792 INFO scheduler Scheduled Job Start: frappe.integrations.doctype.google_calendar.google_calendar.sync for fhts.com
2021-06-12 16:00:11,178 INFO scheduler Scheduled Job Complete: frappe.integrations.doctype.google_calendar.google_calendar.sync for fhts.com
2021-06-12 16:00:11,317 INFO scheduler Scheduled Job Start: frappe.desk.form.document_follow.send_hourly_updates for fhts.com
2021-06-12 16:00:11,819 INFO scheduler Scheduled Job Complete: frappe.desk.form.document_follow.send_hourly_updates for fhts.com
2021-06-12 16:00:11,921 INFO scheduler Scheduled Job Start: frappe.deferred_insert.save_to_db for fhts.com
2021-06-12 16:00:13,665 INFO scheduler Scheduled Job Complete: frappe.deferred_insert.save_to_db for fhts.com
2021-06-12 16:00:13,857 INFO scheduler Scheduled Job Start: frappe.desk.page.backups.backups.delete_downloadable_backups for fhts.com
2021-06-12 16:00:14,386 INFO scheduler Scheduled Job Complete: frappe.desk.page.backups.backups.delete_downloadable_backups for fhts.com
2021-06-12 16:00:14,532 INFO scheduler Scheduled Job Start: frappe.utils.error.collect_error_snapshots for fhts.com
2021-06-12 16:00:15,413 INFO scheduler Scheduled Job Complete: frappe.utils.error.collect_error_snapshots for fhts.com
2021-06-12 16:00:15,607 INFO scheduler Scheduled Job Start: frappe.model.utils.user_settings.sync_user_settings for fhts.com
2021-06-12 16:00:16,052 INFO scheduler Scheduled Job Complete: frappe.model.utils.user_settings.sync_user_settings for fhts.com
2021-06-12 16:00:16,223 INFO scheduler Scheduled Job Start: frappe.model.utils.link_count.update_link_count for fhts.com
2021-06-12 16:00:16,686 INFO scheduler Scheduled Job Complete: frappe.model.utils.link_count.update_link_count for fhts.com
2021-06-12 16:00:16,845 INFO scheduler Scheduled Job Start: frappe.monitor.flush for fhts.com
2021-06-12 16:00:17,007 INFO scheduler Scheduled Job Complete: frappe.monitor.flush for fhts.com
2021-06-12 16:00:17,117 INFO scheduler Scheduled Job Start: frappe.utils.global_search.sync_global_search for fhts.com
2021-06-12 16:00:17,261 INFO scheduler Scheduled Job Complete: frappe.utils.global_search.sync_global_search for fhts.com
2021-06-12 16:00:17,343 INFO scheduler Scheduled Job Start: frappe.integrations.doctype.razorpay_settings.razorpay_settings.capture_payment for fhts.com
2021-06-12 16:00:17,748 INFO scheduler Scheduled Job Complete: frappe.integrations.doctype.razorpay_settings.razorpay_settings.capture_payment for fhts.com
2021-06-12 16:00:17,815 INFO scheduler Scheduled Job Start: frappe.email.doctype.email_account.email_account.notify_unreplied for fhts.com
2021-06-12 16:00:18,152 INFO scheduler Scheduled Job Complete: frappe.email.doctype.email_account.email_account.notify_unreplied for fhts.com
2021-06-12 16:00:18,217 INFO scheduler Scheduled Job Start: frappe.email.doctype.email_account.email_account.pull for fhts.com
2021-06-12 16:00:18,480 INFO scheduler Scheduled Job Complete: frappe.email.doctype.email_account.email_account.pull for fhts.com
2021-06-12 16:00:18,544 INFO scheduler Scheduled Job Start: frappe.email.queue.flush for fhts.com
2021-06-12 16:00:18,867 INFO scheduler Scheduled Job Complete: frappe.email.queue.flush for fhts.com
2021-06-12 16:00:18,956 INFO scheduler Scheduled Job Start: frappe.twofactor.delete_all_barcodes_for_users for fhts.com
2021-06-12 16:00:19,571 INFO scheduler Scheduled Job Complete: frappe.twofactor.delete_all_barcodes_for_users for fhts.com
2021-06-12 16:00:19,700 INFO scheduler Scheduled Job Start: frappe.website.doctype.web_page.web_page.check_publish_status for fhts.com
2021-06-12 16:00:20,450 INFO scheduler Scheduled Job Complete: frappe.website.doctype.web_page.web_page.check_publish_status for fhts.com
2021-06-12 16:00:20,542 INFO scheduler Scheduled Job Start: frappe.oauth.delete_oauth2_data for fhts.com
2021-06-12 16:00:21,460 INFO scheduler Scheduled Job Complete: frappe.oauth.delete_oauth2_data for fhts.com
2021-06-12 16:01:08,783 DEBUG scheduler Queued events for site fhts.com
2021-06-12 16:02:08,991 DEBUG scheduler Queued events for site fhts.com
2021-06-12 16:03:09,224 DEBUG scheduler Queued events for site fhts.com
2021-06-12 16:04:09,478 DEBUG scheduler Queued events for site fhts.com
2021-06-12 16:04:09,509 INFO scheduler Scheduled Job Start: frappe.monitor.flush for fhts.com
2021-06-12 16:04:09,699 INFO scheduler Scheduled Job Complete: frappe.monitor.flush for fhts.com
2021-06-12 16:04:09,772 INFO scheduler Scheduled Job Start: frappe.utils.global_search.sync_global_search for fhts.com
2021-06-12 16:04:09,956 INFO scheduler Scheduled Job Complete: frappe.utils.global_search.sync_global_search for fhts.com
2021-06-12 16:04:10,068 INFO scheduler Scheduled Job Start: frappe.integrations.doctype.razorpay_settings.razorpay_settings.capture_payment for fhts.com
2021-06-12 16:04:10,441 INFO scheduler Scheduled Job Complete: frappe.integrations.doctype.razorpay_settings.razorpay_settings.capture_payment for fhts.com
2021-06-12 16:04:10,559 INFO scheduler Scheduled Job Start: frappe.email.doctype.email_account.email_account.notify_unreplied for fhts.com
2021-06-12 16:04:10,933 INFO scheduler Scheduled Job Complete: frappe.email.doctype.email_account.email_account.notify_unreplied for fhts.com
2021-06-12 16:04:11,002 INFO scheduler Scheduled Job Start: frappe.email.doctype.email_account.email_account.pull for fhts.com
2021-06-12 16:04:11,440 INFO scheduler Scheduled Job Complete: frappe.email.doctype.email_account.email_account.pull for fhts.com
2021-06-12 16:04:11,558 INFO scheduler Scheduled Job Start: frappe.email.queue.flush for fhts.com
2021-06-12 16:04:11,916 INFO scheduler Scheduled Job Complete: frappe.email.queue.flush for fhts.com
2021-06-12 16:05:09,768 DEBUG scheduler Queued events for site fhts.com
2021-06-12 16:06:09,981 DEBUG scheduler Queued events for site fhts.com
2021-06-12 16:07:10,213 DEBUG scheduler Queued events for site fhts.com
2021-06-12 16:08:10,639 DEBUG scheduler Queued events for site fhts.com
2021-06-12 16:08:10,671 INFO scheduler Scheduled Job Start: frappe.monitor.flush for fhts.com
2021-06-12 16:08:11,242 INFO scheduler Scheduled Job Complete: frappe.monitor.flush for fhts.com
2021-06-12 16:08:11,360 INFO scheduler Scheduled Job Start: frappe.utils.global_search.sync_global_search for fhts.com
2021-06-12 16:08:11,757 INFO scheduler Scheduled Job Complete: frappe.utils.global_search.sync_global_search for fhts.com
2021-06-12 16:08:11,873 INFO scheduler Scheduled Job Start: frappe.integrations.doctype.razorpay_settings.razorpay_settings.capture_payment for fhts.com
2021-06-12 16:08:12,656 INFO scheduler Scheduled Job Complete: frappe.integrations.doctype.razorpay_settings.razorpay_settings.capture_payment for fhts.com
2021-06-12 16:08:12,725 INFO scheduler Scheduled Job Start: frappe.email.doctype.email_account.email_account.notify_unreplied for fhts.com
2021-06-12 16:08:13,174 INFO scheduler Scheduled Job Complete: frappe.email.doctype.email_account.email_account.notify_unreplied for fhts.com
2021-06-12 16:08:13,309 INFO scheduler Scheduled Job Start: frappe.email.doctype.email_account.email_account.pull for fhts.com
2021-06-12 16:08:13,655 INFO scheduler Scheduled Job Complete: frappe.email.doctype.email_account.email_account.pull for fhts.com
2021-06-12 16:08:13,725 INFO scheduler Scheduled Job Start: frappe.email.queue.flush for fhts.com
2021-06-12 16:08:13,975 INFO scheduler Scheduled Job Complete: frappe.email.queue.flush for fhts.com
2021-06-12 16:09:10,864 DEBUG scheduler Queued events for site fhts.com
2021-06-12 16:10:11,088 DEBUG scheduler Queued events for site fhts.com
2021-06-12 16:11:11,415 DEBUG scheduler Queued events for site fhts.com
2021-06-12 16:12:11,686 INFO scheduler Scheduled Job Start: frappe.monitor.flush for fhts.com
2021-06-12 16:12:11,700 DEBUG scheduler Queued events for site fhts.com
2021-06-12 16:12:11,840 INFO scheduler Scheduled Job Complete: frappe.monitor.flush for fhts.com
2021-06-12 16:12:11,918 INFO scheduler Scheduled Job Start: frappe.utils.global_search.sync_global_search for fhts.com
2021-06-12 16:12:12,062 INFO scheduler Scheduled Job Complete: frappe.utils.global_search.sync_global_search for fhts.com
2021-06-12 16:12:12,126 INFO scheduler Scheduled Job Start: frappe.integrations.doctype.razorpay_settings.razorpay_settings.capture_payment for fhts.com
2021-06-12 16:12:12,515 INFO scheduler Scheduled Job Complete: frappe.integrations.doctype.razorpay_settings.razorpay_settings.capture_payment for fhts.com
2021-06-12 16:12:12,586 INFO scheduler Scheduled Job Start: frappe.email.doctype.email_account.email_account.notify_unreplied for fhts.com
2021-06-12 16:12:12,894 INFO scheduler Scheduled Job Complete: frappe.email.doctype.email_account.email_account.notify_unreplied for fhts.com
2021-06-12 16:12:12,970 INFO scheduler Scheduled Job Start: frappe.email.doctype.email_account.email_account.pull for fhts.com
2021-06-12 16:12:13,319 INFO scheduler Scheduled Job Complete: frappe.email.doctype.email_account.email_account.pull for fhts.com
2021-06-12 16:12:13,392 INFO scheduler Scheduled Job Start: frappe.email.queue.flush for fhts.com
2021-06-12 16:12:13,651 INFO scheduler Scheduled Job Complete: frappe.email.queue.flush for fhts.com
2021-06-12 16:13:11,916 DEBUG scheduler Queued events for site fhts.com
2021-06-12 16:14:12,118 DEBUG scheduler Queued events for site fhts.com
2021-06-12 16:15:12,317 DEBUG scheduler Queued events for site fhts.com
2021-06-12 16:15:12,366 INFO scheduler Scheduled Job Start: frappe.twofactor.delete_all_barcodes_for_users for fhts.com
2021-06-12 16:15:12,900 INFO scheduler Scheduled Job Complete: frappe.twofactor.delete_all_barcodes_for_users for fhts.com
2021-06-12 16:15:13,027 INFO scheduler Scheduled Job Start: frappe.website.doctype.web_page.web_page.check_publish_status for fhts.com
2021-06-12 16:15:13,813 INFO scheduler Scheduled Job Complete: frappe.website.doctype.web_page.web_page.check_publish_status for fhts.com
2021-06-12 16:15:13,940 INFO scheduler Scheduled Job Start: frappe.oauth.delete_oauth2_data for fhts.com
2021-06-12 16:15:14,417 INFO scheduler Scheduled Job Complete: frappe.oauth.delete_oauth2_data for fhts.com
2021-06-12 16:16:12,656 DEBUG scheduler Queued events for site fhts.com
2021-06-12 16:16:12,678 INFO scheduler Scheduled Job Start: frappe.monitor.flush for fhts.com
2021-06-12 16:16:12,814 INFO scheduler Scheduled Job Complete: frappe.monitor.flush for fhts.com
2021-06-12 16:16:12,905 INFO scheduler Scheduled Job Start: frappe.utils.global_search.sync_global_search for fhts.com
2021-06-12 16:16:13,047 INFO scheduler Scheduled Job Complete: frappe.utils.global_search.sync_global_search for fhts.com
2021-06-12 16:16:13,139 INFO scheduler Scheduled Job Start: frappe.integrations.doctype.razorpay_settings.razorpay_settings.capture_payment for fhts.com
2021-06-12 16:16:13,472 INFO scheduler Scheduled Job Complete: frappe.integrations.doctype.razorpay_settings.razorpay_settings.capture_payment for fhts.com
2021-06-12 16:16:13,553 INFO scheduler Scheduled Job Start: frappe.email.doctype.email_account.email_account.notify_unreplied for fhts.com
2021-06-12 16:16:13,880 INFO scheduler Scheduled Job Complete: frappe.email.doctype.email_account.email_account.notify_unreplied for fhts.com
2021-06-12 16:16:13,953 INFO scheduler Scheduled Job Start: frappe.email.doctype.email_account.email_account.pull for fhts.com
2021-06-12 16:16:14,257 INFO scheduler Scheduled Job Complete: frappe.email.doctype.email_account.email_account.pull for fhts.com
2021-06-12 16:16:14,333 INFO scheduler Scheduled Job Start: frappe.email.queue.flush for fhts.com
2021-06-12 16:16:14,638 INFO scheduler Scheduled Job Complete: frappe.email.queue.flush for fhts.com
2021-06-12 16:17:12,887 DEBUG scheduler Queued events for site fhts.com
2021-06-12 16:18:13,105 DEBUG scheduler Queued events for site fhts.com
2021-06-12 16:19:13,326 DEBUG scheduler Queued events for site fhts.com
2021-06-12 16:20:14,033 DEBUG scheduler Queued events for site fhts.com
2021-06-12 16:20:14,153 INFO scheduler Scheduled Job Start: frappe.monitor.flush for fhts.com
2021-06-12 16:20:14,325 INFO scheduler Scheduled Job Complete: frappe.monitor.flush for fhts.com
2021-06-12 16:20:14,462 INFO scheduler Scheduled Job Start: frappe.utils.global_search.sync_global_search for fhts.com
2021-06-12 16:20:14,612 INFO scheduler Scheduled Job Complete: frappe.utils.global_search.sync_global_search for fhts.com
2021-06-12 16:20:14,760 INFO scheduler Scheduled Job Start: frappe.integrations.doctype.razorpay_settings.razorpay_settings.capture_payment for fhts.com
2021-06-12 16:20:15,188 INFO scheduler Scheduled Job Complete: frappe.integrations.doctype.razorpay_settings.razorpay_settings.capture_payment for fhts.com
2021-06-12 16:20:15,257 INFO scheduler Scheduled Job Start: frappe.email.doctype.email_account.email_account.notify_unreplied for fhts.com
2021-06-12 16:20:15,799 INFO scheduler Scheduled Job Complete: frappe.email.doctype.email_account.email_account.notify_unreplied for fhts.com
2021-06-12 16:20:15,868 INFO scheduler Scheduled Job Start: frappe.email.doctype.email_account.email_account.pull for fhts.com
2021-06-12 16:20:16,188 INFO scheduler Scheduled Job Complete: frappe.email.doctype.email_account.email_account.pull for fhts.com
2021-06-12 16:20:16,271 INFO scheduler Scheduled Job Start: frappe.email.queue.flush for fhts.com
2021-06-12 16:20:16,551 INFO scheduler Scheduled Job Complete: frappe.email.queue.flush for fhts.com
2021-06-12 16:21:14,446 DEBUG scheduler Queued events for site fhts.com
2021-06-12 16:22:14,623 DEBUG scheduler Queued events for site fhts.com
2021-06-12 16:23:14,849 DEBUG scheduler Queued events for site fhts.com
2021-06-12 16:24:15,530 DEBUG scheduler Queued events for site fhts.com
2021-06-12 16:24:15,587 INFO scheduler Scheduled Job Start: frappe.monitor.flush for fhts.com
2021-06-12 16:24:15,889 INFO scheduler Scheduled Job Complete: frappe.monitor.flush for fhts.com
2021-06-12 16:24:15,984 INFO scheduler Scheduled Job Start: frappe.utils.global_search.sync_global_search for fhts.com
2021-06-12 16:24:16,187 INFO scheduler Scheduled Job Complete: frappe.utils.global_search.sync_global_search for fhts.com
2021-06-12 16:24:16,328 INFO scheduler Scheduled Job Start: frappe.integrations.doctype.razorpay_settings.razorpay_settings.capture_payment for fhts.com
2021-06-12 16:24:16,973 INFO scheduler Scheduled Job Complete: frappe.integrations.doctype.razorpay_settings.razorpay_settings.capture_payment for fhts.com
2021-06-12 16:24:17,038 INFO scheduler Scheduled Job Start: frappe.email.doctype.email_account.email_account.notify_unreplied for fhts.com
2021-06-12 16:24:17,459 INFO scheduler Scheduled Job Complete: frappe.email.doctype.email_account.email_account.notify_unreplied for fhts.com
2021-06-12 16:24:17,532 INFO scheduler Scheduled Job Start: frappe.email.doctype.email_account.email_account.pull for fhts.com
2021-06-12 16:24:17,972 INFO scheduler Scheduled Job Complete: frappe.email.doctype.email_account.email_account.pull for fhts.com
2021-06-12 16:24:18,043 INFO scheduler Scheduled Job Start: frappe.email.queue.flush for fhts.com
2021-06-12 16:24:18,532 INFO scheduler Scheduled Job Complete: frappe.email.queue.flush for fhts.com
2021-06-12 16:25:15,729 DEBUG scheduler Queued events for site fhts.com
2021-06-12 16:26:15,938 DEBUG scheduler Queued events for site fhts.com
2021-06-12 16:27:16,150 DEBUG scheduler Queued events for site fhts.com
2021-06-12 16:28:16,401 DEBUG scheduler Queued events for site fhts.com
2021-06-12 16:28:16,427 INFO scheduler Scheduled Job Start: frappe.monitor.flush for fhts.com
2021-06-12 16:28:16,585 INFO scheduler Scheduled Job Complete: frappe.monitor.flush for fhts.com
2021-06-12 16:28:16,653 INFO scheduler Scheduled Job Start: frappe.utils.global_search.sync_global_search for fhts.com
2021-06-12 16:28:16,841 INFO scheduler Scheduled Job Complete: frappe.utils.global_search.sync_global_search for fhts.com
2021-06-12 16:28:16,920 INFO scheduler Scheduled Job Start: frappe.integrations.doctype.razorpay_settings.razorpay_settings.capture_payment for fhts.com
2021-06-12 16:28:17,334 INFO scheduler Scheduled Job Complete: frappe.integrations.doctype.razorpay_settings.razorpay_settings.capture_payment for fhts.com
2021-06-12 16:28:17,401 INFO scheduler Scheduled Job Start: frappe.email.doctype.email_account.email_account.notify_unreplied for fhts.com
2021-06-12 16:28:17,850 INFO scheduler Scheduled Job Complete: frappe.email.doctype.email_account.email_account.notify_unreplied for fhts.com
2021-06-12 16:28:17,932 INFO scheduler Scheduled Job Start: frappe.email.doctype.email_account.email_account.pull for fhts.com
2021-06-12 16:28:18,336 INFO scheduler Scheduled Job Complete: frappe.email.doctype.email_account.email_account.pull for fhts.com
2021-06-12 16:28:18,408 INFO scheduler Scheduled Job Start: frappe.email.queue.flush for fhts.com
2021-06-12 16:28:18,646 INFO scheduler Scheduled Job Complete: frappe.email.queue.flush for fhts.com
2021-06-12 16:29:16,592 DEBUG scheduler Queued events for site fhts.com
2021-06-12 16:30:16,889 DEBUG scheduler Queued events for site fhts.com
2021-06-12 16:30:16,976 INFO scheduler Scheduled Job Start: frappe.twofactor.delete_all_barcodes_for_users for fhts.com
2021-06-12 16:30:17,609 INFO scheduler Scheduled Job Complete: frappe.twofactor.delete_all_barcodes_for_users for fhts.com
2021-06-12 16:30:17,724 INFO scheduler Scheduled Job Start: frappe.website.doctype.web_page.web_page.check_publish_status for fhts.com
2021-06-12 16:30:18,301 INFO scheduler Scheduled Job Complete: frappe.website.doctype.web_page.web_page.check_publish_status for fhts.com
2021-06-12 16:30:18,439 INFO scheduler Scheduled Job Start: frappe.oauth.delete_oauth2_data for fhts.com
2021-06-12 16:30:19,244 INFO scheduler Scheduled Job Complete: frappe.oauth.delete_oauth2_data for fhts.com
2021-06-12 16:31:17,103 DEBUG scheduler Queued events for site fhts.com
2021-06-12 16:32:17,429 DEBUG scheduler Queued events for site fhts.com
2021-06-12 16:32:17,460 INFO scheduler Scheduled Job Start: frappe.monitor.flush for fhts.com
2021-06-12 16:32:17,628 INFO scheduler Scheduled Job Complete: frappe.monitor.flush for fhts.com
2021-06-12 16:32:17,721 INFO scheduler Scheduled Job Start: frappe.utils.global_search.sync_global_search for fhts.com
2021-06-12 16:32:17,934 INFO scheduler Scheduled Job Complete: frappe.utils.global_search.sync_global_search for fhts.com
2021-06-12 16:32:18,019 INFO scheduler Scheduled Job Start: frappe.integrations.doctype.razorpay_settings.razorpay_settings.capture_payment for fhts.com
2021-06-12 16:32:18,400 INFO scheduler Scheduled Job Complete: frappe.integrations.doctype.razorpay_settings.razorpay_settings.capture_payment for fhts.com
2021-06-12 16:32:18,471 INFO scheduler Scheduled Job Start: frappe.email.doctype.email_account.email_account.notify_unreplied for fhts.com
2021-06-12 16:32:18,799 INFO scheduler Scheduled Job Complete: frappe.email.doctype.email_account.email_account.notify_unreplied for fhts.com
2021-06-12 16:32:18,868 INFO scheduler Scheduled Job Start: frappe.email.doctype.email_account.email_account.pull for fhts.com
2021-06-12 16:32:19,160 INFO scheduler Scheduled Job Complete: frappe.email.doctype.email_account.email_account.pull for fhts.com
2021-06-12 16:32:19,247 INFO scheduler Scheduled Job Start: frappe.email.queue.flush for fhts.com
2021-06-12 16:32:19,835 INFO scheduler Scheduled Job Complete: frappe.email.queue.flush for fhts.com
2021-06-12 16:33:17,750 DEBUG scheduler Queued events for site fhts.com
2021-06-12 16:34:17,999 DEBUG scheduler Queued events for site fhts.com
2021-06-12 16:36:21,693 DEBUG scheduler Queued events for site fhts.com
2021-06-12 16:36:25,155 INFO scheduler Scheduled Job Start: frappe.monitor.flush for fhts.com
2021-06-12 16:36:34,969 INFO scheduler Scheduled Job Complete: frappe.monitor.flush for fhts.com
2021-06-12 16:36:35,073 INFO scheduler Scheduled Job Start: frappe.utils.global_search.sync_global_search for fhts.com
2021-06-12 16:36:35,489 INFO scheduler Scheduled Job Complete: frappe.utils.global_search.sync_global_search for fhts.com
2021-06-12 16:36:35,594 INFO scheduler Scheduled Job Start: frappe.integrations.doctype.razorpay_settings.razorpay_settings.capture_payment for fhts.com
2021-06-12 16:36:40,539 INFO scheduler Scheduled Job Complete: frappe.integrations.doctype.razorpay_settings.razorpay_settings.capture_payment for fhts.com
2021-06-12 16:36:40,615 INFO scheduler Scheduled Job Start: frappe.email.doctype.email_account.email_account.notify_unreplied for fhts.com
2021-06-12 16:36:43,782 INFO scheduler Scheduled Job Complete: frappe.email.doctype.email_account.email_account.notify_unreplied for fhts.com
2021-06-12 16:36:43,880 INFO scheduler Scheduled Job Start: frappe.email.doctype.email_account.email_account.pull for fhts.com
2021-06-12 16:36:44,418 INFO scheduler Scheduled Job Complete: frappe.email.doctype.email_account.email_account.pull for fhts.com
2021-06-12 16:36:44,512 INFO scheduler Scheduled Job Start: frappe.email.queue.flush for fhts.com
2021-06-12 16:36:44,806 INFO scheduler Scheduled Job Complete: frappe.email.queue.flush for fhts.com
2021-06-12 16:37:22,313 DEBUG scheduler Queued events for site fhts.com
2021-06-12 16:39:07,420 DEBUG scheduler Queued events for site fhts.com
2021-06-12 16:40:07,884 DEBUG scheduler Queued events for site fhts.com
2021-06-12 16:40:10,892 INFO scheduler Scheduled Job Start: frappe.monitor.flush for fhts.com
2021-06-12 16:40:19,231 INFO scheduler Scheduled Job Complete: frappe.monitor.flush for fhts.com
2021-06-12 16:40:19,347 INFO scheduler Scheduled Job Start: frappe.utils.global_search.sync_global_search for fhts.com
2021-06-12 16:40:19,518 INFO scheduler Scheduled Job Complete: frappe.utils.global_search.sync_global_search for fhts.com
2021-06-12 16:40:19,606 INFO scheduler Scheduled Job Start: frappe.integrations.doctype.razorpay_settings.razorpay_settings.capture_payment for fhts.com
2021-06-12 16:40:24,212 INFO scheduler Scheduled Job Complete: frappe.integrations.doctype.razorpay_settings.razorpay_settings.capture_payment for fhts.com
2021-06-12 16:40:24,275 INFO scheduler Scheduled Job Start: frappe.email.doctype.email_account.email_account.notify_unreplied for fhts.com
2021-06-12 16:40:26,968 INFO scheduler Scheduled Job Complete: frappe.email.doctype.email_account.email_account.notify_unreplied for fhts.com
2021-06-12 16:40:27,034 INFO scheduler Scheduled Job Start: frappe.email.doctype.email_account.email_account.pull for fhts.com
2021-06-12 16:40:27,473 INFO scheduler Scheduled Job Complete: frappe.email.doctype.email_account.email_account.pull for fhts.com
2021-06-12 16:40:27,566 INFO scheduler Scheduled Job Start: frappe.email.queue.flush for fhts.com
2021-06-12 16:40:29,132 INFO scheduler Scheduled Job Complete: frappe.email.queue.flush for fhts.com
2021-06-12 16:41:08,439 DEBUG scheduler Queued events for site fhts.com
2021-06-12 16:42:08,827 DEBUG scheduler Queued events for site fhts.com
2021-06-12 16:43:09,048 DEBUG scheduler Queued events for site fhts.com
2021-06-12 16:44:09,293 DEBUG scheduler Queued events for site fhts.com
2021-06-12 16:44:09,321 INFO scheduler Scheduled Job Start: frappe.monitor.flush for fhts.com
2021-06-12 16:44:09,456 INFO scheduler Scheduled Job Complete: frappe.monitor.flush for fhts.com
2021-06-12 16:44:09,519 INFO scheduler Scheduled Job Start: frappe.utils.global_search.sync_global_search for fhts.com
2021-06-12 16:44:09,746 INFO scheduler Scheduled Job Complete: frappe.utils.global_search.sync_global_search for fhts.com
2021-06-12 16:44:09,835 INFO scheduler Scheduled Job Start: frappe.integrations.doctype.razorpay_settings.razorpay_settings.capture_payment for fhts.com
2021-06-12 16:44:10,188 INFO scheduler Scheduled Job Complete: frappe.integrations.doctype.razorpay_settings.razorpay_settings.capture_payment for fhts.com
2021-06-12 16:44:10,253 INFO scheduler Scheduled Job Start: frappe.email.doctype.email_account.email_account.notify_unreplied for fhts.com
2021-06-12 16:44:10,673 INFO scheduler Scheduled Job Complete: frappe.email.doctype.email_account.email_account.notify_unreplied for fhts.com
2021-06-12 16:44:10,865 INFO scheduler Scheduled Job Start: frappe.email.doctype.email_account.email_account.pull for fhts.com
2021-06-12 16:44:11,654 INFO scheduler Scheduled Job Complete: frappe.email.doctype.email_account.email_account.pull for fhts.com
2021-06-12 16:44:11,718 INFO scheduler Scheduled Job Start: frappe.email.queue.flush for fhts.com
2021-06-12 16:44:12,015 INFO scheduler Scheduled Job Complete: frappe.email.queue.flush for fhts.com
2021-06-12 16:45:09,529 DEBUG scheduler Queued events for site fhts.com
2021-06-12 16:45:09,576 INFO scheduler Scheduled Job Start: frappe.twofactor.delete_all_barcodes_for_users for fhts.com
2021-06-12 16:45:10,657 INFO scheduler Scheduled Job Complete: frappe.twofactor.delete_all_barcodes_for_users for fhts.com
2021-06-12 16:45:10,776 INFO scheduler Scheduled Job Start: frappe.website.doctype.web_page.web_page.check_publish_status for fhts.com
2021-06-12 16:45:11,973 INFO scheduler Scheduled Job Complete: frappe.website.doctype.web_page.web_page.check_publish_status for fhts.com
2021-06-12 16:45:12,098 INFO scheduler Scheduled Job Start: frappe.oauth.delete_oauth2_data for fhts.com
2021-06-12 16:45:12,720 INFO scheduler Scheduled Job Complete: frappe.oauth.delete_oauth2_data for fhts.com
2021-06-12 16:46:09,756 DEBUG scheduler Queued events for site fhts.com
2021-06-12 16:47:10,036 DEBUG scheduler Queued events for site fhts.com
2021-06-12 16:48:10,344 DEBUG scheduler Queued events for site fhts.com
2021-06-12 16:48:10,383 INFO scheduler Scheduled Job Start: frappe.monitor.flush for fhts.com
2021-06-12 16:48:10,610 INFO scheduler Scheduled Job Complete: frappe.monitor.flush for fhts.com
2021-06-12 16:48:10,795 INFO scheduler Scheduled Job Start: frappe.utils.global_search.sync_global_search for fhts.com
2021-06-12 16:48:11,008 INFO scheduler Scheduled Job Complete: frappe.utils.global_search.sync_global_search for fhts.com
2021-06-12 16:48:11,117 INFO scheduler Scheduled Job Start: frappe.integrations.doctype.razorpay_settings.razorpay_settings.capture_payment for fhts.com
2021-06-12 16:48:11,491 INFO scheduler Scheduled Job Complete: frappe.integrations.doctype.razorpay_settings.razorpay_settings.capture_payment for fhts.com
2021-06-12 16:48:11,556 INFO scheduler Scheduled Job Start: frappe.email.doctype.email_account.email_account.notify_unreplied for fhts.com
2021-06-12 16:48:11,934 INFO scheduler Scheduled Job Complete: frappe.email.doctype.email_account.email_account.notify_unreplied for fhts.com
2021-06-12 16:48:12,011 INFO scheduler Scheduled Job Start: frappe.email.doctype.email_account.email_account.pull for fhts.com
2021-06-12 16:48:12,362 INFO scheduler Scheduled Job Complete: frappe.email.doctype.email_account.email_account.pull for fhts.com
2021-06-12 16:48:12,427 INFO scheduler Scheduled Job Start: frappe.email.queue.flush for fhts.com
2021-06-12 16:48:12,750 INFO scheduler Scheduled Job Complete: frappe.email.queue.flush for fhts.com
2021-06-12 16:49:10,564 DEBUG scheduler Queued events for site fhts.com
2021-06-16 15:22:29,758 INFO scheduler Scheduled Job Start: frappe.core.doctype.log_settings.log_settings.run_log_clean_up for fhts.com
2021-06-16 15:22:29,758 INFO scheduler Scheduled Job Start: frappe.integrations.doctype.google_drive.google_drive.weekly_backup for fhts.com
2021-06-16 15:22:30,397 DEBUG scheduler Queued events for site fhts.com
2021-06-16 15:22:32,760 INFO scheduler Scheduled Job Complete: frappe.core.doctype.log_settings.log_settings.run_log_clean_up for fhts.com
2021-06-16 15:22:33,255 INFO scheduler Scheduled Job Start: frappe.core.doctype.prepared_report.prepared_report.delete_expired_prepared_reports for fhts.com
2021-06-16 15:22:33,776 INFO scheduler Scheduled Job Complete: frappe.integrations.doctype.google_drive.google_drive.weekly_backup for fhts.com
2021-06-16 15:22:33,976 INFO scheduler Scheduled Job Start: frappe.social.doctype.energy_point_log.energy_point_log.send_weekly_summary for fhts.com
2021-06-16 15:22:34,268 INFO scheduler Scheduled Job Complete: frappe.core.doctype.prepared_report.prepared_report.delete_expired_prepared_reports for fhts.com
2021-06-16 15:22:34,400 INFO scheduler Scheduled Job Start: frappe.email.doctype.unhandled_email.unhandled_email.remove_old_unhandled_emails for fhts.com
2021-06-16 15:22:34,473 INFO scheduler Scheduled Job Complete: frappe.social.doctype.energy_point_log.energy_point_log.send_weekly_summary for fhts.com
2021-06-16 15:22:34,613 INFO scheduler Scheduled Job Start: frappe.desk.form.document_follow.send_weekly_updates for fhts.com
2021-06-16 15:22:34,994 INFO scheduler Scheduled Job Complete: frappe.email.doctype.unhandled_email.unhandled_email.remove_old_unhandled_emails for fhts.com
2021-06-16 15:22:35,135 INFO scheduler Scheduled Job Start: frappe.automation.doctype.auto_repeat.auto_repeat.set_auto_repeat_as_completed for fhts.com
2021-06-16 15:22:35,257 INFO scheduler Scheduled Job Complete: frappe.desk.form.document_follow.send_weekly_updates for fhts.com
2021-06-16 15:22:35,383 INFO scheduler Scheduled Job Start: frappe.desk.doctype.route_history.route_history.flush_old_route_records for fhts.com
2021-06-16 15:22:35,809 INFO scheduler Scheduled Job Complete: frappe.automation.doctype.auto_repeat.auto_repeat.set_auto_repeat_as_completed for fhts.com
2021-06-16 15:22:35,946 INFO scheduler Scheduled Job Start: frappe.automation.doctype.auto_repeat.auto_repeat.make_auto_repeat_entry for fhts.com
2021-06-16 15:22:36,113 INFO scheduler Scheduled Job Complete: frappe.desk.doctype.route_history.route_history.flush_old_route_records for fhts.com
2021-06-16 15:22:36,287 INFO scheduler Scheduled Job Start: frappe.integrations.doctype.s3_backup_settings.s3_backup_settings.take_backups_weekly for fhts.com
2021-06-16 15:22:36,439 INFO scheduler Scheduled Job Complete: frappe.automation.doctype.auto_repeat.auto_repeat.make_auto_repeat_entry for fhts.com
2021-06-16 15:22:36,584 INFO scheduler Scheduled Job Start: frappe.integrations.doctype.google_contacts.google_contacts.sync for fhts.com
2021-06-16 15:22:37,172 INFO scheduler Scheduled Job Complete: frappe.integrations.doctype.s3_backup_settings.s3_backup_settings.take_backups_weekly for fhts.com
2021-06-16 15:22:37,324 INFO scheduler Scheduled Job Complete: frappe.integrations.doctype.google_contacts.google_contacts.sync for fhts.com
2021-06-16 15:22:37,378 INFO scheduler Scheduled Job Start: frappe.integrations.doctype.dropbox_settings.dropbox_settings.take_backups_weekly for fhts.com
2021-06-16 15:22:37,446 INFO scheduler Scheduled Job Start: frappe.social.doctype.energy_point_settings.energy_point_settings.allocate_review_points for fhts.com
2021-06-16 15:22:38,304 INFO scheduler Scheduled Job Complete: frappe.social.doctype.energy_point_settings.energy_point_settings.allocate_review_points for fhts.com
2021-06-16 15:22:38,428 INFO scheduler Scheduled Job Start: frappe.desk.form.document_follow.send_daily_updates for fhts.com
2021-06-16 15:22:38,581 INFO scheduler Scheduled Job Complete: frappe.integrations.doctype.dropbox_settings.dropbox_settings.take_backups_weekly for fhts.com
2021-06-16 15:22:38,682 INFO scheduler Scheduled Job Start: frappe.integrations.doctype.google_drive.google_drive.daily_backup for fhts.com
2021-06-16 15:22:39,018 INFO scheduler Scheduled Job Complete: frappe.desk.form.document_follow.send_daily_updates for fhts.com
2021-06-16 15:22:39,139 INFO scheduler Scheduled Job Start: frappe.website.doctype.personal_data_deletion_request.personal_data_deletion_request.remove_unverified_record for fhts.com
2021-06-16 15:22:39,237 INFO scheduler Scheduled Job Complete: frappe.integrations.doctype.google_drive.google_drive.daily_backup for fhts.com
2021-06-16 15:22:39,396 INFO scheduler Scheduled Job Start: frappe.integrations.doctype.s3_backup_settings.s3_backup_settings.take_backups_daily for fhts.com
2021-06-16 15:22:39,676 INFO scheduler Scheduled Job Complete: frappe.website.doctype.personal_data_deletion_request.personal_data_deletion_request.remove_unverified_record for fhts.com
2021-06-16 15:22:39,843 INFO scheduler Scheduled Job Start: frappe.email.doctype.auto_email_report.auto_email_report.send_daily for fhts.com
2021-06-16 15:22:39,949 INFO scheduler Scheduled Job Complete: frappe.integrations.doctype.s3_backup_settings.s3_backup_settings.take_backups_daily for fhts.com
2021-06-16 15:22:40,049 INFO scheduler Scheduled Job Start: frappe.utils.change_log.check_for_update for fhts.com
2021-06-16 15:22:43,335 INFO scheduler Scheduled Job Complete: frappe.utils.change_log.check_for_update for fhts.com
2021-06-16 15:22:43,985 INFO scheduler Scheduled Job Complete: frappe.email.doctype.auto_email_report.auto_email_report.send_daily for fhts.com
2021-06-16 15:22:44,634 INFO scheduler Scheduled Job Start: frappe.integrations.doctype.dropbox_settings.dropbox_settings.take_backups_daily for fhts.com
2021-06-16 15:22:44,635 INFO scheduler Scheduled Job Start: frappe.utils.scheduler.restrict_scheduler_events_if_dormant for fhts.com
2021-06-16 15:22:46,226 INFO scheduler Scheduled Job Failed: frappe.utils.scheduler.restrict_scheduler_events_if_dormant for fhts.com
2021-06-16 15:22:46,330 INFO scheduler Scheduled Job Complete: frappe.integrations.doctype.dropbox_settings.dropbox_settings.take_backups_daily for fhts.com
2021-06-16 15:22:46,618 INFO scheduler Scheduled Job Start: frappe.realtime.remove_old_task_logs for fhts.com
2021-06-16 15:22:46,994 INFO scheduler Scheduled Job Complete: frappe.realtime.remove_old_task_logs for fhts.com
2021-06-16 15:22:47,082 INFO scheduler Scheduled Job Start: frappe.email.doctype.notification.notification.trigger_daily_alerts for fhts.com
2021-06-16 15:22:47,693 INFO scheduler Scheduled Job Complete: frappe.email.doctype.notification.notification.trigger_daily_alerts for fhts.com
2021-06-16 15:22:47,800 INFO scheduler Scheduled Job Start: frappe.sessions.clear_expired_sessions for fhts.com
2021-06-16 15:22:48,854 INFO scheduler Scheduled Job Complete: frappe.sessions.clear_expired_sessions for fhts.com
2021-06-16 15:22:49,012 INFO scheduler Scheduled Job Start: frappe.desk.doctype.event.event.send_event_digest for fhts.com
2021-06-16 15:22:49,743 INFO scheduler Scheduled Job Complete: frappe.desk.doctype.event.event.send_event_digest for fhts.com
2021-06-16 15:22:49,908 INFO scheduler Scheduled Job Start: frappe.core.doctype.error_log.error_log.set_old_logs_as_seen for fhts.com
2021-06-16 15:22:50,303 INFO scheduler Scheduled Job Complete: frappe.core.doctype.error_log.error_log.set_old_logs_as_seen for fhts.com
2021-06-16 15:22:50,508 INFO scheduler Scheduled Job Start: frappe.desk.notifications.clear_notifications for fhts.com
2021-06-16 15:22:50,973 INFO scheduler Scheduled Job Complete: frappe.desk.notifications.clear_notifications for fhts.com
2021-06-16 15:22:51,190 INFO scheduler Scheduled Job Start: frappe.email.queue.set_expiry_for_email_queue for fhts.com
2021-06-16 15:22:51,950 INFO scheduler Scheduled Job Complete: frappe.email.queue.set_expiry_for_email_queue for fhts.com
2021-06-16 15:22:52,061 INFO scheduler Scheduled Job Start: frappe.email.doctype.newsletter.newsletter.send_scheduled_email for fhts.com
2021-06-16 15:22:52,812 INFO scheduler Scheduled Job Complete: frappe.email.doctype.newsletter.newsletter.send_scheduled_email for fhts.com
2021-06-16 15:22:52,936 INFO scheduler Scheduled Job Start: frappe.integrations.doctype.google_calendar.google_calendar.sync for fhts.com
2021-06-16 15:22:53,797 INFO scheduler Scheduled Job Complete: frappe.integrations.doctype.google_calendar.google_calendar.sync for fhts.com
2021-06-16 15:22:53,953 INFO scheduler Scheduled Job Start: frappe.desk.form.document_follow.send_hourly_updates for fhts.com
2021-06-16 15:22:54,478 INFO scheduler Scheduled Job Complete: frappe.desk.form.document_follow.send_hourly_updates for fhts.com
2021-06-16 15:22:54,574 INFO scheduler Scheduled Job Start: frappe.deferred_insert.save_to_db for fhts.com
2021-06-16 15:22:55,042 INFO scheduler Scheduled Job Complete: frappe.deferred_insert.save_to_db for fhts.com
2021-06-16 15:22:55,171 INFO scheduler Scheduled Job Start: frappe.desk.page.backups.backups.delete_downloadable_backups for fhts.com
2021-06-16 15:22:55,711 INFO scheduler Scheduled Job Complete: frappe.desk.page.backups.backups.delete_downloadable_backups for fhts.com
2021-06-16 15:22:55,825 INFO scheduler Scheduled Job Start: frappe.utils.error.collect_error_snapshots for fhts.com
2021-06-16 15:22:57,254 INFO scheduler Scheduled Job Complete: frappe.utils.error.collect_error_snapshots for fhts.com
2021-06-16 15:22:57,403 INFO scheduler Scheduled Job Start: frappe.model.utils.user_settings.sync_user_settings for fhts.com
2021-06-16 15:22:57,729 INFO scheduler Scheduled Job Complete: frappe.model.utils.user_settings.sync_user_settings for fhts.com
2021-06-16 15:22:57,849 INFO scheduler Scheduled Job Start: frappe.model.utils.link_count.update_link_count for fhts.com
2021-06-16 15:22:58,207 INFO scheduler Scheduled Job Complete: frappe.model.utils.link_count.update_link_count for fhts.com
2021-06-16 15:22:58,358 INFO scheduler Scheduled Job Start: frappe.monitor.flush for fhts.com
2021-06-16 15:22:58,503 INFO scheduler Scheduled Job Complete: frappe.monitor.flush for fhts.com
2021-06-16 15:22:58,576 INFO scheduler Scheduled Job Start: frappe.utils.global_search.sync_global_search for fhts.com
2021-06-16 15:22:58,792 INFO scheduler Scheduled Job Complete: frappe.utils.global_search.sync_global_search for fhts.com
2021-06-16 15:22:58,881 INFO scheduler Scheduled Job Start: frappe.integrations.doctype.razorpay_settings.razorpay_settings.capture_payment for fhts.com
2021-06-16 15:22:59,444 INFO scheduler Scheduled Job Complete: frappe.integrations.doctype.razorpay_settings.razorpay_settings.capture_payment for fhts.com
2021-06-16 15:22:59,515 INFO scheduler Scheduled Job Start: frappe.email.doctype.email_account.email_account.notify_unreplied for fhts.com
2021-06-16 15:23:00,549 INFO scheduler Scheduled Job Complete: frappe.email.doctype.email_account.email_account.notify_unreplied for fhts.com
2021-06-16 15:23:00,615 INFO scheduler Scheduled Job Start: frappe.email.doctype.email_account.email_account.pull for fhts.com
2021-06-16 15:23:00,901 INFO scheduler Scheduled Job Complete: frappe.email.doctype.email_account.email_account.pull for fhts.com
2021-06-16 15:23:00,964 INFO scheduler Scheduled Job Start: frappe.email.queue.flush for fhts.com
2021-06-16 15:23:01,193 INFO scheduler Scheduled Job Complete: frappe.email.queue.flush for fhts.com
2021-06-16 15:23:01,255 INFO scheduler Scheduled Job Start: frappe.twofactor.delete_all_barcodes_for_users for fhts.com
2021-06-16 15:23:01,695 INFO scheduler Scheduled Job Complete: frappe.twofactor.delete_all_barcodes_for_users for fhts.com
2021-06-16 15:23:01,820 INFO scheduler Scheduled Job Start: frappe.website.doctype.web_page.web_page.check_publish_status for fhts.com
2021-06-16 15:23:02,786 INFO scheduler Scheduled Job Complete: frappe.website.doctype.web_page.web_page.check_publish_status for fhts.com
2021-06-16 15:23:02,926 INFO scheduler Scheduled Job Start: frappe.oauth.delete_oauth2_data for fhts.com
2021-06-16 15:23:03,944 INFO scheduler Scheduled Job Complete: frappe.oauth.delete_oauth2_data for fhts.com
2021-06-16 15:23:30,822 DEBUG scheduler Queued events for site fhts.com
2021-06-16 15:24:31,154 DEBUG scheduler Queued events for site fhts.com
2021-06-16 15:24:32,055 INFO scheduler Scheduled Job Start: frappe.monitor.flush for fhts.com
2021-06-16 15:24:33,607 INFO scheduler Scheduled Job Complete: frappe.monitor.flush for fhts.com
2021-06-16 15:24:33,699 INFO scheduler Scheduled Job Start: frappe.utils.global_search.sync_global_search for fhts.com
2021-06-16 15:24:33,852 INFO scheduler Scheduled Job Complete: frappe.utils.global_search.sync_global_search for fhts.com
2021-06-16 15:24:33,941 INFO scheduler Scheduled Job Start: frappe.integrations.doctype.razorpay_settings.razorpay_settings.capture_payment for fhts.com
2021-06-16 15:24:36,666 INFO scheduler Scheduled Job Complete: frappe.integrations.doctype.razorpay_settings.razorpay_settings.capture_payment for fhts.com
2021-06-16 15:24:36,741 INFO scheduler Scheduled Job Start: frappe.email.doctype.email_account.email_account.notify_unreplied for fhts.com
2021-06-16 15:24:37,809 INFO scheduler Scheduled Job Complete: frappe.email.doctype.email_account.email_account.notify_unreplied for fhts.com
2021-06-16 15:24:37,875 INFO scheduler Scheduled Job Start: frappe.email.doctype.email_account.email_account.pull for fhts.com
2021-06-16 15:24:38,334 INFO scheduler Scheduled Job Complete: frappe.email.doctype.email_account.email_account.pull for fhts.com
2021-06-16 15:24:38,435 INFO scheduler Scheduled Job Start: frappe.email.queue.flush for fhts.com
2021-06-16 15:24:38,846 INFO scheduler Scheduled Job Complete: frappe.email.queue.flush for fhts.com
2021-06-16 15:25:31,391 DEBUG scheduler Queued events for site fhts.com
2021-06-16 15:26:31,582 DEBUG scheduler Queued events for site fhts.com
2021-06-16 15:27:31,848 DEBUG scheduler Queued events for site fhts.com
2021-06-16 15:28:32,088 DEBUG scheduler Queued events for site fhts.com
2021-06-16 15:28:32,118 INFO scheduler Scheduled Job Start: frappe.monitor.flush for fhts.com
2021-06-16 15:28:32,348 INFO scheduler Scheduled Job Complete: frappe.monitor.flush for fhts.com
2021-06-16 15:28:32,435 INFO scheduler Scheduled Job Start: frappe.utils.global_search.sync_global_search for fhts.com
2021-06-16 15:28:32,591 INFO scheduler Scheduled Job Complete: frappe.utils.global_search.sync_global_search for fhts.com
2021-06-16 15:28:32,657 INFO scheduler Scheduled Job Start: frappe.integrations.doctype.razorpay_settings.razorpay_settings.capture_payment for fhts.com
2021-06-16 15:28:33,118 INFO scheduler Scheduled Job Complete: frappe.integrations.doctype.razorpay_settings.razorpay_settings.capture_payment for fhts.com
2021-06-16 15:28:33,182 INFO scheduler Scheduled Job Start: frappe.email.doctype.email_account.email_account.notify_unreplied for fhts.com
2021-06-16 15:28:33,532 INFO scheduler Scheduled Job Complete: frappe.email.doctype.email_account.email_account.notify_unreplied for fhts.com
2021-06-16 15:28:33,595 INFO scheduler Scheduled Job Start: frappe.email.doctype.email_account.email_account.pull for fhts.com
2021-06-16 15:28:33,909 INFO scheduler Scheduled Job Complete: frappe.email.doctype.email_account.email_account.pull for fhts.com
2021-06-16 15:28:33,974 INFO scheduler Scheduled Job Start: frappe.email.queue.flush for fhts.com
2021-06-16 15:28:34,241 INFO scheduler Scheduled Job Complete: frappe.email.queue.flush for fhts.com
2021-06-16 15:29:32,298 DEBUG scheduler Queued events for site fhts.com
2021-06-16 15:30:32,529 DEBUG scheduler Queued events for site fhts.com
2021-06-16 15:30:32,576 INFO scheduler Scheduled Job Start: frappe.twofactor.delete_all_barcodes_for_users for fhts.com
2021-06-16 15:30:34,136 INFO scheduler Scheduled Job Complete: frappe.twofactor.delete_all_barcodes_for_users for fhts.com
2021-06-16 15:30:34,262 INFO scheduler Scheduled Job Start: frappe.website.doctype.web_page.web_page.check_publish_status for fhts.com
2021-06-16 15:30:36,144 INFO scheduler Scheduled Job Complete: frappe.website.doctype.web_page.web_page.check_publish_status for fhts.com
2021-06-16 15:30:36,241 INFO scheduler Scheduled Job Start: frappe.oauth.delete_oauth2_data for fhts.com
2021-06-16 15:30:36,812 INFO scheduler Scheduled Job Complete: frappe.oauth.delete_oauth2_data for fhts.com
2021-06-16 15:31:32,739 DEBUG scheduler Queued events for site fhts.com
2021-06-16 15:32:32,977 DEBUG scheduler Queued events for site fhts.com
2021-06-16 15:32:33,009 INFO scheduler Scheduled Job Start: frappe.monitor.flush for fhts.com
2021-06-16 15:32:33,183 INFO scheduler Scheduled Job Complete: frappe.monitor.flush for fhts.com
2021-06-16 15:32:33,268 INFO scheduler Scheduled Job Start: frappe.utils.global_search.sync_global_search for fhts.com
2021-06-16 15:32:33,405 INFO scheduler Scheduled Job Complete: frappe.utils.global_search.sync_global_search for fhts.com
2021-06-16 15:32:33,469 INFO scheduler Scheduled Job Start: frappe.integrations.doctype.razorpay_settings.razorpay_settings.capture_payment for fhts.com
2021-06-16 15:32:33,826 INFO scheduler Scheduled Job Complete: frappe.integrations.doctype.razorpay_settings.razorpay_settings.capture_payment for fhts.com
2021-06-16 15:32:33,888 INFO scheduler Scheduled Job Start: frappe.email.doctype.email_account.email_account.notify_unreplied for fhts.com
2021-06-16 15:32:34,208 INFO scheduler Scheduled Job Complete: frappe.email.doctype.email_account.email_account.notify_unreplied for fhts.com
2021-06-16 15:32:34,270 INFO scheduler Scheduled Job Start: frappe.email.doctype.email_account.email_account.pull for fhts.com
2021-06-16 15:32:34,579 INFO scheduler Scheduled Job Complete: frappe.email.doctype.email_account.email_account.pull for fhts.com
2021-06-16 15:32:34,643 INFO scheduler Scheduled Job Start: frappe.email.queue.flush for fhts.com
2021-06-16 15:32:34,944 INFO scheduler Scheduled Job Complete: frappe.email.queue.flush for fhts.com
2021-06-16 15:33:33,202 DEBUG scheduler Queued events for site fhts.com
2021-06-16 15:34:33,419 DEBUG scheduler Queued events for site fhts.com
2021-06-16 15:35:33,630 DEBUG scheduler Queued events for site fhts.com
2021-06-16 15:36:33,883 DEBUG scheduler Queued events for site fhts.com
2021-06-16 15:36:33,911 INFO scheduler Scheduled Job Start: frappe.monitor.flush for fhts.com
2021-06-16 15:36:34,092 INFO scheduler Scheduled Job Complete: frappe.monitor.flush for fhts.com
2021-06-16 15:36:34,203 INFO scheduler Scheduled Job Start: frappe.utils.global_search.sync_global_search for fhts.com
2021-06-16 15:36:34,356 INFO scheduler Scheduled Job Complete: frappe.utils.global_search.sync_global_search for fhts.com
2021-06-16 15:36:34,436 INFO scheduler Scheduled Job Start: frappe.integrations.doctype.razorpay_settings.razorpay_settings.capture_payment for fhts.com
2021-06-16 15:36:34,777 INFO scheduler Scheduled Job Complete: frappe.integrations.doctype.razorpay_settings.razorpay_settings.capture_payment for fhts.com
2021-06-16 15:36:34,840 INFO scheduler Scheduled Job Start: frappe.email.doctype.email_account.email_account.notify_unreplied for fhts.com
2021-06-16 15:36:35,117 INFO scheduler Scheduled Job Complete: frappe.email.doctype.email_account.email_account.notify_unreplied for fhts.com
2021-06-16 15:36:35,179 INFO scheduler Scheduled Job Start: frappe.email.doctype.email_account.email_account.pull for fhts.com
2021-06-16 15:36:35,536 INFO scheduler Scheduled Job Complete: frappe.email.doctype.email_account.email_account.pull for fhts.com
2021-06-16 15:36:35,605 INFO scheduler Scheduled Job Start: frappe.email.queue.flush for fhts.com
2021-06-16 15:36:35,904 INFO scheduler Scheduled Job Complete: frappe.email.queue.flush for fhts.com
2021-06-16 15:37:34,096 DEBUG scheduler Queued events for site fhts.com
2021-06-16 15:38:34,316 DEBUG scheduler Queued events for site fhts.com
2021-06-16 15:39:34,541 DEBUG scheduler Queued events for site fhts.com
2021-06-16 15:40:34,768 DEBUG scheduler Queued events for site fhts.com
2021-06-16 15:40:34,798 INFO scheduler Scheduled Job Start: frappe.monitor.flush for fhts.com
2021-06-16 15:40:34,939 INFO scheduler Scheduled Job Complete: frappe.monitor.flush for fhts.com
2021-06-16 15:40:35,004 INFO scheduler Scheduled Job Start: frappe.utils.global_search.sync_global_search for fhts.com
2021-06-16 15:40:35,150 INFO scheduler Scheduled Job Complete: frappe.utils.global_search.sync_global_search for fhts.com
2021-06-16 15:40:35,215 INFO scheduler Scheduled Job Start: frappe.integrations.doctype.razorpay_settings.razorpay_settings.capture_payment for fhts.com
2021-06-16 15:40:35,569 INFO scheduler Scheduled Job Complete: frappe.integrations.doctype.razorpay_settings.razorpay_settings.capture_payment for fhts.com
2021-06-16 15:40:35,637 INFO scheduler Scheduled Job Start: frappe.email.doctype.email_account.email_account.notify_unreplied for fhts.com
2021-06-16 15:40:36,008 INFO scheduler Scheduled Job Complete: frappe.email.doctype.email_account.email_account.notify_unreplied for fhts.com
2021-06-16 15:40:36,074 INFO scheduler Scheduled Job Start: frappe.email.doctype.email_account.email_account.pull for fhts.com
2021-06-16 15:40:36,379 INFO scheduler Scheduled Job Complete: frappe.email.doctype.email_account.email_account.pull for fhts.com
2021-06-16 15:40:36,448 INFO scheduler Scheduled Job Start: frappe.email.queue.flush for fhts.com
2021-06-16 15:40:36,681 INFO scheduler Scheduled Job Complete: frappe.email.queue.flush for fhts.com
2021-06-16 15:41:35,039 DEBUG scheduler Queued events for site fhts.com
2021-06-16 15:42:35,252 DEBUG scheduler Queued events for site fhts.com
2021-06-16 15:43:35,527 DEBUG scheduler Queued events for site fhts.com
2021-06-16 15:44:35,765 DEBUG scheduler Queued events for site fhts.com
2021-06-16 15:44:36,662 INFO scheduler Scheduled Job Start: frappe.monitor.flush for fhts.com
2021-06-16 15:44:37,857 INFO scheduler Scheduled Job Complete: frappe.monitor.flush for fhts.com
2021-06-16 15:44:38,011 INFO scheduler Scheduled Job Start: frappe.utils.global_search.sync_global_search for fhts.com
2021-06-16 15:44:38,155 INFO scheduler Scheduled Job Complete: frappe.utils.global_search.sync_global_search for fhts.com
2021-06-16 15:44:38,220 INFO scheduler Scheduled Job Start: frappe.integrations.doctype.razorpay_settings.razorpay_settings.capture_payment for fhts.com
2021-06-16 15:44:40,324 INFO scheduler Scheduled Job Complete: frappe.integrations.doctype.razorpay_settings.razorpay_settings.capture_payment for fhts.com
2021-06-16 15:44:40,408 INFO scheduler Scheduled Job Start: frappe.email.doctype.email_account.email_account.notify_unreplied for fhts.com
2021-06-16 15:44:40,757 INFO scheduler Scheduled Job Complete: frappe.email.doctype.email_account.email_account.notify_unreplied for fhts.com
2021-06-16 15:44:40,822 INFO scheduler Scheduled Job Start: frappe.email.doctype.email_account.email_account.pull for fhts.com
2021-06-16 15:44:41,123 INFO scheduler Scheduled Job Complete: frappe.email.doctype.email_account.email_account.pull for fhts.com
2021-06-16 15:44:41,188 INFO scheduler Scheduled Job Start: frappe.email.queue.flush for fhts.com
2021-06-16 15:44:41,476 INFO scheduler Scheduled Job Complete: frappe.email.queue.flush for fhts.com
2021-06-16 15:45:35,995 DEBUG scheduler Queued events for site fhts.com
2021-06-16 15:45:36,043 INFO scheduler Scheduled Job Start: frappe.twofactor.delete_all_barcodes_for_users for fhts.com
2021-06-16 15:45:36,745 INFO scheduler Scheduled Job Complete: frappe.twofactor.delete_all_barcodes_for_users for fhts.com
2021-06-16 15:45:36,845 INFO scheduler Scheduled Job Start: frappe.website.doctype.web_page.web_page.check_publish_status for fhts.com
2021-06-16 15:45:37,585 INFO scheduler Scheduled Job Complete: frappe.website.doctype.web_page.web_page.check_publish_status for fhts.com
2021-06-16 15:45:37,692 INFO scheduler Scheduled Job Start: frappe.oauth.delete_oauth2_data for fhts.com
2021-06-16 15:45:38,330 INFO scheduler Scheduled Job Complete: frappe.oauth.delete_oauth2_data for fhts.com
2021-06-16 15:46:36,214 DEBUG scheduler Queued events for site fhts.com
2021-06-16 15:47:36,435 DEBUG scheduler Queued events for site fhts.com
2021-06-16 16:11:16,903 INFO scheduler Scheduled Job Start: frappe.email.doctype.newsletter.newsletter.send_scheduled_email for fhts.com
2021-06-16 16:11:16,994 DEBUG scheduler Queued events for site fhts.com
2021-06-16 16:11:19,554 INFO scheduler Scheduled Job Complete: frappe.email.doctype.newsletter.newsletter.send_scheduled_email for fhts.com
2021-06-16 16:11:20,327 INFO scheduler Scheduled Job Start: frappe.integrations.doctype.google_calendar.google_calendar.sync for fhts.com
2021-06-16 16:11:31,810 INFO scheduler Scheduled Job Complete: frappe.integrations.doctype.google_calendar.google_calendar.sync for fhts.com
2021-06-16 16:11:32,010 INFO scheduler Scheduled Job Start: frappe.desk.form.document_follow.send_hourly_updates for fhts.com
2021-06-16 16:11:32,535 INFO scheduler Scheduled Job Complete: frappe.desk.form.document_follow.send_hourly_updates for fhts.com
2021-06-16 16:11:32,705 INFO scheduler Scheduled Job Start: frappe.deferred_insert.save_to_db for fhts.com
2021-06-16 16:11:33,431 INFO scheduler Scheduled Job Complete: frappe.deferred_insert.save_to_db for fhts.com
2021-06-16 16:11:33,643 INFO scheduler Scheduled Job Start: frappe.desk.page.backups.backups.delete_downloadable_backups for fhts.com
2021-06-16 16:11:34,729 INFO scheduler Scheduled Job Complete: frappe.desk.page.backups.backups.delete_downloadable_backups for fhts.com
2021-06-16 16:11:34,903 INFO scheduler Scheduled Job Start: frappe.utils.error.collect_error_snapshots for fhts.com
2021-06-16 16:11:35,487 INFO scheduler Scheduled Job Complete: frappe.utils.error.collect_error_snapshots for fhts.com
2021-06-16 16:11:35,670 INFO scheduler Scheduled Job Start: frappe.model.utils.user_settings.sync_user_settings for fhts.com
2021-06-16 16:11:36,045 INFO scheduler Scheduled Job Complete: frappe.model.utils.user_settings.sync_user_settings for fhts.com
2021-06-16 16:11:36,227 INFO scheduler Scheduled Job Start: frappe.model.utils.link_count.update_link_count for fhts.com
2021-06-16 16:11:36,706 INFO scheduler Scheduled Job Complete: frappe.model.utils.link_count.update_link_count for fhts.com
2021-06-16 16:11:36,884 INFO scheduler Scheduled Job Start: frappe.monitor.flush for fhts.com
2021-06-16 16:11:37,047 INFO scheduler Scheduled Job Complete: frappe.monitor.flush for fhts.com
2021-06-16 16:11:37,156 INFO scheduler Scheduled Job Start: frappe.utils.global_search.sync_global_search for fhts.com
2021-06-16 16:11:37,323 INFO scheduler Scheduled Job Complete: frappe.utils.global_search.sync_global_search for fhts.com
2021-06-16 16:11:37,423 INFO scheduler Scheduled Job Start: frappe.integrations.doctype.razorpay_settings.razorpay_settings.capture_payment for fhts.com
2021-06-16 16:11:37,782 INFO scheduler Scheduled Job Complete: frappe.integrations.doctype.razorpay_settings.razorpay_settings.capture_payment for fhts.com
2021-06-16 16:11:37,848 INFO scheduler Scheduled Job Start: frappe.email.doctype.email_account.email_account.notify_unreplied for fhts.com
2021-06-16 16:11:38,162 INFO scheduler Scheduled Job Complete: frappe.email.doctype.email_account.email_account.notify_unreplied for fhts.com
2021-06-16 16:11:38,224 INFO scheduler Scheduled Job Start: frappe.email.doctype.email_account.email_account.pull for fhts.com
2021-06-16 16:11:38,528 INFO scheduler Scheduled Job Complete: frappe.email.doctype.email_account.email_account.pull for fhts.com
2021-06-16 16:11:38,593 INFO scheduler Scheduled Job Start: frappe.email.queue.flush for fhts.com
2021-06-16 16:11:38,869 INFO scheduler Scheduled Job Complete: frappe.email.queue.flush for fhts.com
2021-06-16 16:11:38,934 INFO scheduler Scheduled Job Start: frappe.twofactor.delete_all_barcodes_for_users for fhts.com
2021-06-16 16:11:39,321 INFO scheduler Scheduled Job Complete: frappe.twofactor.delete_all_barcodes_for_users for fhts.com
2021-06-16 16:11:39,450 INFO scheduler Scheduled Job Start: frappe.website.doctype.web_page.web_page.check_publish_status for fhts.com
2021-06-16 16:11:39,874 INFO scheduler Scheduled Job Complete: frappe.website.doctype.web_page.web_page.check_publish_status for fhts.com
2021-06-16 16:11:40,000 INFO scheduler Scheduled Job Start: frappe.oauth.delete_oauth2_data for fhts.com
2021-06-16 16:11:40,389 INFO scheduler Scheduled Job Complete: frappe.oauth.delete_oauth2_data for fhts.com
2021-06-16 16:12:17,922 DEBUG scheduler Queued events for site fhts.com
2021-06-16 16:12:17,952 INFO scheduler Scheduled Job Start: frappe.monitor.flush for fhts.com
2021-06-16 16:12:18,103 INFO scheduler Scheduled Job Complete: frappe.monitor.flush for fhts.com
2021-06-16 16:12:18,167 INFO scheduler Scheduled Job Start: frappe.utils.global_search.sync_global_search for fhts.com
2021-06-16 16:12:18,315 INFO scheduler Scheduled Job Complete: frappe.utils.global_search.sync_global_search for fhts.com
2021-06-16 16:12:18,399 INFO scheduler Scheduled Job Start: frappe.integrations.doctype.razorpay_settings.razorpay_settings.capture_payment for fhts.com
2021-06-16 16:12:18,734 INFO scheduler Scheduled Job Complete: frappe.integrations.doctype.razorpay_settings.razorpay_settings.capture_payment for fhts.com
2021-06-16 16:12:18,802 INFO scheduler Scheduled Job Start: frappe.email.doctype.email_account.email_account.notify_unreplied for fhts.com
2021-06-16 16:12:19,091 INFO scheduler Scheduled Job Complete: frappe.email.doctype.email_account.email_account.notify_unreplied for fhts.com
2021-06-16 16:12:19,156 INFO scheduler Scheduled Job Start: frappe.email.doctype.email_account.email_account.pull for fhts.com
2021-06-16 16:12:19,477 INFO scheduler Scheduled Job Complete: frappe.email.doctype.email_account.email_account.pull for fhts.com
2021-06-16 16:12:19,542 INFO scheduler Scheduled Job Start: frappe.email.queue.flush for fhts.com
2021-06-16 16:12:19,809 INFO scheduler Scheduled Job Complete: frappe.email.queue.flush for fhts.com
2021-06-16 16:13:18,147 DEBUG scheduler Queued events for site fhts.com
2021-06-16 16:14:18,374 DEBUG scheduler Queued events for site fhts.com
2021-06-16 16:15:18,597 DEBUG scheduler Queued events for site fhts.com
2021-06-16 16:15:18,648 INFO scheduler Scheduled Job Start: frappe.twofactor.delete_all_barcodes_for_users for fhts.com
2021-06-16 16:15:19,027 INFO scheduler Scheduled Job Complete: frappe.twofactor.delete_all_barcodes_for_users for fhts.com
2021-06-16 16:15:19,116 INFO scheduler Scheduled Job Start: frappe.website.doctype.web_page.web_page.check_publish_status for fhts.com
2021-06-16 16:15:19,679 INFO scheduler Scheduled Job Complete: frappe.website.doctype.web_page.web_page.check_publish_status for fhts.com
2021-06-16 16:15:19,808 INFO scheduler Scheduled Job Start: frappe.oauth.delete_oauth2_data for fhts.com
2021-06-16 16:15:20,176 INFO scheduler Scheduled Job Complete: frappe.oauth.delete_oauth2_data for fhts.com
2021-06-16 16:16:18,838 DEBUG scheduler Queued events for site fhts.com
2021-06-16 16:16:18,869 INFO scheduler Scheduled Job Start: frappe.monitor.flush for fhts.com
2021-06-16 16:16:19,017 INFO scheduler Scheduled Job Complete: frappe.monitor.flush for fhts.com
2021-06-16 16:16:19,090 INFO scheduler Scheduled Job Start: frappe.utils.global_search.sync_global_search for fhts.com
2021-06-16 16:16:19,239 INFO scheduler Scheduled Job Complete: frappe.utils.global_search.sync_global_search for fhts.com
2021-06-16 16:16:19,322 INFO scheduler Scheduled Job Start: frappe.integrations.doctype.razorpay_settings.razorpay_settings.capture_payment for fhts.com
2021-06-16 16:16:19,662 INFO scheduler Scheduled Job Complete: frappe.integrations.doctype.razorpay_settings.razorpay_settings.capture_payment for fhts.com
2021-06-16 16:16:19,727 INFO scheduler Scheduled Job Start: frappe.email.doctype.email_account.email_account.notify_unreplied for fhts.com
2021-06-16 16:16:20,010 INFO scheduler Scheduled Job Complete: frappe.email.doctype.email_account.email_account.notify_unreplied for fhts.com
2021-06-16 16:16:20,073 INFO scheduler Scheduled Job Start: frappe.email.doctype.email_account.email_account.pull for fhts.com
2021-06-16 16:16:20,361 INFO scheduler Scheduled Job Complete: frappe.email.doctype.email_account.email_account.pull for fhts.com
2021-06-16 16:16:20,424 INFO scheduler Scheduled Job Start: frappe.email.queue.flush for fhts.com
2021-06-16 16:16:20,674 INFO scheduler Scheduled Job Complete: frappe.email.queue.flush for fhts.com
2021-06-16 16:17:19,043 DEBUG scheduler Queued events for site fhts.com
2021-06-16 16:18:19,268 DEBUG scheduler Queued events for site fhts.com
2021-06-16 16:19:19,475 DEBUG scheduler Queued events for site fhts.com
2021-06-16 16:20:19,726 DEBUG scheduler Queued events for site fhts.com
2021-06-16 16:20:19,790 INFO scheduler Scheduled Job Start: frappe.monitor.flush for fhts.com
2021-06-16 16:20:21,122 INFO scheduler Scheduled Job Complete: frappe.monitor.flush for fhts.com
2021-06-16 16:20:21,230 INFO scheduler Scheduled Job Start: frappe.utils.global_search.sync_global_search for fhts.com
2021-06-16 16:20:21,377 INFO scheduler Scheduled Job Complete: frappe.utils.global_search.sync_global_search for fhts.com
2021-06-16 16:20:21,456 INFO scheduler Scheduled Job Start: frappe.integrations.doctype.razorpay_settings.razorpay_settings.capture_payment for fhts.com
2021-06-16 16:20:22,148 INFO scheduler Scheduled Job Complete: frappe.integrations.doctype.razorpay_settings.razorpay_settings.capture_payment for fhts.com
2021-06-16 16:20:22,211 INFO scheduler Scheduled Job Start: frappe.email.doctype.email_account.email_account.notify_unreplied for fhts.com
2021-06-16 16:20:23,186 INFO scheduler Scheduled Job Complete: frappe.email.doctype.email_account.email_account.notify_unreplied for fhts.com
2021-06-16 16:20:23,251 INFO scheduler Scheduled Job Start: frappe.email.doctype.email_account.email_account.pull for fhts.com
2021-06-16 16:20:23,566 INFO scheduler Scheduled Job Complete: frappe.email.doctype.email_account.email_account.pull for fhts.com
2021-06-16 16:20:23,630 INFO scheduler Scheduled Job Start: frappe.email.queue.flush for fhts.com
2021-06-16 16:20:23,898 INFO scheduler Scheduled Job Complete: frappe.email.queue.flush for fhts.com
2021-06-16 16:21:19,979 DEBUG scheduler Queued events for site fhts.com
2021-06-16 16:22:20,180 DEBUG scheduler Queued events for site fhts.com
2021-06-16 16:23:20,374 DEBUG scheduler Queued events for site fhts.com
2021-06-16 16:24:20,655 DEBUG scheduler Queued events for site fhts.com
2021-06-16 16:24:21,042 INFO scheduler Scheduled Job Start: frappe.monitor.flush for fhts.com
2021-06-16 16:24:21,563 INFO scheduler Scheduled Job Complete: frappe.monitor.flush for fhts.com
2021-06-16 16:24:21,661 INFO scheduler Scheduled Job Start: frappe.utils.global_search.sync_global_search for fhts.com
2021-06-16 16:24:21,829 INFO scheduler Scheduled Job Complete: frappe.utils.global_search.sync_global_search for fhts.com
2021-06-16 16:24:21,940 INFO scheduler Scheduled Job Start: frappe.integrations.doctype.razorpay_settings.razorpay_settings.capture_payment for fhts.com
2021-06-16 16:24:22,432 INFO scheduler Scheduled Job Complete: frappe.integrations.doctype.razorpay_settings.razorpay_settings.capture_payment for fhts.com
2021-06-16 16:24:22,498 INFO scheduler Scheduled Job Start: frappe.email.doctype.email_account.email_account.notify_unreplied for fhts.com
2021-06-16 16:24:22,857 INFO scheduler Scheduled Job Complete: frappe.email.doctype.email_account.email_account.notify_unreplied for fhts.com
2021-06-16 16:24:22,925 INFO scheduler Scheduled Job Start: frappe.email.doctype.email_account.email_account.pull for fhts.com
2021-06-16 16:24:23,324 INFO scheduler Scheduled Job Complete: frappe.email.doctype.email_account.email_account.pull for fhts.com
2021-06-16 16:24:23,435 INFO scheduler Scheduled Job Start: frappe.email.queue.flush for fhts.com
2021-06-16 16:24:23,728 INFO scheduler Scheduled Job Complete: frappe.email.queue.flush for fhts.com
2021-06-16 16:25:20,870 DEBUG scheduler Queued events for site fhts.com
2021-06-16 16:26:21,102 DEBUG scheduler Queued events for site fhts.com
2021-06-16 16:27:21,312 DEBUG scheduler Queued events for site fhts.com
2021-06-16 16:28:21,705 DEBUG scheduler Queued events for site fhts.com
2021-06-16 16:28:21,801 INFO scheduler Scheduled Job Start: frappe.monitor.flush for fhts.com
2021-06-16 16:28:22,183 INFO scheduler Scheduled Job Complete: frappe.monitor.flush for fhts.com
2021-06-16 16:28:22,276 INFO scheduler Scheduled Job Start: frappe.utils.global_search.sync_global_search for fhts.com
2021-06-16 16:28:22,500 INFO scheduler Scheduled Job Complete: frappe.utils.global_search.sync_global_search for fhts.com
2021-06-16 16:28:22,610 INFO scheduler Scheduled Job Start: frappe.integrations.doctype.razorpay_settings.razorpay_settings.capture_payment for fhts.com
2021-06-16 16:28:23,353 INFO scheduler Scheduled Job Complete: frappe.integrations.doctype.razorpay_settings.razorpay_settings.capture_payment for fhts.com
2021-06-16 16:28:23,422 INFO scheduler Scheduled Job Start: frappe.email.doctype.email_account.email_account.notify_unreplied for fhts.com
2021-06-16 16:28:24,273 INFO scheduler Scheduled Job Complete: frappe.email.doctype.email_account.email_account.notify_unreplied for fhts.com
2021-06-16 16:28:24,345 INFO scheduler Scheduled Job Start: frappe.email.doctype.email_account.email_account.pull for fhts.com
2021-06-16 16:28:24,806 INFO scheduler Scheduled Job Complete: frappe.email.doctype.email_account.email_account.pull for fhts.com
2021-06-16 16:28:24,908 INFO scheduler Scheduled Job Start: frappe.email.queue.flush for fhts.com
2021-06-16 16:28:25,227 INFO scheduler Scheduled Job Complete: frappe.email.queue.flush for fhts.com
2021-06-16 16:29:22,133 DEBUG scheduler Queued events for site fhts.com
2021-06-16 16:30:22,336 DEBUG scheduler Queued events for site fhts.com
2021-06-16 16:30:22,393 INFO scheduler Scheduled Job Start: frappe.twofactor.delete_all_barcodes_for_users for fhts.com
2021-06-16 16:30:23,286 INFO scheduler Scheduled Job Complete: frappe.twofactor.delete_all_barcodes_for_users for fhts.com
2021-06-16 16:30:23,418 INFO scheduler Scheduled Job Start: frappe.website.doctype.web_page.web_page.check_publish_status for fhts.com
2021-06-16 16:30:24,659 INFO scheduler Scheduled Job Complete: frappe.website.doctype.web_page.web_page.check_publish_status for fhts.com
2021-06-16 16:30:24,846 INFO scheduler Scheduled Job Start: frappe.oauth.delete_oauth2_data for fhts.com
2021-06-16 16:30:25,555 INFO scheduler Scheduled Job Complete: frappe.oauth.delete_oauth2_data for fhts.com
2021-06-16 16:31:22,558 DEBUG scheduler Queued events for site fhts.com
2021-06-16 16:32:22,812 DEBUG scheduler Queued events for site fhts.com
2021-06-16 16:32:22,839 INFO scheduler Scheduled Job Start: frappe.monitor.flush for fhts.com
2021-06-16 16:32:22,990 INFO scheduler Scheduled Job Complete: frappe.monitor.flush for fhts.com
2021-06-16 16:32:23,094 INFO scheduler Scheduled Job Start: frappe.utils.global_search.sync_global_search for fhts.com
2021-06-16 16:32:23,233 INFO scheduler Scheduled Job Complete: frappe.utils.global_search.sync_global_search for fhts.com
2021-06-16 16:32:23,310 INFO scheduler Scheduled Job Start: frappe.integrations.doctype.razorpay_settings.razorpay_settings.capture_payment for fhts.com
2021-06-16 16:32:23,936 INFO scheduler Scheduled Job Complete: frappe.integrations.doctype.razorpay_settings.razorpay_settings.capture_payment for fhts.com
2021-06-16 16:32:24,008 INFO scheduler Scheduled Job Start: frappe.email.doctype.email_account.email_account.notify_unreplied for fhts.com
2021-06-16 16:32:24,641 INFO scheduler Scheduled Job Complete: frappe.email.doctype.email_account.email_account.notify_unreplied for fhts.com
2021-06-16 16:32:24,717 INFO scheduler Scheduled Job Start: frappe.email.doctype.email_account.email_account.pull for fhts.com
2021-06-16 16:32:25,022 INFO scheduler Scheduled Job Complete: frappe.email.doctype.email_account.email_account.pull for fhts.com
2021-06-16 16:32:25,097 INFO scheduler Scheduled Job Start: frappe.email.queue.flush for fhts.com
2021-06-16 16:32:25,334 INFO scheduler Scheduled Job Complete: frappe.email.queue.flush for fhts.com
2021-06-16 16:33:23,021 DEBUG scheduler Queued events for site fhts.com
2021-06-16 16:34:23,235 DEBUG scheduler Queued events for site fhts.com
2021-06-16 16:35:23,484 DEBUG scheduler Queued events for site fhts.com
2021-06-16 16:36:23,709 DEBUG scheduler Queued events for site fhts.com
2021-06-16 16:36:30,572 INFO scheduler Scheduled Job Start: frappe.monitor.flush for fhts.com
2021-06-16 16:36:34,600 INFO scheduler Scheduled Job Complete: frappe.monitor.flush for fhts.com
2021-06-16 16:36:35,043 INFO scheduler Scheduled Job Start: frappe.utils.global_search.sync_global_search for fhts.com
2021-06-16 16:36:35,263 INFO scheduler Scheduled Job Complete: frappe.utils.global_search.sync_global_search for fhts.com
2021-06-16 16:36:35,330 INFO scheduler Scheduled Job Start: frappe.integrations.doctype.razorpay_settings.razorpay_settings.capture_payment for fhts.com
2021-06-16 16:36:39,599 INFO scheduler Scheduled Job Complete: frappe.integrations.doctype.razorpay_settings.razorpay_settings.capture_payment for fhts.com
2021-06-16 16:36:39,732 INFO scheduler Scheduled Job Start: frappe.email.doctype.email_account.email_account.notify_unreplied for fhts.com
2021-06-16 16:36:40,943 INFO scheduler Scheduled Job Complete: frappe.email.doctype.email_account.email_account.notify_unreplied for fhts.com
2021-06-16 16:36:41,010 INFO scheduler Scheduled Job Start: frappe.email.doctype.email_account.email_account.pull for fhts.com
2021-06-16 16:36:41,374 INFO scheduler Scheduled Job Complete: frappe.email.doctype.email_account.email_account.pull for fhts.com
2021-06-16 16:36:41,466 INFO scheduler Scheduled Job Start: frappe.email.queue.flush for fhts.com
2021-06-16 16:36:41,769 INFO scheduler Scheduled Job Complete: frappe.email.queue.flush for fhts.com
2021-06-16 16:37:23,896 DEBUG scheduler Queued events for site fhts.com
2021-06-16 16:38:24,117 DEBUG scheduler Queued events for site fhts.com
2021-06-16 16:39:24,353 DEBUG scheduler Queued events for site fhts.com
2021-06-16 16:40:24,615 DEBUG scheduler Queued events for site fhts.com
2021-06-16 16:40:24,653 INFO scheduler Scheduled Job Start: frappe.monitor.flush for fhts.com
2021-06-16 16:40:24,866 INFO scheduler Scheduled Job Complete: frappe.monitor.flush for fhts.com
2021-06-16 16:40:24,942 INFO scheduler Scheduled Job Start: frappe.utils.global_search.sync_global_search for fhts.com
2021-06-16 16:40:25,113 INFO scheduler Scheduled Job Complete: frappe.utils.global_search.sync_global_search for fhts.com
2021-06-16 16:40:25,251 INFO scheduler Scheduled Job Start: frappe.integrations.doctype.razorpay_settings.razorpay_settings.capture_payment for fhts.com
2021-06-16 16:40:25,706 INFO scheduler Scheduled Job Complete: frappe.integrations.doctype.razorpay_settings.razorpay_settings.capture_payment for fhts.com
2021-06-16 16:40:25,799 INFO scheduler Scheduled Job Start: frappe.email.doctype.email_account.email_account.notify_unreplied for fhts.com
2021-06-16 16:40:26,126 INFO scheduler Scheduled Job Complete: frappe.email.doctype.email_account.email_account.notify_unreplied for fhts.com
2021-06-16 16:40:26,198 INFO scheduler Scheduled Job Start: frappe.email.doctype.email_account.email_account.pull for fhts.com
2021-06-16 16:40:26,685 INFO scheduler Scheduled Job Complete: frappe.email.doctype.email_account.email_account.pull for fhts.com
2021-06-16 16:40:26,767 INFO scheduler Scheduled Job Start: frappe.email.queue.flush for fhts.com
2021-06-16 16:40:27,024 INFO scheduler Scheduled Job Complete: frappe.email.queue.flush for fhts.com
2021-06-16 16:41:24,847 DEBUG scheduler Queued events for site fhts.com
2021-06-21 18:27:26,130 INFO scheduler Scheduled Job Start: frappe.integrations.doctype.google_drive.google_drive.weekly_backup for fhts.com
2021-06-21 18:27:26,131 INFO scheduler Scheduled Job Start: frappe.core.doctype.log_settings.log_settings.run_log_clean_up for fhts.com
2021-06-21 18:27:27,660 DEBUG scheduler Queued events for site fhts.com
2021-06-21 18:27:34,213 INFO scheduler Scheduled Job Complete: frappe.core.doctype.log_settings.log_settings.run_log_clean_up for fhts.com
2021-06-21 18:27:34,480 INFO scheduler Scheduled Job Start: frappe.core.doctype.prepared_report.prepared_report.delete_expired_prepared_reports for fhts.com
2021-06-21 18:27:36,298 INFO scheduler Scheduled Job Complete: frappe.integrations.doctype.google_drive.google_drive.weekly_backup for fhts.com
2021-06-21 18:27:36,331 INFO scheduler Scheduled Job Complete: frappe.core.doctype.prepared_report.prepared_report.delete_expired_prepared_reports for fhts.com
2021-06-21 18:27:36,569 INFO scheduler Scheduled Job Start: frappe.social.doctype.energy_point_log.energy_point_log.send_weekly_summary for fhts.com
2021-06-21 18:27:36,600 INFO scheduler Scheduled Job Start: frappe.email.doctype.unhandled_email.unhandled_email.remove_old_unhandled_emails for fhts.com
2021-06-21 18:27:38,023 INFO scheduler Scheduled Job Complete: frappe.email.doctype.unhandled_email.unhandled_email.remove_old_unhandled_emails for fhts.com
2021-06-21 18:27:38,395 INFO scheduler Scheduled Job Complete: frappe.social.doctype.energy_point_log.energy_point_log.send_weekly_summary for fhts.com
2021-06-21 18:27:38,410 INFO scheduler Scheduled Job Start: frappe.automation.doctype.auto_repeat.auto_repeat.set_auto_repeat_as_completed for fhts.com
2021-06-21 18:27:38,602 INFO scheduler Scheduled Job Start: frappe.desk.form.document_follow.send_weekly_updates for fhts.com
2021-06-21 18:27:39,407 INFO scheduler Scheduled Job Complete: frappe.desk.form.document_follow.send_weekly_updates for fhts.com
2021-06-21 18:27:40,154 INFO scheduler Scheduled Job Start: frappe.desk.doctype.route_history.route_history.flush_old_route_records for fhts.com
2021-06-21 18:27:40,385 INFO scheduler Scheduled Job Complete: frappe.automation.doctype.auto_repeat.auto_repeat.set_auto_repeat_as_completed for fhts.com
2021-06-21 18:27:40,689 INFO scheduler Scheduled Job Start: frappe.automation.doctype.auto_repeat.auto_repeat.make_auto_repeat_entry for fhts.com
2021-06-21 18:27:42,748 INFO scheduler Scheduled Job Complete: frappe.desk.doctype.route_history.route_history.flush_old_route_records for fhts.com
2021-06-21 18:27:43,064 INFO scheduler Scheduled Job Complete: frappe.automation.doctype.auto_repeat.auto_repeat.make_auto_repeat_entry for fhts.com
2021-06-21 18:27:43,482 INFO scheduler Scheduled Job Start: frappe.integrations.doctype.s3_backup_settings.s3_backup_settings.take_backups_weekly for fhts.com
2021-06-21 18:27:43,483 INFO scheduler Scheduled Job Start: frappe.integrations.doctype.google_contacts.google_contacts.sync for fhts.com
2021-06-21 18:27:52,701 INFO scheduler Scheduled Job Complete: frappe.integrations.doctype.google_contacts.google_contacts.sync for fhts.com
2021-06-21 18:27:53,487 INFO scheduler Scheduled Job Complete: frappe.integrations.doctype.s3_backup_settings.s3_backup_settings.take_backups_weekly for fhts.com
2021-06-21 18:27:59,795 INFO scheduler Scheduled Job Start: frappe.social.doctype.energy_point_settings.energy_point_settings.allocate_review_points for fhts.com
2021-06-21 18:27:59,795 INFO scheduler Scheduled Job Start: frappe.integrations.doctype.dropbox_settings.dropbox_settings.take_backups_weekly for fhts.com
2021-06-21 18:28:28,545 DEBUG scheduler Queued events for site fhts.com
2021-06-21 18:28:31,065 INFO scheduler Scheduled Job Complete: frappe.social.doctype.energy_point_settings.energy_point_settings.allocate_review_points for fhts.com
2021-06-21 18:28:38,168 INFO scheduler Scheduled Job Start: frappe.desk.form.document_follow.send_daily_updates for fhts.com
2021-06-21 18:28:43,575 INFO scheduler Scheduled Job Complete: frappe.integrations.doctype.dropbox_settings.dropbox_settings.take_backups_weekly for fhts.com
2021-06-21 18:28:46,814 INFO scheduler Scheduled Job Start: frappe.integrations.doctype.google_drive.google_drive.daily_backup for fhts.com
2021-06-21 18:28:50,147 INFO scheduler Scheduled Job Complete: frappe.desk.form.document_follow.send_daily_updates for fhts.com
2021-06-21 18:28:50,449 INFO scheduler Scheduled Job Start: frappe.website.doctype.personal_data_deletion_request.personal_data_deletion_request.remove_unverified_record for fhts.com
2021-06-21 18:28:51,463 INFO scheduler Scheduled Job Complete: frappe.website.doctype.personal_data_deletion_request.personal_data_deletion_request.remove_unverified_record for fhts.com
2021-06-21 18:28:51,792 INFO scheduler Scheduled Job Start: frappe.email.doctype.auto_email_report.auto_email_report.send_daily for fhts.com
2021-06-21 18:28:54,612 INFO scheduler Scheduled Job Complete: frappe.integrations.doctype.google_drive.google_drive.daily_backup for fhts.com
2021-06-21 18:28:54,850 INFO scheduler Scheduled Job Start: frappe.integrations.doctype.s3_backup_settings.s3_backup_settings.take_backups_daily for fhts.com
2021-06-21 18:28:57,740 INFO scheduler Scheduled Job Complete: frappe.email.doctype.auto_email_report.auto_email_report.send_daily for fhts.com
2021-06-21 18:28:57,938 INFO scheduler Scheduled Job Start: frappe.utils.scheduler.restrict_scheduler_events_if_dormant for fhts.com
2021-06-21 18:28:57,950 INFO scheduler Scheduled Job Complete: frappe.integrations.doctype.s3_backup_settings.s3_backup_settings.take_backups_daily for fhts.com
2021-06-21 18:28:58,095 INFO scheduler Scheduled Job Start: frappe.utils.change_log.check_for_update for fhts.com
2021-06-21 18:28:58,864 INFO scheduler Scheduled Job Failed: frappe.utils.scheduler.restrict_scheduler_events_if_dormant for fhts.com
2021-06-21 18:28:59,266 INFO scheduler Scheduled Job Start: frappe.realtime.remove_old_task_logs for fhts.com
2021-06-21 18:28:59,673 INFO scheduler Scheduled Job Complete: frappe.realtime.remove_old_task_logs for fhts.com
2021-06-21 18:28:59,897 INFO scheduler Scheduled Job Start: frappe.email.doctype.notification.notification.trigger_daily_alerts for fhts.com
2021-06-21 18:29:00,759 INFO scheduler Scheduled Job Complete: frappe.utils.change_log.check_for_update for fhts.com
2021-06-21 18:29:01,010 INFO scheduler Scheduled Job Complete: frappe.email.doctype.notification.notification.trigger_daily_alerts for fhts.com
2021-06-21 18:29:01,023 INFO scheduler Scheduled Job Start: frappe.integrations.doctype.dropbox_settings.dropbox_settings.take_backups_daily for fhts.com
2021-06-21 18:29:01,150 INFO scheduler Scheduled Job Start: frappe.sessions.clear_expired_sessions for fhts.com
2021-06-21 18:29:02,606 INFO scheduler Scheduled Job Complete: frappe.integrations.doctype.dropbox_settings.dropbox_settings.take_backups_daily for fhts.com
2021-06-21 18:29:02,944 INFO scheduler Scheduled Job Complete: frappe.sessions.clear_expired_sessions for fhts.com
2021-06-21 18:29:03,142 INFO scheduler Scheduled Job Start: frappe.desk.doctype.event.event.send_event_digest for fhts.com
2021-06-21 18:29:03,837 INFO scheduler Scheduled Job Complete: frappe.desk.doctype.event.event.send_event_digest for fhts.com
2021-06-21 18:29:05,063 INFO scheduler Scheduled Job Start: frappe.core.doctype.error_log.error_log.set_old_logs_as_seen for fhts.com
2021-06-21 18:29:05,615 INFO scheduler Scheduled Job Complete: frappe.core.doctype.error_log.error_log.set_old_logs_as_seen for fhts.com
2021-06-21 18:29:05,806 INFO scheduler Scheduled Job Start: frappe.desk.notifications.clear_notifications for fhts.com
2021-06-21 18:29:06,229 INFO scheduler Scheduled Job Complete: frappe.desk.notifications.clear_notifications for fhts.com
2021-06-21 18:29:06,431 INFO scheduler Scheduled Job Start: frappe.email.queue.set_expiry_for_email_queue for fhts.com
2021-06-21 18:29:07,572 INFO scheduler Scheduled Job Complete: frappe.email.queue.set_expiry_for_email_queue for fhts.com
2021-06-21 18:29:07,801 INFO scheduler Scheduled Job Start: frappe.email.doctype.newsletter.newsletter.send_scheduled_email for fhts.com
2021-06-21 18:29:11,207 INFO scheduler Scheduled Job Complete: frappe.email.doctype.newsletter.newsletter.send_scheduled_email for fhts.com
2021-06-21 18:29:11,382 INFO scheduler Scheduled Job Start: frappe.integrations.doctype.google_calendar.google_calendar.sync for fhts.com
2021-06-21 18:29:12,012 INFO scheduler Scheduled Job Complete: frappe.integrations.doctype.google_calendar.google_calendar.sync for fhts.com
2021-06-21 18:29:12,229 INFO scheduler Scheduled Job Start: frappe.desk.form.document_follow.send_hourly_updates for fhts.com
2021-06-21 18:29:12,670 INFO scheduler Scheduled Job Complete: frappe.desk.form.document_follow.send_hourly_updates for fhts.com
2021-06-21 18:29:12,842 INFO scheduler Scheduled Job Start: frappe.deferred_insert.save_to_db for fhts.com
2021-06-21 18:29:13,319 INFO scheduler Scheduled Job Complete: frappe.deferred_insert.save_to_db for fhts.com
2021-06-21 18:29:13,539 INFO scheduler Scheduled Job Start: frappe.desk.page.backups.backups.delete_downloadable_backups for fhts.com
2021-06-21 18:29:14,067 INFO scheduler Scheduled Job Complete: frappe.desk.page.backups.backups.delete_downloadable_backups for fhts.com
2021-06-21 18:29:14,255 INFO scheduler Scheduled Job Start: frappe.utils.error.collect_error_snapshots for fhts.com
2021-06-21 18:29:16,861 INFO scheduler Scheduled Job Complete: frappe.utils.error.collect_error_snapshots for fhts.com
2021-06-21 18:29:17,095 INFO scheduler Scheduled Job Start: frappe.model.utils.user_settings.sync_user_settings for fhts.com
2021-06-21 18:29:28,836 DEBUG scheduler Queued events for site fhts.com
