2021-06-12 15:12:48,767 INFO scheduler Scheduled Job Start: frappe.email.doctype.email_account.email_account.notify_unreplied for fhts.com
2021-06-12 15:12:49,091 INFO scheduler Scheduled Job Complete: frappe.email.doctype.email_account.email_account.notify_unreplied for fhts.com
2021-06-12 15:12:49,152 INFO scheduler Scheduled Job Start: frappe.email.doctype.email_account.email_account.pull for fhts.com
2021-06-12 15:12:49,534 INFO scheduler Scheduled Job Complete: frappe.email.doctype.email_account.email_account.pull for fhts.com
2021-06-12 15:12:49,600 INFO scheduler Scheduled Job Start: frappe.email.queue.flush for fhts.com
2021-06-12 15:12:49,833 INFO scheduler Scheduled Job Complete: frappe.email.queue.flush for fhts.com
