2021-06-21 18:30:29,063 DEBUG scheduler Queued events for site fhts.com
2021-06-21 18:30:29,117 INFO scheduler Scheduled Job Start: frappe.twofactor.delete_all_barcodes_for_users for fhts.com
2021-06-21 18:30:29,660 INFO scheduler Scheduled Job Complete: frappe.twofactor.delete_all_barcodes_for_users for fhts.com
2021-06-21 18:30:29,904 INFO scheduler Scheduled Job Start: frappe.website.doctype.web_page.web_page.check_publish_status for fhts.com
2021-06-21 18:30:30,494 INFO scheduler Scheduled Job Complete: frappe.website.doctype.web_page.web_page.check_publish_status for fhts.com
2021-06-21 18:30:30,632 INFO scheduler Scheduled Job Start: frappe.oauth.delete_oauth2_data for fhts.com
2021-06-21 18:30:31,124 INFO scheduler Scheduled Job Complete: frappe.oauth.delete_oauth2_data for fhts.com
2021-06-21 18:31:29,303 DEBUG scheduler Queued events for site fhts.com
2021-06-21 18:32:29,703 DEBUG scheduler Queued events for site fhts.com
2021-06-21 18:32:29,856 INFO scheduler Scheduled Job Start: frappe.monitor.flush for fhts.com
2021-06-21 18:32:30,141 INFO scheduler Scheduled Job Complete: frappe.monitor.flush for fhts.com
2021-06-21 18:32:30,287 INFO scheduler Scheduled Job Start: frappe.utils.global_search.sync_global_search for fhts.com
2021-06-21 18:32:30,518 INFO scheduler Scheduled Job Complete: frappe.utils.global_search.sync_global_search for fhts.com
2021-06-21 18:32:30,664 INFO scheduler Scheduled Job Start: frappe.integrations.doctype.razorpay_settings.razorpay_settings.capture_payment for fhts.com
2021-06-21 18:32:31,651 INFO scheduler Scheduled Job Complete: frappe.integrations.doctype.razorpay_settings.razorpay_settings.capture_payment for fhts.com
2021-06-21 18:32:31,749 INFO scheduler Scheduled Job Start: frappe.email.doctype.email_account.email_account.notify_unreplied for fhts.com
2021-06-21 18:32:32,163 INFO scheduler Scheduled Job Complete: frappe.email.doctype.email_account.email_account.notify_unreplied for fhts.com
2021-06-21 18:32:32,246 INFO scheduler Scheduled Job Start: frappe.email.doctype.email_account.email_account.pull for fhts.com
2021-06-21 18:32:32,624 INFO scheduler Scheduled Job Complete: frappe.email.doctype.email_account.email_account.pull for fhts.com
2021-06-21 18:32:32,704 INFO scheduler Scheduled Job Start: frappe.email.queue.flush for fhts.com
2021-06-21 18:32:33,035 INFO scheduler Scheduled Job Complete: frappe.email.queue.flush for fhts.com
2021-06-21 18:33:29,927 DEBUG scheduler Queued events for site fhts.com
2021-06-21 18:34:30,257 DEBUG scheduler Queued events for site fhts.com
2021-06-21 18:35:30,540 DEBUG scheduler Queued events for site fhts.com
2021-06-21 18:36:30,788 DEBUG scheduler Queued events for site fhts.com
2021-06-21 18:36:30,815 INFO scheduler Scheduled Job Start: frappe.monitor.flush for fhts.com
2021-06-21 18:36:31,049 INFO scheduler Scheduled Job Complete: frappe.monitor.flush for fhts.com
2021-06-21 18:36:31,179 INFO scheduler Scheduled Job Start: frappe.utils.global_search.sync_global_search for fhts.com
2021-06-21 18:36:31,325 INFO scheduler Scheduled Job Complete: frappe.utils.global_search.sync_global_search for fhts.com
2021-06-21 18:36:31,387 INFO scheduler Scheduled Job Start: frappe.integrations.doctype.razorpay_settings.razorpay_settings.capture_payment for fhts.com
2021-06-21 18:36:31,720 INFO scheduler Scheduled Job Complete: frappe.integrations.doctype.razorpay_settings.razorpay_settings.capture_payment for fhts.com
2021-06-21 18:36:31,780 INFO scheduler Scheduled Job Start: frappe.email.doctype.email_account.email_account.notify_unreplied for fhts.com
2021-06-21 18:36:32,241 INFO scheduler Scheduled Job Complete: frappe.email.doctype.email_account.email_account.notify_unreplied for fhts.com
2021-06-21 18:36:32,303 INFO scheduler Scheduled Job Start: frappe.email.doctype.email_account.email_account.pull for fhts.com
2021-06-21 18:36:32,633 INFO scheduler Scheduled Job Complete: frappe.email.doctype.email_account.email_account.pull for fhts.com
2021-06-21 18:36:32,695 INFO scheduler Scheduled Job Start: frappe.email.queue.flush for fhts.com
2021-06-21 18:36:32,925 INFO scheduler Scheduled Job Complete: frappe.email.queue.flush for fhts.com
2021-06-21 18:37:31,006 DEBUG scheduler Queued events for site fhts.com
2021-06-21 18:38:31,216 DEBUG scheduler Queued events for site fhts.com
2021-06-21 18:39:31,435 DEBUG scheduler Queued events for site fhts.com
2021-06-21 18:40:31,695 DEBUG scheduler Queued events for site fhts.com
2021-06-21 18:40:31,723 INFO scheduler Scheduled Job Start: frappe.monitor.flush for fhts.com
2021-06-21 18:40:31,865 INFO scheduler Scheduled Job Complete: frappe.monitor.flush for fhts.com
2021-06-21 18:40:31,928 INFO scheduler Scheduled Job Start: frappe.utils.global_search.sync_global_search for fhts.com
2021-06-21 18:40:32,076 INFO scheduler Scheduled Job Complete: frappe.utils.global_search.sync_global_search for fhts.com
2021-06-21 18:40:32,141 INFO scheduler Scheduled Job Start: frappe.integrations.doctype.razorpay_settings.razorpay_settings.capture_payment for fhts.com
2021-06-21 18:40:32,558 INFO scheduler Scheduled Job Complete: frappe.integrations.doctype.razorpay_settings.razorpay_settings.capture_payment for fhts.com
2021-06-21 18:40:32,719 INFO scheduler Scheduled Job Start: frappe.email.doctype.email_account.email_account.notify_unreplied for fhts.com
2021-06-21 18:40:33,232 INFO scheduler Scheduled Job Complete: frappe.email.doctype.email_account.email_account.notify_unreplied for fhts.com
2021-06-21 18:40:33,363 INFO scheduler Scheduled Job Start: frappe.email.doctype.email_account.email_account.pull for fhts.com
2021-06-21 18:40:34,037 INFO scheduler Scheduled Job Complete: frappe.email.doctype.email_account.email_account.pull for fhts.com
2021-06-21 18:40:34,120 INFO scheduler Scheduled Job Start: frappe.email.queue.flush for fhts.com
2021-06-21 18:40:34,570 INFO scheduler Scheduled Job Complete: frappe.email.queue.flush for fhts.com
2021-06-21 18:41:32,092 DEBUG scheduler Queued events for site fhts.com
2021-06-21 18:42:32,372 DEBUG scheduler Queued events for site fhts.com
2021-06-21 18:43:32,695 DEBUG scheduler Queued events for site fhts.com
2021-06-21 18:44:33,029 DEBUG scheduler Queued events for site fhts.com
2021-06-21 18:44:33,059 INFO scheduler Scheduled Job Start: frappe.monitor.flush for fhts.com
2021-06-21 18:44:33,424 INFO scheduler Scheduled Job Complete: frappe.monitor.flush for fhts.com
2021-06-21 18:44:33,487 INFO scheduler Scheduled Job Start: frappe.utils.global_search.sync_global_search for fhts.com
2021-06-21 18:44:33,625 INFO scheduler Scheduled Job Complete: frappe.utils.global_search.sync_global_search for fhts.com
2021-06-21 18:44:33,687 INFO scheduler Scheduled Job Start: frappe.integrations.doctype.razorpay_settings.razorpay_settings.capture_payment for fhts.com
2021-06-21 18:44:34,179 INFO scheduler Scheduled Job Complete: frappe.integrations.doctype.razorpay_settings.razorpay_settings.capture_payment for fhts.com
2021-06-21 18:44:34,250 INFO scheduler Scheduled Job Start: frappe.email.doctype.email_account.email_account.notify_unreplied for fhts.com
2021-06-21 18:44:34,660 INFO scheduler Scheduled Job Complete: frappe.email.doctype.email_account.email_account.notify_unreplied for fhts.com
2021-06-21 18:44:34,726 INFO scheduler Scheduled Job Start: frappe.email.doctype.email_account.email_account.pull for fhts.com
2021-06-21 18:44:35,098 INFO scheduler Scheduled Job Complete: frappe.email.doctype.email_account.email_account.pull for fhts.com
2021-06-21 18:44:35,164 INFO scheduler Scheduled Job Start: frappe.email.queue.flush for fhts.com
2021-06-21 18:44:35,467 INFO scheduler Scheduled Job Complete: frappe.email.queue.flush for fhts.com
2021-06-21 18:45:33,257 DEBUG scheduler Queued events for site fhts.com
2021-06-21 18:45:33,306 INFO scheduler Scheduled Job Start: frappe.twofactor.delete_all_barcodes_for_users for fhts.com
2021-06-21 18:45:33,928 INFO scheduler Scheduled Job Complete: frappe.twofactor.delete_all_barcodes_for_users for fhts.com
2021-06-21 18:45:34,052 INFO scheduler Scheduled Job Start: frappe.website.doctype.web_page.web_page.check_publish_status for fhts.com
2021-06-21 18:45:34,573 INFO scheduler Scheduled Job Complete: frappe.website.doctype.web_page.web_page.check_publish_status for fhts.com
2021-06-21 18:45:34,707 INFO scheduler Scheduled Job Start: frappe.oauth.delete_oauth2_data for fhts.com
2021-06-21 18:45:35,500 INFO scheduler Scheduled Job Complete: frappe.oauth.delete_oauth2_data for fhts.com
2021-06-21 18:46:33,528 DEBUG scheduler Queued events for site fhts.com
2021-06-21 18:47:33,713 DEBUG scheduler Queued events for site fhts.com
2021-06-21 18:48:33,971 DEBUG scheduler Queued events for site fhts.com
2021-06-21 18:48:37,982 INFO scheduler Scheduled Job Start: frappe.monitor.flush for fhts.com
2021-06-21 18:48:40,294 INFO scheduler Scheduled Job Complete: frappe.monitor.flush for fhts.com
2021-06-21 18:48:40,430 INFO scheduler Scheduled Job Start: frappe.utils.global_search.sync_global_search for fhts.com
2021-06-21 18:48:40,581 INFO scheduler Scheduled Job Complete: frappe.utils.global_search.sync_global_search for fhts.com
2021-06-21 18:48:40,654 INFO scheduler Scheduled Job Start: frappe.integrations.doctype.razorpay_settings.razorpay_settings.capture_payment for fhts.com
2021-06-21 18:48:43,600 INFO scheduler Scheduled Job Complete: frappe.integrations.doctype.razorpay_settings.razorpay_settings.capture_payment for fhts.com
2021-06-21 18:48:43,775 INFO scheduler Scheduled Job Start: frappe.email.doctype.email_account.email_account.notify_unreplied for fhts.com
2021-06-21 18:48:44,852 INFO scheduler Scheduled Job Complete: frappe.email.doctype.email_account.email_account.notify_unreplied for fhts.com
2021-06-21 18:48:44,917 INFO scheduler Scheduled Job Start: frappe.email.doctype.email_account.email_account.pull for fhts.com
2021-06-21 18:48:45,238 INFO scheduler Scheduled Job Complete: frappe.email.doctype.email_account.email_account.pull for fhts.com
2021-06-21 18:48:45,316 INFO scheduler Scheduled Job Start: frappe.email.queue.flush for fhts.com
2021-06-21 18:48:45,659 INFO scheduler Scheduled Job Complete: frappe.email.queue.flush for fhts.com
2021-06-21 18:49:34,300 DEBUG scheduler Queued events for site fhts.com
2021-06-21 18:50:34,628 DEBUG scheduler Queued events for site fhts.com
2021-06-21 18:51:34,834 DEBUG scheduler Queued events for site fhts.com
2021-06-21 18:52:35,078 DEBUG scheduler Queued events for site fhts.com
2021-06-21 18:52:38,295 INFO scheduler Scheduled Job Start: frappe.monitor.flush for fhts.com
2021-06-21 18:52:40,236 INFO scheduler Scheduled Job Complete: frappe.monitor.flush for fhts.com
2021-06-21 18:52:40,406 INFO scheduler Scheduled Job Start: frappe.utils.global_search.sync_global_search for fhts.com
2021-06-21 18:52:40,738 INFO scheduler Scheduled Job Complete: frappe.utils.global_search.sync_global_search for fhts.com
2021-06-21 18:52:40,889 INFO scheduler Scheduled Job Start: frappe.integrations.doctype.razorpay_settings.razorpay_settings.capture_payment for fhts.com
2021-06-21 18:52:43,527 INFO scheduler Scheduled Job Complete: frappe.integrations.doctype.razorpay_settings.razorpay_settings.capture_payment for fhts.com
2021-06-21 18:52:43,616 INFO scheduler Scheduled Job Start: frappe.email.doctype.email_account.email_account.notify_unreplied for fhts.com
2021-06-21 18:52:44,036 INFO scheduler Scheduled Job Complete: frappe.email.doctype.email_account.email_account.notify_unreplied for fhts.com
2021-06-21 18:52:44,123 INFO scheduler Scheduled Job Start: frappe.email.doctype.email_account.email_account.pull for fhts.com
2021-06-21 18:52:44,541 INFO scheduler Scheduled Job Complete: frappe.email.doctype.email_account.email_account.pull for fhts.com
2021-06-21 18:52:44,632 INFO scheduler Scheduled Job Start: frappe.email.queue.flush for fhts.com
2021-06-21 18:52:44,929 INFO scheduler Scheduled Job Complete: frappe.email.queue.flush for fhts.com
2021-06-21 18:53:35,314 DEBUG scheduler Queued events for site fhts.com
2021-06-21 18:54:35,526 DEBUG scheduler Queued events for site fhts.com
2021-06-21 18:55:35,821 DEBUG scheduler Queued events for site fhts.com
2021-06-21 18:56:36,240 DEBUG scheduler Queued events for site fhts.com
2021-06-21 18:56:36,288 INFO scheduler Scheduled Job Start: frappe.monitor.flush for fhts.com
2021-06-21 18:56:36,491 INFO scheduler Scheduled Job Complete: frappe.monitor.flush for fhts.com
2021-06-21 18:56:36,593 INFO scheduler Scheduled Job Start: frappe.utils.global_search.sync_global_search for fhts.com
2021-06-21 18:56:36,773 INFO scheduler Scheduled Job Complete: frappe.utils.global_search.sync_global_search for fhts.com
2021-06-21 18:56:36,859 INFO scheduler Scheduled Job Start: frappe.integrations.doctype.razorpay_settings.razorpay_settings.capture_payment for fhts.com
2021-06-21 18:56:37,336 INFO scheduler Scheduled Job Complete: frappe.integrations.doctype.razorpay_settings.razorpay_settings.capture_payment for fhts.com
2021-06-21 18:56:37,451 INFO scheduler Scheduled Job Start: frappe.email.doctype.email_account.email_account.notify_unreplied for fhts.com
2021-06-21 18:56:37,873 INFO scheduler Scheduled Job Complete: frappe.email.doctype.email_account.email_account.notify_unreplied for fhts.com
2021-06-21 18:56:37,962 INFO scheduler Scheduled Job Start: frappe.email.doctype.email_account.email_account.pull for fhts.com
2021-06-21 18:56:38,312 INFO scheduler Scheduled Job Complete: frappe.email.doctype.email_account.email_account.pull for fhts.com
2021-06-21 18:56:38,390 INFO scheduler Scheduled Job Start: frappe.email.queue.flush for fhts.com
2021-06-21 18:56:38,834 INFO scheduler Scheduled Job Complete: frappe.email.queue.flush for fhts.com
2021-06-21 18:57:36,586 DEBUG scheduler Queued events for site fhts.com
2021-06-21 18:58:37,206 DEBUG scheduler Queued events for site fhts.com
2021-06-21 18:59:38,055 DEBUG scheduler Queued events for site fhts.com
2021-06-21 19:00:38,425 DEBUG scheduler Queued events for site fhts.com
2021-06-21 19:00:39,722 INFO scheduler Scheduled Job Start: frappe.email.doctype.newsletter.newsletter.send_scheduled_email for fhts.com
2021-06-21 19:00:47,679 INFO scheduler Scheduled Job Complete: frappe.email.doctype.newsletter.newsletter.send_scheduled_email for fhts.com
2021-06-21 19:00:47,895 INFO scheduler Scheduled Job Start: frappe.integrations.doctype.google_calendar.google_calendar.sync for fhts.com
2021-06-21 19:00:53,091 INFO scheduler Scheduled Job Complete: frappe.integrations.doctype.google_calendar.google_calendar.sync for fhts.com
2021-06-21 19:00:53,228 INFO scheduler Scheduled Job Start: frappe.desk.form.document_follow.send_hourly_updates for fhts.com
2021-06-21 19:00:53,999 INFO scheduler Scheduled Job Complete: frappe.desk.form.document_follow.send_hourly_updates for fhts.com
2021-06-21 19:00:54,267 INFO scheduler Scheduled Job Start: frappe.deferred_insert.save_to_db for fhts.com
2021-06-21 19:00:55,714 INFO scheduler Scheduled Job Complete: frappe.deferred_insert.save_to_db for fhts.com
2021-06-21 19:00:55,882 INFO scheduler Scheduled Job Start: frappe.desk.page.backups.backups.delete_downloadable_backups for fhts.com
2021-06-21 19:00:57,113 INFO scheduler Scheduled Job Complete: frappe.desk.page.backups.backups.delete_downloadable_backups for fhts.com
2021-06-21 19:00:57,438 INFO scheduler Scheduled Job Start: frappe.utils.error.collect_error_snapshots for fhts.com
2021-06-21 19:00:58,322 INFO scheduler Scheduled Job Complete: frappe.utils.error.collect_error_snapshots for fhts.com
2021-06-21 19:00:58,528 INFO scheduler Scheduled Job Start: frappe.model.utils.user_settings.sync_user_settings for fhts.com
2021-06-21 19:00:58,973 INFO scheduler Scheduled Job Complete: frappe.model.utils.user_settings.sync_user_settings for fhts.com
2021-06-21 19:00:59,113 INFO scheduler Scheduled Job Start: frappe.model.utils.link_count.update_link_count for fhts.com
2021-06-21 19:01:00,127 INFO scheduler Scheduled Job Complete: frappe.model.utils.link_count.update_link_count for fhts.com
2021-06-21 19:01:00,341 INFO scheduler Scheduled Job Start: frappe.monitor.flush for fhts.com
2021-06-21 19:01:00,555 INFO scheduler Scheduled Job Complete: frappe.monitor.flush for fhts.com
2021-06-21 19:01:00,697 INFO scheduler Scheduled Job Start: frappe.utils.global_search.sync_global_search for fhts.com
2021-06-21 19:01:00,869 INFO scheduler Scheduled Job Complete: frappe.utils.global_search.sync_global_search for fhts.com
2021-06-21 19:01:01,002 INFO scheduler Scheduled Job Start: frappe.integrations.doctype.razorpay_settings.razorpay_settings.capture_payment for fhts.com
2021-06-21 19:01:01,638 INFO scheduler Scheduled Job Complete: frappe.integrations.doctype.razorpay_settings.razorpay_settings.capture_payment for fhts.com
2021-06-21 19:01:01,714 INFO scheduler Scheduled Job Start: frappe.email.doctype.email_account.email_account.notify_unreplied for fhts.com
2021-06-21 19:01:02,589 INFO scheduler Scheduled Job Complete: frappe.email.doctype.email_account.email_account.notify_unreplied for fhts.com
2021-06-21 19:01:02,728 INFO scheduler Scheduled Job Start: frappe.email.doctype.email_account.email_account.pull for fhts.com
2021-06-21 19:01:03,305 INFO scheduler Scheduled Job Complete: frappe.email.doctype.email_account.email_account.pull for fhts.com
2021-06-21 19:01:03,378 INFO scheduler Scheduled Job Start: frappe.email.queue.flush for fhts.com
2021-06-21 19:01:03,752 INFO scheduler Scheduled Job Complete: frappe.email.queue.flush for fhts.com
2021-06-21 19:01:03,947 INFO scheduler Scheduled Job Start: frappe.twofactor.delete_all_barcodes_for_users for fhts.com
2021-06-21 19:01:04,758 INFO scheduler Scheduled Job Complete: frappe.twofactor.delete_all_barcodes_for_users for fhts.com
2021-06-21 19:01:04,987 INFO scheduler Scheduled Job Start: frappe.website.doctype.web_page.web_page.check_publish_status for fhts.com
2021-06-21 19:01:05,647 INFO scheduler Scheduled Job Complete: frappe.website.doctype.web_page.web_page.check_publish_status for fhts.com
2021-06-21 19:01:05,802 INFO scheduler Scheduled Job Start: frappe.oauth.delete_oauth2_data for fhts.com
2021-06-21 19:01:06,739 INFO scheduler Scheduled Job Complete: frappe.oauth.delete_oauth2_data for fhts.com
2021-06-21 19:01:38,686 DEBUG scheduler Queued events for site fhts.com
2021-06-21 19:02:38,987 DEBUG scheduler Queued events for site fhts.com
2021-06-21 19:03:39,264 DEBUG scheduler Queued events for site fhts.com
2021-06-21 19:04:39,527 DEBUG scheduler Queued events for site fhts.com
2021-06-21 19:04:42,164 INFO scheduler Scheduled Job Start: frappe.monitor.flush for fhts.com
2021-06-21 19:04:45,544 INFO scheduler Scheduled Job Complete: frappe.monitor.flush for fhts.com
2021-06-21 19:04:45,656 INFO scheduler Scheduled Job Start: frappe.utils.global_search.sync_global_search for fhts.com
2021-06-21 19:04:45,944 INFO scheduler Scheduled Job Complete: frappe.utils.global_search.sync_global_search for fhts.com
2021-06-21 19:04:46,095 INFO scheduler Scheduled Job Start: frappe.integrations.doctype.razorpay_settings.razorpay_settings.capture_payment for fhts.com
2021-06-21 19:04:50,017 INFO scheduler Scheduled Job Complete: frappe.integrations.doctype.razorpay_settings.razorpay_settings.capture_payment for fhts.com
2021-06-21 19:04:50,119 INFO scheduler Scheduled Job Start: frappe.email.doctype.email_account.email_account.notify_unreplied for fhts.com
2021-06-21 19:04:52,323 INFO scheduler Scheduled Job Complete: frappe.email.doctype.email_account.email_account.notify_unreplied for fhts.com
2021-06-21 19:04:52,423 INFO scheduler Scheduled Job Start: frappe.email.doctype.email_account.email_account.pull for fhts.com
2021-06-21 19:04:53,907 INFO scheduler Scheduled Job Complete: frappe.email.doctype.email_account.email_account.pull for fhts.com
2021-06-21 19:04:54,084 INFO scheduler Scheduled Job Start: frappe.email.queue.flush for fhts.com
2021-06-21 19:04:54,687 INFO scheduler Scheduled Job Complete: frappe.email.queue.flush for fhts.com
2021-06-21 19:05:39,791 DEBUG scheduler Queued events for site fhts.com
2021-06-21 19:06:40,071 DEBUG scheduler Queued events for site fhts.com
2021-06-21 19:07:40,335 DEBUG scheduler Queued events for site fhts.com
2021-06-21 19:08:40,563 DEBUG scheduler Queued events for site fhts.com
2021-06-21 19:08:40,612 INFO scheduler Scheduled Job Start: frappe.monitor.flush for fhts.com
2021-06-21 19:08:40,992 INFO scheduler Scheduled Job Complete: frappe.monitor.flush for fhts.com
2021-06-21 19:08:41,061 INFO scheduler Scheduled Job Start: frappe.utils.global_search.sync_global_search for fhts.com
2021-06-21 19:08:41,250 INFO scheduler Scheduled Job Complete: frappe.utils.global_search.sync_global_search for fhts.com
2021-06-21 19:08:41,388 INFO scheduler Scheduled Job Start: frappe.integrations.doctype.razorpay_settings.razorpay_settings.capture_payment for fhts.com
2021-06-21 19:08:42,242 INFO scheduler Scheduled Job Complete: frappe.integrations.doctype.razorpay_settings.razorpay_settings.capture_payment for fhts.com
2021-06-21 19:08:42,333 INFO scheduler Scheduled Job Start: frappe.email.doctype.email_account.email_account.notify_unreplied for fhts.com
2021-06-21 19:08:42,868 INFO scheduler Scheduled Job Complete: frappe.email.doctype.email_account.email_account.notify_unreplied for fhts.com
2021-06-21 19:08:42,948 INFO scheduler Scheduled Job Start: frappe.email.doctype.email_account.email_account.pull for fhts.com
2021-06-21 19:08:43,284 INFO scheduler Scheduled Job Complete: frappe.email.doctype.email_account.email_account.pull for fhts.com
2021-06-21 19:08:43,368 INFO scheduler Scheduled Job Start: frappe.email.queue.flush for fhts.com
2021-06-21 19:08:43,703 INFO scheduler Scheduled Job Complete: frappe.email.queue.flush for fhts.com
2021-06-21 19:09:40,915 DEBUG scheduler Queued events for site fhts.com
2021-06-21 19:10:41,158 DEBUG scheduler Queued events for site fhts.com
2021-06-21 19:11:41,434 DEBUG scheduler Queued events for site fhts.com
2021-06-21 19:12:41,750 DEBUG scheduler Queued events for site fhts.com
2021-06-21 19:12:41,839 INFO scheduler Scheduled Job Start: frappe.monitor.flush for fhts.com
2021-06-21 19:12:42,125 INFO scheduler Scheduled Job Complete: frappe.monitor.flush for fhts.com
2021-06-21 19:12:42,298 INFO scheduler Scheduled Job Start: frappe.utils.global_search.sync_global_search for fhts.com
2021-06-21 19:12:42,467 INFO scheduler Scheduled Job Complete: frappe.utils.global_search.sync_global_search for fhts.com
2021-06-21 19:12:42,659 INFO scheduler Scheduled Job Start: frappe.integrations.doctype.razorpay_settings.razorpay_settings.capture_payment for fhts.com
2021-06-21 19:12:43,268 INFO scheduler Scheduled Job Complete: frappe.integrations.doctype.razorpay_settings.razorpay_settings.capture_payment for fhts.com
2021-06-21 19:12:43,342 INFO scheduler Scheduled Job Start: frappe.email.doctype.email_account.email_account.notify_unreplied for fhts.com
2021-06-21 19:12:43,794 INFO scheduler Scheduled Job Complete: frappe.email.doctype.email_account.email_account.notify_unreplied for fhts.com
2021-06-21 19:12:43,867 INFO scheduler Scheduled Job Start: frappe.email.doctype.email_account.email_account.pull for fhts.com
2021-06-21 19:12:44,341 INFO scheduler Scheduled Job Complete: frappe.email.doctype.email_account.email_account.pull for fhts.com
2021-06-21 19:12:44,419 INFO scheduler Scheduled Job Start: frappe.email.queue.flush for fhts.com
2021-06-21 19:12:44,728 INFO scheduler Scheduled Job Complete: frappe.email.queue.flush for fhts.com
2021-06-21 19:13:42,014 DEBUG scheduler Queued events for site fhts.com
2021-06-21 19:14:42,282 DEBUG scheduler Queued events for site fhts.com
2021-06-21 19:15:42,502 DEBUG scheduler Queued events for site fhts.com
2021-06-21 19:15:42,855 INFO scheduler Scheduled Job Start: frappe.twofactor.delete_all_barcodes_for_users for fhts.com
2021-06-21 19:15:44,854 INFO scheduler Scheduled Job Complete: frappe.twofactor.delete_all_barcodes_for_users for fhts.com
2021-06-21 19:15:44,974 INFO scheduler Scheduled Job Start: frappe.website.doctype.web_page.web_page.check_publish_status for fhts.com
2021-06-21 19:15:48,030 INFO scheduler Scheduled Job Complete: frappe.website.doctype.web_page.web_page.check_publish_status for fhts.com
2021-06-21 19:15:48,182 INFO scheduler Scheduled Job Start: frappe.oauth.delete_oauth2_data for fhts.com
2021-06-21 19:15:48,732 INFO scheduler Scheduled Job Complete: frappe.oauth.delete_oauth2_data for fhts.com
2021-06-21 22:18:34,917 DEBUG scheduler Queued events for site fhts.com
2021-06-21 22:18:34,958 INFO scheduler Scheduled Job Start: frappe.email.doctype.newsletter.newsletter.send_scheduled_email for fhts.com
2021-06-21 22:18:37,086 INFO scheduler Scheduled Job Complete: frappe.email.doctype.newsletter.newsletter.send_scheduled_email for fhts.com
2021-06-21 22:18:37,338 INFO scheduler Scheduled Job Start: frappe.integrations.doctype.google_calendar.google_calendar.sync for fhts.com
2021-06-21 22:18:39,458 INFO scheduler Scheduled Job Complete: frappe.integrations.doctype.google_calendar.google_calendar.sync for fhts.com
2021-06-21 22:18:39,594 INFO scheduler Scheduled Job Start: frappe.desk.form.document_follow.send_hourly_updates for fhts.com
2021-06-21 22:18:40,000 INFO scheduler Scheduled Job Complete: frappe.desk.form.document_follow.send_hourly_updates for fhts.com
2021-06-21 22:18:40,098 INFO scheduler Scheduled Job Start: frappe.deferred_insert.save_to_db for fhts.com
2021-06-21 22:18:40,464 INFO scheduler Scheduled Job Complete: frappe.deferred_insert.save_to_db for fhts.com
2021-06-21 22:18:40,580 INFO scheduler Scheduled Job Start: frappe.desk.page.backups.backups.delete_downloadable_backups for fhts.com
2021-06-21 22:18:41,249 INFO scheduler Scheduled Job Complete: frappe.desk.page.backups.backups.delete_downloadable_backups for fhts.com
2021-06-21 22:18:41,564 INFO scheduler Scheduled Job Start: frappe.utils.error.collect_error_snapshots for fhts.com
2021-06-21 22:18:42,054 INFO scheduler Scheduled Job Complete: frappe.utils.error.collect_error_snapshots for fhts.com
2021-06-21 22:18:42,191 INFO scheduler Scheduled Job Start: frappe.model.utils.user_settings.sync_user_settings for fhts.com
2021-06-21 22:18:43,049 INFO scheduler Scheduled Job Complete: frappe.model.utils.user_settings.sync_user_settings for fhts.com
2021-06-21 22:18:43,169 INFO scheduler Scheduled Job Start: frappe.model.utils.link_count.update_link_count for fhts.com
2021-06-21 22:18:43,580 INFO scheduler Scheduled Job Complete: frappe.model.utils.link_count.update_link_count for fhts.com
2021-06-21 22:18:43,721 INFO scheduler Scheduled Job Start: frappe.monitor.flush for fhts.com
2021-06-21 22:18:43,934 INFO scheduler Scheduled Job Complete: frappe.monitor.flush for fhts.com
2021-06-21 22:18:44,028 INFO scheduler Scheduled Job Start: frappe.utils.global_search.sync_global_search for fhts.com
2021-06-21 22:18:44,246 INFO scheduler Scheduled Job Complete: frappe.utils.global_search.sync_global_search for fhts.com
2021-06-21 22:18:44,342 INFO scheduler Scheduled Job Start: frappe.integrations.doctype.razorpay_settings.razorpay_settings.capture_payment for fhts.com
2021-06-21 22:18:45,096 INFO scheduler Scheduled Job Complete: frappe.integrations.doctype.razorpay_settings.razorpay_settings.capture_payment for fhts.com
2021-06-21 22:18:45,161 INFO scheduler Scheduled Job Start: frappe.email.doctype.email_account.email_account.notify_unreplied for fhts.com
2021-06-21 22:18:46,366 INFO scheduler Scheduled Job Complete: frappe.email.doctype.email_account.email_account.notify_unreplied for fhts.com
2021-06-21 22:18:46,455 INFO scheduler Scheduled Job Start: frappe.email.doctype.email_account.email_account.pull for fhts.com
2021-06-21 22:18:47,045 INFO scheduler Scheduled Job Complete: frappe.email.doctype.email_account.email_account.pull for fhts.com
2021-06-21 22:18:47,131 INFO scheduler Scheduled Job Start: frappe.email.queue.flush for fhts.com
2021-06-21 22:18:47,645 INFO scheduler Scheduled Job Complete: frappe.email.queue.flush for fhts.com
2021-06-21 22:18:47,742 INFO scheduler Scheduled Job Start: frappe.twofactor.delete_all_barcodes_for_users for fhts.com
2021-06-21 22:18:51,677 INFO scheduler Scheduled Job Complete: frappe.twofactor.delete_all_barcodes_for_users for fhts.com
2021-06-21 22:18:52,254 INFO scheduler Scheduled Job Start: frappe.website.doctype.web_page.web_page.check_publish_status for fhts.com
2021-06-21 22:18:56,428 INFO scheduler Scheduled Job Complete: frappe.website.doctype.web_page.web_page.check_publish_status for fhts.com
2021-06-21 22:18:56,565 INFO scheduler Scheduled Job Start: frappe.oauth.delete_oauth2_data for fhts.com
2021-06-21 22:18:57,624 INFO scheduler Scheduled Job Complete: frappe.oauth.delete_oauth2_data for fhts.com
2021-06-21 22:19:35,309 DEBUG scheduler Queued events for site fhts.com
2021-06-21 22:20:35,546 DEBUG scheduler Queued events for site fhts.com
2021-06-21 22:20:35,574 INFO scheduler Scheduled Job Start: frappe.monitor.flush for fhts.com
2021-06-21 22:20:35,714 INFO scheduler Scheduled Job Complete: frappe.monitor.flush for fhts.com
2021-06-21 22:20:35,786 INFO scheduler Scheduled Job Start: frappe.utils.global_search.sync_global_search for fhts.com
2021-06-21 22:20:35,924 INFO scheduler Scheduled Job Complete: frappe.utils.global_search.sync_global_search for fhts.com
2021-06-21 22:20:35,987 INFO scheduler Scheduled Job Start: frappe.integrations.doctype.razorpay_settings.razorpay_settings.capture_payment for fhts.com
2021-06-21 22:20:36,691 INFO scheduler Scheduled Job Complete: frappe.integrations.doctype.razorpay_settings.razorpay_settings.capture_payment for fhts.com
2021-06-21 22:20:36,759 INFO scheduler Scheduled Job Start: frappe.email.doctype.email_account.email_account.notify_unreplied for fhts.com
2021-06-21 22:20:37,105 INFO scheduler Scheduled Job Complete: frappe.email.doctype.email_account.email_account.notify_unreplied for fhts.com
2021-06-21 22:20:37,166 INFO scheduler Scheduled Job Start: frappe.email.doctype.email_account.email_account.pull for fhts.com
2021-06-21 22:20:37,468 INFO scheduler Scheduled Job Complete: frappe.email.doctype.email_account.email_account.pull for fhts.com
2021-06-21 22:20:37,529 INFO scheduler Scheduled Job Start: frappe.email.queue.flush for fhts.com
2021-06-21 22:20:37,765 INFO scheduler Scheduled Job Complete: frappe.email.queue.flush for fhts.com
2021-06-21 22:21:35,770 DEBUG scheduler Queued events for site fhts.com
2021-06-21 22:22:36,003 DEBUG scheduler Queued events for site fhts.com
2021-06-21 22:23:36,239 DEBUG scheduler Queued events for site fhts.com
2021-06-21 22:24:36,480 DEBUG scheduler Queued events for site fhts.com
2021-06-21 22:24:36,506 INFO scheduler Scheduled Job Start: frappe.monitor.flush for fhts.com
2021-06-21 22:24:36,647 INFO scheduler Scheduled Job Complete: frappe.monitor.flush for fhts.com
2021-06-21 22:24:36,710 INFO scheduler Scheduled Job Start: frappe.utils.global_search.sync_global_search for fhts.com
2021-06-21 22:24:36,879 INFO scheduler Scheduled Job Complete: frappe.utils.global_search.sync_global_search for fhts.com
2021-06-21 22:24:36,988 INFO scheduler Scheduled Job Start: frappe.integrations.doctype.razorpay_settings.razorpay_settings.capture_payment for fhts.com
2021-06-21 22:24:37,320 INFO scheduler Scheduled Job Complete: frappe.integrations.doctype.razorpay_settings.razorpay_settings.capture_payment for fhts.com
2021-06-21 22:24:37,382 INFO scheduler Scheduled Job Start: frappe.email.doctype.email_account.email_account.notify_unreplied for fhts.com
2021-06-21 22:24:37,856 INFO scheduler Scheduled Job Complete: frappe.email.doctype.email_account.email_account.notify_unreplied for fhts.com
2021-06-21 22:24:37,919 INFO scheduler Scheduled Job Start: frappe.email.doctype.email_account.email_account.pull for fhts.com
2021-06-21 22:24:38,197 INFO scheduler Scheduled Job Complete: frappe.email.doctype.email_account.email_account.pull for fhts.com
2021-06-21 22:24:38,259 INFO scheduler Scheduled Job Start: frappe.email.queue.flush for fhts.com
2021-06-21 22:24:38,579 INFO scheduler Scheduled Job Complete: frappe.email.queue.flush for fhts.com
2021-06-21 22:25:36,695 DEBUG scheduler Queued events for site fhts.com
2021-06-21 22:26:36,888 DEBUG scheduler Queued events for site fhts.com
2021-06-21 22:27:37,103 DEBUG scheduler Queued events for site fhts.com
2021-06-21 22:28:37,314 DEBUG scheduler Queued events for site fhts.com
2021-06-21 22:28:37,343 INFO scheduler Scheduled Job Start: frappe.monitor.flush for fhts.com
2021-06-21 22:28:37,519 INFO scheduler Scheduled Job Complete: frappe.monitor.flush for fhts.com
2021-06-21 22:28:37,626 INFO scheduler Scheduled Job Start: frappe.utils.global_search.sync_global_search for fhts.com
2021-06-21 22:28:37,761 INFO scheduler Scheduled Job Complete: frappe.utils.global_search.sync_global_search for fhts.com
2021-06-21 22:28:37,823 INFO scheduler Scheduled Job Start: frappe.integrations.doctype.razorpay_settings.razorpay_settings.capture_payment for fhts.com
2021-06-21 22:28:38,159 INFO scheduler Scheduled Job Complete: frappe.integrations.doctype.razorpay_settings.razorpay_settings.capture_payment for fhts.com
2021-06-21 22:28:38,221 INFO scheduler Scheduled Job Start: frappe.email.doctype.email_account.email_account.notify_unreplied for fhts.com
2021-06-21 22:28:38,535 INFO scheduler Scheduled Job Complete: frappe.email.doctype.email_account.email_account.notify_unreplied for fhts.com
2021-06-21 22:28:38,595 INFO scheduler Scheduled Job Start: frappe.email.doctype.email_account.email_account.pull for fhts.com
2021-06-21 22:28:38,946 INFO scheduler Scheduled Job Complete: frappe.email.doctype.email_account.email_account.pull for fhts.com
2021-06-21 22:28:39,008 INFO scheduler Scheduled Job Start: frappe.email.queue.flush for fhts.com
2021-06-21 22:28:39,290 INFO scheduler Scheduled Job Complete: frappe.email.queue.flush for fhts.com
2021-06-21 22:29:37,494 DEBUG scheduler Queued events for site fhts.com
2021-06-21 22:30:37,696 DEBUG scheduler Queued events for site fhts.com
2021-06-21 22:30:37,745 INFO scheduler Scheduled Job Start: frappe.twofactor.delete_all_barcodes_for_users for fhts.com
2021-06-21 22:30:38,141 INFO scheduler Scheduled Job Complete: frappe.twofactor.delete_all_barcodes_for_users for fhts.com
2021-06-21 22:30:38,260 INFO scheduler Scheduled Job Start: frappe.website.doctype.web_page.web_page.check_publish_status for fhts.com
2021-06-21 22:30:38,690 INFO scheduler Scheduled Job Complete: frappe.website.doctype.web_page.web_page.check_publish_status for fhts.com
2021-06-21 22:30:38,840 INFO scheduler Scheduled Job Start: frappe.oauth.delete_oauth2_data for fhts.com
2021-06-21 22:30:39,209 INFO scheduler Scheduled Job Complete: frappe.oauth.delete_oauth2_data for fhts.com
2021-06-21 22:31:37,880 DEBUG scheduler Queued events for site fhts.com
2021-06-21 22:32:38,095 DEBUG scheduler Queued events for site fhts.com
2021-06-21 22:32:38,125 INFO scheduler Scheduled Job Start: frappe.monitor.flush for fhts.com
2021-06-21 22:32:38,295 INFO scheduler Scheduled Job Complete: frappe.monitor.flush for fhts.com
2021-06-21 22:32:38,385 INFO scheduler Scheduled Job Start: frappe.utils.global_search.sync_global_search for fhts.com
2021-06-21 22:32:38,516 INFO scheduler Scheduled Job Complete: frappe.utils.global_search.sync_global_search for fhts.com
2021-06-21 22:32:38,577 INFO scheduler Scheduled Job Start: frappe.integrations.doctype.razorpay_settings.razorpay_settings.capture_payment for fhts.com
2021-06-21 22:32:38,885 INFO scheduler Scheduled Job Complete: frappe.integrations.doctype.razorpay_settings.razorpay_settings.capture_payment for fhts.com
2021-06-21 22:32:38,947 INFO scheduler Scheduled Job Start: frappe.email.doctype.email_account.email_account.notify_unreplied for fhts.com
2021-06-21 22:32:39,241 INFO scheduler Scheduled Job Complete: frappe.email.doctype.email_account.email_account.notify_unreplied for fhts.com
2021-06-21 22:32:39,302 INFO scheduler Scheduled Job Start: frappe.email.doctype.email_account.email_account.pull for fhts.com
2021-06-21 22:32:39,578 INFO scheduler Scheduled Job Complete: frappe.email.doctype.email_account.email_account.pull for fhts.com
2021-06-21 22:32:39,637 INFO scheduler Scheduled Job Start: frappe.email.queue.flush for fhts.com
2021-06-21 22:32:39,923 INFO scheduler Scheduled Job Complete: frappe.email.queue.flush for fhts.com
2021-06-21 22:33:38,303 DEBUG scheduler Queued events for site fhts.com
2021-06-21 22:34:38,497 DEBUG scheduler Queued events for site fhts.com
2021-06-21 22:35:38,686 DEBUG scheduler Queued events for site fhts.com
2021-06-21 22:36:38,936 DEBUG scheduler Queued events for site fhts.com
2021-06-21 22:36:38,963 INFO scheduler Scheduled Job Start: frappe.monitor.flush for fhts.com
2021-06-21 22:36:39,141 INFO scheduler Scheduled Job Complete: frappe.monitor.flush for fhts.com
2021-06-21 22:36:39,248 INFO scheduler Scheduled Job Start: frappe.utils.global_search.sync_global_search for fhts.com
2021-06-21 22:36:39,406 INFO scheduler Scheduled Job Complete: frappe.utils.global_search.sync_global_search for fhts.com
2021-06-21 22:36:39,476 INFO scheduler Scheduled Job Start: frappe.integrations.doctype.razorpay_settings.razorpay_settings.capture_payment for fhts.com
2021-06-21 22:36:39,815 INFO scheduler Scheduled Job Complete: frappe.integrations.doctype.razorpay_settings.razorpay_settings.capture_payment for fhts.com
2021-06-21 22:36:39,876 INFO scheduler Scheduled Job Start: frappe.email.doctype.email_account.email_account.notify_unreplied for fhts.com
2021-06-21 22:36:40,199 INFO scheduler Scheduled Job Complete: frappe.email.doctype.email_account.email_account.notify_unreplied for fhts.com
2021-06-21 22:36:40,260 INFO scheduler Scheduled Job Start: frappe.email.doctype.email_account.email_account.pull for fhts.com
2021-06-21 22:36:40,524 INFO scheduler Scheduled Job Complete: frappe.email.doctype.email_account.email_account.pull for fhts.com
2021-06-21 22:36:40,583 INFO scheduler Scheduled Job Start: frappe.email.queue.flush for fhts.com
2021-06-21 22:36:40,802 INFO scheduler Scheduled Job Complete: frappe.email.queue.flush for fhts.com
2021-06-21 22:37:39,128 DEBUG scheduler Queued events for site fhts.com
2021-06-21 22:38:39,312 DEBUG scheduler Queued events for site fhts.com
2021-06-21 22:39:39,537 DEBUG scheduler Queued events for site fhts.com
2021-06-21 22:40:39,755 DEBUG scheduler Queued events for site fhts.com
2021-06-21 22:40:39,784 INFO scheduler Scheduled Job Start: frappe.monitor.flush for fhts.com
2021-06-21 22:40:39,963 INFO scheduler Scheduled Job Complete: frappe.monitor.flush for fhts.com
2021-06-21 22:40:40,078 INFO scheduler Scheduled Job Start: frappe.utils.global_search.sync_global_search for fhts.com
2021-06-21 22:40:40,217 INFO scheduler Scheduled Job Complete: frappe.utils.global_search.sync_global_search for fhts.com
2021-06-21 22:40:40,277 INFO scheduler Scheduled Job Start: frappe.integrations.doctype.razorpay_settings.razorpay_settings.capture_payment for fhts.com
2021-06-21 22:40:40,599 INFO scheduler Scheduled Job Complete: frappe.integrations.doctype.razorpay_settings.razorpay_settings.capture_payment for fhts.com
2021-06-21 22:40:40,660 INFO scheduler Scheduled Job Start: frappe.email.doctype.email_account.email_account.notify_unreplied for fhts.com
2021-06-21 22:40:40,929 INFO scheduler Scheduled Job Complete: frappe.email.doctype.email_account.email_account.notify_unreplied for fhts.com
2021-06-21 22:40:40,989 INFO scheduler Scheduled Job Start: frappe.email.doctype.email_account.email_account.pull for fhts.com
2021-06-21 22:40:41,369 INFO scheduler Scheduled Job Complete: frappe.email.doctype.email_account.email_account.pull for fhts.com
2021-06-21 22:40:41,430 INFO scheduler Scheduled Job Start: frappe.email.queue.flush for fhts.com
2021-06-21 22:40:41,757 INFO scheduler Scheduled Job Complete: frappe.email.queue.flush for fhts.com
2021-06-21 22:41:39,956 DEBUG scheduler Queued events for site fhts.com
2021-06-21 22:42:40,169 DEBUG scheduler Queued events for site fhts.com
2021-06-21 22:43:40,381 DEBUG scheduler Queued events for site fhts.com
2021-06-21 22:44:40,624 DEBUG scheduler Queued events for site fhts.com
2021-06-21 22:44:40,759 INFO scheduler Scheduled Job Start: frappe.monitor.flush for fhts.com
2021-06-21 22:44:40,983 INFO scheduler Scheduled Job Complete: frappe.monitor.flush for fhts.com
2021-06-21 22:44:41,067 INFO scheduler Scheduled Job Start: frappe.utils.global_search.sync_global_search for fhts.com
2021-06-21 22:44:41,203 INFO scheduler Scheduled Job Complete: frappe.utils.global_search.sync_global_search for fhts.com
2021-06-21 22:44:41,295 INFO scheduler Scheduled Job Start: frappe.integrations.doctype.razorpay_settings.razorpay_settings.capture_payment for fhts.com
2021-06-21 22:44:41,653 INFO scheduler Scheduled Job Complete: frappe.integrations.doctype.razorpay_settings.razorpay_settings.capture_payment for fhts.com
2021-06-21 22:44:41,716 INFO scheduler Scheduled Job Start: frappe.email.doctype.email_account.email_account.notify_unreplied for fhts.com
2021-06-21 22:44:42,010 INFO scheduler Scheduled Job Complete: frappe.email.doctype.email_account.email_account.notify_unreplied for fhts.com
2021-06-21 22:44:42,086 INFO scheduler Scheduled Job Start: frappe.email.doctype.email_account.email_account.pull for fhts.com
2021-06-21 22:44:42,518 INFO scheduler Scheduled Job Complete: frappe.email.doctype.email_account.email_account.pull for fhts.com
2021-06-21 22:44:42,585 INFO scheduler Scheduled Job Start: frappe.email.queue.flush for fhts.com
2021-06-21 22:44:42,890 INFO scheduler Scheduled Job Complete: frappe.email.queue.flush for fhts.com
2021-06-21 22:45:40,862 DEBUG scheduler Queued events for site fhts.com
2021-06-21 22:45:40,910 INFO scheduler Scheduled Job Start: frappe.twofactor.delete_all_barcodes_for_users for fhts.com
2021-06-21 22:45:41,800 INFO scheduler Scheduled Job Complete: frappe.twofactor.delete_all_barcodes_for_users for fhts.com
2021-06-21 22:45:41,893 INFO scheduler Scheduled Job Start: frappe.website.doctype.web_page.web_page.check_publish_status for fhts.com
2021-06-21 22:45:42,522 INFO scheduler Scheduled Job Complete: frappe.website.doctype.web_page.web_page.check_publish_status for fhts.com
2021-06-21 22:45:42,615 INFO scheduler Scheduled Job Start: frappe.oauth.delete_oauth2_data for fhts.com
2021-06-21 22:45:42,950 INFO scheduler Scheduled Job Complete: frappe.oauth.delete_oauth2_data for fhts.com
2021-06-21 22:46:41,086 DEBUG scheduler Queued events for site fhts.com
2021-06-21 22:47:41,314 DEBUG scheduler Queued events for site fhts.com
2021-06-21 22:48:41,551 DEBUG scheduler Queued events for site fhts.com
2021-06-21 22:48:41,579 INFO scheduler Scheduled Job Start: frappe.monitor.flush for fhts.com
2021-06-21 22:48:41,749 INFO scheduler Scheduled Job Complete: frappe.monitor.flush for fhts.com
2021-06-21 22:48:41,812 INFO scheduler Scheduled Job Start: frappe.utils.global_search.sync_global_search for fhts.com
2021-06-21 22:48:41,949 INFO scheduler Scheduled Job Complete: frappe.utils.global_search.sync_global_search for fhts.com
2021-06-21 22:48:42,040 INFO scheduler Scheduled Job Start: frappe.integrations.doctype.razorpay_settings.razorpay_settings.capture_payment for fhts.com
2021-06-21 22:48:42,368 INFO scheduler Scheduled Job Complete: frappe.integrations.doctype.razorpay_settings.razorpay_settings.capture_payment for fhts.com
2021-06-21 22:48:42,432 INFO scheduler Scheduled Job Start: frappe.email.doctype.email_account.email_account.notify_unreplied for fhts.com
2021-06-21 22:48:42,734 INFO scheduler Scheduled Job Complete: frappe.email.doctype.email_account.email_account.notify_unreplied for fhts.com
2021-06-21 22:48:42,799 INFO scheduler Scheduled Job Start: frappe.email.doctype.email_account.email_account.pull for fhts.com
2021-06-21 22:48:43,145 INFO scheduler Scheduled Job Complete: frappe.email.doctype.email_account.email_account.pull for fhts.com
2021-06-21 22:48:43,211 INFO scheduler Scheduled Job Start: frappe.email.queue.flush for fhts.com
2021-06-21 22:48:43,545 INFO scheduler Scheduled Job Complete: frappe.email.queue.flush for fhts.com
2021-06-21 22:49:41,765 DEBUG scheduler Queued events for site fhts.com
2021-06-21 22:50:41,979 DEBUG scheduler Queued events for site fhts.com
2021-06-21 22:51:42,168 DEBUG scheduler Queued events for site fhts.com
2021-06-21 22:52:42,417 DEBUG scheduler Queued events for site fhts.com
2021-06-21 22:52:42,446 INFO scheduler Scheduled Job Start: frappe.monitor.flush for fhts.com
2021-06-21 22:52:42,621 INFO scheduler Scheduled Job Complete: frappe.monitor.flush for fhts.com
2021-06-21 22:52:42,721 INFO scheduler Scheduled Job Start: frappe.utils.global_search.sync_global_search for fhts.com
2021-06-21 22:52:42,865 INFO scheduler Scheduled Job Complete: frappe.utils.global_search.sync_global_search for fhts.com
2021-06-21 22:52:42,928 INFO scheduler Scheduled Job Start: frappe.integrations.doctype.razorpay_settings.razorpay_settings.capture_payment for fhts.com
2021-06-21 22:52:43,260 INFO scheduler Scheduled Job Complete: frappe.integrations.doctype.razorpay_settings.razorpay_settings.capture_payment for fhts.com
2021-06-21 22:52:43,324 INFO scheduler Scheduled Job Start: frappe.email.doctype.email_account.email_account.notify_unreplied for fhts.com
2021-06-21 22:52:43,588 INFO scheduler Scheduled Job Complete: frappe.email.doctype.email_account.email_account.notify_unreplied for fhts.com
2021-06-21 22:52:43,651 INFO scheduler Scheduled Job Start: frappe.email.doctype.email_account.email_account.pull for fhts.com
2021-06-21 22:52:44,058 INFO scheduler Scheduled Job Complete: frappe.email.doctype.email_account.email_account.pull for fhts.com
2021-06-21 22:52:44,122 INFO scheduler Scheduled Job Start: frappe.email.queue.flush for fhts.com
2021-06-21 22:52:44,351 INFO scheduler Scheduled Job Complete: frappe.email.queue.flush for fhts.com
2021-06-21 22:53:42,643 DEBUG scheduler Queued events for site fhts.com
2021-06-21 22:54:42,850 DEBUG scheduler Queued events for site fhts.com
2021-06-21 22:55:43,139 DEBUG scheduler Queued events for site fhts.com
2021-06-21 22:56:43,376 DEBUG scheduler Queued events for site fhts.com
2021-06-21 22:56:43,406 INFO scheduler Scheduled Job Start: frappe.monitor.flush for fhts.com
2021-06-21 22:56:43,589 INFO scheduler Scheduled Job Complete: frappe.monitor.flush for fhts.com
2021-06-21 22:56:43,699 INFO scheduler Scheduled Job Start: frappe.utils.global_search.sync_global_search for fhts.com
2021-06-21 22:56:43,842 INFO scheduler Scheduled Job Complete: frappe.utils.global_search.sync_global_search for fhts.com
2021-06-21 22:56:43,904 INFO scheduler Scheduled Job Start: frappe.integrations.doctype.razorpay_settings.razorpay_settings.capture_payment for fhts.com
2021-06-21 22:56:44,243 INFO scheduler Scheduled Job Complete: frappe.integrations.doctype.razorpay_settings.razorpay_settings.capture_payment for fhts.com
2021-06-21 22:56:44,307 INFO scheduler Scheduled Job Start: frappe.email.doctype.email_account.email_account.notify_unreplied for fhts.com
2021-06-21 22:56:44,606 INFO scheduler Scheduled Job Complete: frappe.email.doctype.email_account.email_account.notify_unreplied for fhts.com
2021-06-21 22:56:44,669 INFO scheduler Scheduled Job Start: frappe.email.doctype.email_account.email_account.pull for fhts.com
2021-06-21 22:56:45,015 INFO scheduler Scheduled Job Complete: frappe.email.doctype.email_account.email_account.pull for fhts.com
2021-06-21 22:56:45,080 INFO scheduler Scheduled Job Start: frappe.email.queue.flush for fhts.com
2021-06-21 22:56:45,363 INFO scheduler Scheduled Job Complete: frappe.email.queue.flush for fhts.com
2021-06-21 22:57:43,600 DEBUG scheduler Queued events for site fhts.com
2021-06-21 22:58:43,826 DEBUG scheduler Queued events for site fhts.com
2021-06-21 22:59:44,035 DEBUG scheduler Queued events for site fhts.com
2021-06-21 23:00:44,294 INFO scheduler Scheduled Job Start: frappe.email.doctype.newsletter.newsletter.send_scheduled_email for fhts.com
2021-06-21 23:00:44,359 DEBUG scheduler Queued events for site fhts.com
2021-06-21 23:00:44,818 INFO scheduler Scheduled Job Complete: frappe.email.doctype.newsletter.newsletter.send_scheduled_email for fhts.com
2021-06-21 23:00:44,921 INFO scheduler Scheduled Job Start: frappe.integrations.doctype.google_calendar.google_calendar.sync for fhts.com
2021-06-21 23:00:46,054 INFO scheduler Scheduled Job Complete: frappe.integrations.doctype.google_calendar.google_calendar.sync for fhts.com
2021-06-21 23:00:46,174 INFO scheduler Scheduled Job Start: frappe.desk.form.document_follow.send_hourly_updates for fhts.com
2021-06-21 23:00:46,555 INFO scheduler Scheduled Job Complete: frappe.desk.form.document_follow.send_hourly_updates for fhts.com
2021-06-21 23:00:46,717 INFO scheduler Scheduled Job Start: frappe.deferred_insert.save_to_db for fhts.com
2021-06-21 23:00:47,061 INFO scheduler Scheduled Job Complete: frappe.deferred_insert.save_to_db for fhts.com
2021-06-21 23:00:47,215 INFO scheduler Scheduled Job Start: frappe.desk.page.backups.backups.delete_downloadable_backups for fhts.com
2021-06-21 23:00:47,644 INFO scheduler Scheduled Job Complete: frappe.desk.page.backups.backups.delete_downloadable_backups for fhts.com
2021-06-21 23:00:47,787 INFO scheduler Scheduled Job Start: frappe.utils.error.collect_error_snapshots for fhts.com
2021-06-21 23:00:48,209 INFO scheduler Scheduled Job Complete: frappe.utils.error.collect_error_snapshots for fhts.com
2021-06-21 23:00:48,361 INFO scheduler Scheduled Job Start: frappe.model.utils.user_settings.sync_user_settings for fhts.com
2021-06-21 23:00:48,833 INFO scheduler Scheduled Job Complete: frappe.model.utils.user_settings.sync_user_settings for fhts.com
2021-06-21 23:00:48,925 INFO scheduler Scheduled Job Start: frappe.model.utils.link_count.update_link_count for fhts.com
2021-06-21 23:00:49,299 INFO scheduler Scheduled Job Complete: frappe.model.utils.link_count.update_link_count for fhts.com
2021-06-21 23:00:49,447 INFO scheduler Scheduled Job Start: frappe.monitor.flush for fhts.com
2021-06-21 23:00:49,585 INFO scheduler Scheduled Job Complete: frappe.monitor.flush for fhts.com
2021-06-21 23:00:49,676 INFO scheduler Scheduled Job Start: frappe.utils.global_search.sync_global_search for fhts.com
2021-06-21 23:00:49,818 INFO scheduler Scheduled Job Complete: frappe.utils.global_search.sync_global_search for fhts.com
2021-06-21 23:00:49,896 INFO scheduler Scheduled Job Start: frappe.integrations.doctype.razorpay_settings.razorpay_settings.capture_payment for fhts.com
2021-06-21 23:00:50,209 INFO scheduler Scheduled Job Complete: frappe.integrations.doctype.razorpay_settings.razorpay_settings.capture_payment for fhts.com
2021-06-21 23:00:50,270 INFO scheduler Scheduled Job Start: frappe.email.doctype.email_account.email_account.notify_unreplied for fhts.com
2021-06-21 23:00:50,582 INFO scheduler Scheduled Job Complete: frappe.email.doctype.email_account.email_account.notify_unreplied for fhts.com
2021-06-21 23:00:50,645 INFO scheduler Scheduled Job Start: frappe.email.doctype.email_account.email_account.pull for fhts.com
2021-06-21 23:00:50,970 INFO scheduler Scheduled Job Complete: frappe.email.doctype.email_account.email_account.pull for fhts.com
2021-06-21 23:00:51,032 INFO scheduler Scheduled Job Start: frappe.email.queue.flush for fhts.com
2021-06-21 23:00:51,347 INFO scheduler Scheduled Job Complete: frappe.email.queue.flush for fhts.com
2021-06-21 23:00:51,412 INFO scheduler Scheduled Job Start: frappe.twofactor.delete_all_barcodes_for_users for fhts.com
2021-06-21 23:00:51,797 INFO scheduler Scheduled Job Complete: frappe.twofactor.delete_all_barcodes_for_users for fhts.com
2021-06-21 23:00:51,887 INFO scheduler Scheduled Job Start: frappe.website.doctype.web_page.web_page.check_publish_status for fhts.com
2021-06-21 23:00:52,291 INFO scheduler Scheduled Job Complete: frappe.website.doctype.web_page.web_page.check_publish_status for fhts.com
2021-06-21 23:00:52,390 INFO scheduler Scheduled Job Start: frappe.oauth.delete_oauth2_data for fhts.com
2021-06-21 23:00:52,799 INFO scheduler Scheduled Job Complete: frappe.oauth.delete_oauth2_data for fhts.com
2021-06-21 23:01:44,578 DEBUG scheduler Queued events for site fhts.com
2021-06-21 23:02:44,767 DEBUG scheduler Queued events for site fhts.com
2021-06-21 23:03:44,953 DEBUG scheduler Queued events for site fhts.com
2021-06-21 23:04:45,201 DEBUG scheduler Queued events for site fhts.com
2021-06-21 23:04:45,232 INFO scheduler Scheduled Job Start: frappe.monitor.flush for fhts.com
2021-06-21 23:04:45,368 INFO scheduler Scheduled Job Complete: frappe.monitor.flush for fhts.com
2021-06-21 23:04:45,431 INFO scheduler Scheduled Job Start: frappe.utils.global_search.sync_global_search for fhts.com
2021-06-21 23:04:45,598 INFO scheduler Scheduled Job Complete: frappe.utils.global_search.sync_global_search for fhts.com
2021-06-21 23:04:45,706 INFO scheduler Scheduled Job Start: frappe.integrations.doctype.razorpay_settings.razorpay_settings.capture_payment for fhts.com
2021-06-21 23:04:46,027 INFO scheduler Scheduled Job Complete: frappe.integrations.doctype.razorpay_settings.razorpay_settings.capture_payment for fhts.com
2021-06-21 23:04:46,088 INFO scheduler Scheduled Job Start: frappe.email.doctype.email_account.email_account.notify_unreplied for fhts.com
2021-06-21 23:04:46,384 INFO scheduler Scheduled Job Complete: frappe.email.doctype.email_account.email_account.notify_unreplied for fhts.com
2021-06-21 23:04:46,447 INFO scheduler Scheduled Job Start: frappe.email.doctype.email_account.email_account.pull for fhts.com
2021-06-21 23:04:46,708 INFO scheduler Scheduled Job Complete: frappe.email.doctype.email_account.email_account.pull for fhts.com
2021-06-21 23:04:46,771 INFO scheduler Scheduled Job Start: frappe.email.queue.flush for fhts.com
2021-06-21 23:04:47,096 INFO scheduler Scheduled Job Complete: frappe.email.queue.flush for fhts.com
2021-06-21 23:05:45,430 DEBUG scheduler Queued events for site fhts.com
2021-06-21 23:06:45,630 DEBUG scheduler Queued events for site fhts.com
2021-06-21 23:07:45,854 DEBUG scheduler Queued events for site fhts.com
2021-06-21 23:08:46,073 DEBUG scheduler Queued events for site fhts.com
2021-06-21 23:08:46,099 INFO scheduler Scheduled Job Start: frappe.monitor.flush for fhts.com
2021-06-21 23:08:46,274 INFO scheduler Scheduled Job Complete: frappe.monitor.flush for fhts.com
2021-06-21 23:08:46,348 INFO scheduler Scheduled Job Start: frappe.utils.global_search.sync_global_search for fhts.com
2021-06-21 23:08:46,484 INFO scheduler Scheduled Job Complete: frappe.utils.global_search.sync_global_search for fhts.com
2021-06-21 23:08:46,547 INFO scheduler Scheduled Job Start: frappe.integrations.doctype.razorpay_settings.razorpay_settings.capture_payment for fhts.com
2021-06-21 23:08:46,895 INFO scheduler Scheduled Job Complete: frappe.integrations.doctype.razorpay_settings.razorpay_settings.capture_payment for fhts.com
2021-06-21 23:08:46,957 INFO scheduler Scheduled Job Start: frappe.email.doctype.email_account.email_account.notify_unreplied for fhts.com
2021-06-21 23:08:47,282 INFO scheduler Scheduled Job Complete: frappe.email.doctype.email_account.email_account.notify_unreplied for fhts.com
2021-06-21 23:08:47,344 INFO scheduler Scheduled Job Start: frappe.email.doctype.email_account.email_account.pull for fhts.com
2021-06-21 23:08:47,678 INFO scheduler Scheduled Job Complete: frappe.email.doctype.email_account.email_account.pull for fhts.com
2021-06-21 23:08:47,739 INFO scheduler Scheduled Job Start: frappe.email.queue.flush for fhts.com
2021-06-21 23:08:47,958 INFO scheduler Scheduled Job Complete: frappe.email.queue.flush for fhts.com
2021-06-21 23:09:46,661 DEBUG scheduler Queued events for site fhts.com
2021-06-21 23:10:46,896 DEBUG scheduler Queued events for site fhts.com
2021-06-21 23:11:47,086 DEBUG scheduler Queued events for site fhts.com
2021-06-21 23:12:47,317 DEBUG scheduler Queued events for site fhts.com
2021-06-21 23:12:48,287 INFO scheduler Scheduled Job Start: frappe.monitor.flush for fhts.com
2021-06-21 23:12:49,663 INFO scheduler Scheduled Job Complete: frappe.monitor.flush for fhts.com
2021-06-21 23:12:49,780 INFO scheduler Scheduled Job Start: frappe.utils.global_search.sync_global_search for fhts.com
2021-06-21 23:12:49,927 INFO scheduler Scheduled Job Complete: frappe.utils.global_search.sync_global_search for fhts.com
2021-06-21 23:12:49,994 INFO scheduler Scheduled Job Start: frappe.integrations.doctype.razorpay_settings.razorpay_settings.capture_payment for fhts.com
2021-06-21 23:12:51,068 INFO scheduler Scheduled Job Complete: frappe.integrations.doctype.razorpay_settings.razorpay_settings.capture_payment for fhts.com
2021-06-21 23:12:51,151 INFO scheduler Scheduled Job Start: frappe.email.doctype.email_account.email_account.notify_unreplied for fhts.com
2021-06-21 23:12:51,965 INFO scheduler Scheduled Job Complete: frappe.email.doctype.email_account.email_account.notify_unreplied for fhts.com
2021-06-21 23:12:52,029 INFO scheduler Scheduled Job Start: frappe.email.doctype.email_account.email_account.pull for fhts.com
2021-06-21 23:12:52,340 INFO scheduler Scheduled Job Complete: frappe.email.doctype.email_account.email_account.pull for fhts.com
2021-06-21 23:12:52,405 INFO scheduler Scheduled Job Start: frappe.email.queue.flush for fhts.com
2021-06-21 23:12:52,672 INFO scheduler Scheduled Job Complete: frappe.email.queue.flush for fhts.com
2021-06-21 23:13:47,528 DEBUG scheduler Queued events for site fhts.com
2021-06-21 23:14:47,741 DEBUG scheduler Queued events for site fhts.com
2021-06-21 23:15:47,971 DEBUG scheduler Queued events for site fhts.com
2021-06-21 23:15:48,020 INFO scheduler Scheduled Job Start: frappe.twofactor.delete_all_barcodes_for_users for fhts.com
2021-06-21 23:15:49,122 INFO scheduler Scheduled Job Complete: frappe.twofactor.delete_all_barcodes_for_users for fhts.com
2021-06-21 23:15:49,217 INFO scheduler Scheduled Job Start: frappe.website.doctype.web_page.web_page.check_publish_status for fhts.com
2021-06-21 23:15:49,900 INFO scheduler Scheduled Job Complete: frappe.website.doctype.web_page.web_page.check_publish_status for fhts.com
2021-06-21 23:15:50,062 INFO scheduler Scheduled Job Start: frappe.oauth.delete_oauth2_data for fhts.com
2021-06-21 23:15:50,593 INFO scheduler Scheduled Job Complete: frappe.oauth.delete_oauth2_data for fhts.com
2021-06-21 23:16:48,177 DEBUG scheduler Queued events for site fhts.com
2021-06-21 23:16:48,207 INFO scheduler Scheduled Job Start: frappe.monitor.flush for fhts.com
2021-06-21 23:16:48,379 INFO scheduler Scheduled Job Complete: frappe.monitor.flush for fhts.com
2021-06-21 23:16:48,471 INFO scheduler Scheduled Job Start: frappe.utils.global_search.sync_global_search for fhts.com
2021-06-21 23:16:48,758 INFO scheduler Scheduled Job Complete: frappe.utils.global_search.sync_global_search for fhts.com
2021-06-21 23:16:48,868 INFO scheduler Scheduled Job Start: frappe.integrations.doctype.razorpay_settings.razorpay_settings.capture_payment for fhts.com
2021-06-21 23:16:49,207 INFO scheduler Scheduled Job Complete: frappe.integrations.doctype.razorpay_settings.razorpay_settings.capture_payment for fhts.com
2021-06-21 23:16:49,272 INFO scheduler Scheduled Job Start: frappe.email.doctype.email_account.email_account.notify_unreplied for fhts.com
2021-06-21 23:16:49,602 INFO scheduler Scheduled Job Complete: frappe.email.doctype.email_account.email_account.notify_unreplied for fhts.com
2021-06-21 23:16:49,665 INFO scheduler Scheduled Job Start: frappe.email.doctype.email_account.email_account.pull for fhts.com
2021-06-21 23:16:49,965 INFO scheduler Scheduled Job Complete: frappe.email.doctype.email_account.email_account.pull for fhts.com
2021-06-21 23:16:50,027 INFO scheduler Scheduled Job Start: frappe.email.queue.flush for fhts.com
2021-06-21 23:16:50,328 INFO scheduler Scheduled Job Complete: frappe.email.queue.flush for fhts.com
2021-06-21 23:17:48,404 DEBUG scheduler Queued events for site fhts.com
2021-06-21 23:18:48,623 DEBUG scheduler Queued events for site fhts.com
2021-06-21 23:19:48,811 DEBUG scheduler Queued events for site fhts.com
2021-06-21 23:20:49,051 DEBUG scheduler Queued events for site fhts.com
2021-06-21 23:20:49,083 INFO scheduler Scheduled Job Start: frappe.monitor.flush for fhts.com
2021-06-21 23:20:49,249 INFO scheduler Scheduled Job Complete: frappe.monitor.flush for fhts.com
2021-06-21 23:20:49,332 INFO scheduler Scheduled Job Start: frappe.utils.global_search.sync_global_search for fhts.com
2021-06-21 23:20:49,470 INFO scheduler Scheduled Job Complete: frappe.utils.global_search.sync_global_search for fhts.com
2021-06-21 23:20:49,533 INFO scheduler Scheduled Job Start: frappe.integrations.doctype.razorpay_settings.razorpay_settings.capture_payment for fhts.com
2021-06-21 23:20:49,854 INFO scheduler Scheduled Job Complete: frappe.integrations.doctype.razorpay_settings.razorpay_settings.capture_payment for fhts.com
2021-06-21 23:20:49,919 INFO scheduler Scheduled Job Start: frappe.email.doctype.email_account.email_account.notify_unreplied for fhts.com
2021-06-21 23:20:50,202 INFO scheduler Scheduled Job Complete: frappe.email.doctype.email_account.email_account.notify_unreplied for fhts.com
2021-06-21 23:20:50,265 INFO scheduler Scheduled Job Start: frappe.email.doctype.email_account.email_account.pull for fhts.com
2021-06-21 23:20:50,622 INFO scheduler Scheduled Job Complete: frappe.email.doctype.email_account.email_account.pull for fhts.com
2021-06-21 23:20:50,685 INFO scheduler Scheduled Job Start: frappe.email.queue.flush for fhts.com
2021-06-21 23:20:50,975 INFO scheduler Scheduled Job Complete: frappe.email.queue.flush for fhts.com
2021-06-21 23:21:49,267 DEBUG scheduler Queued events for site fhts.com
2021-06-21 23:22:49,491 DEBUG scheduler Queued events for site fhts.com
2021-06-21 23:23:49,697 DEBUG scheduler Queued events for site fhts.com
2021-06-21 23:24:49,946 DEBUG scheduler Queued events for site fhts.com
2021-06-21 23:24:49,975 INFO scheduler Scheduled Job Start: frappe.monitor.flush for fhts.com
2021-06-21 23:24:50,159 INFO scheduler Scheduled Job Complete: frappe.monitor.flush for fhts.com
2021-06-21 23:24:50,249 INFO scheduler Scheduled Job Start: frappe.utils.global_search.sync_global_search for fhts.com
2021-06-21 23:24:50,391 INFO scheduler Scheduled Job Complete: frappe.utils.global_search.sync_global_search for fhts.com
2021-06-21 23:24:50,454 INFO scheduler Scheduled Job Start: frappe.integrations.doctype.razorpay_settings.razorpay_settings.capture_payment for fhts.com
2021-06-21 23:24:50,781 INFO scheduler Scheduled Job Complete: frappe.integrations.doctype.razorpay_settings.razorpay_settings.capture_payment for fhts.com
2021-06-21 23:24:50,843 INFO scheduler Scheduled Job Start: frappe.email.doctype.email_account.email_account.notify_unreplied for fhts.com
2021-06-21 23:24:51,104 INFO scheduler Scheduled Job Complete: frappe.email.doctype.email_account.email_account.notify_unreplied for fhts.com
2021-06-21 23:24:51,167 INFO scheduler Scheduled Job Start: frappe.email.doctype.email_account.email_account.pull for fhts.com
2021-06-21 23:24:51,534 INFO scheduler Scheduled Job Complete: frappe.email.doctype.email_account.email_account.pull for fhts.com
2021-06-21 23:24:51,597 INFO scheduler Scheduled Job Start: frappe.email.queue.flush for fhts.com
2021-06-21 23:24:51,906 INFO scheduler Scheduled Job Complete: frappe.email.queue.flush for fhts.com
2021-06-21 23:25:50,155 DEBUG scheduler Queued events for site fhts.com
2021-06-21 23:26:50,398 DEBUG scheduler Queued events for site fhts.com
2021-06-21 23:27:50,624 DEBUG scheduler Queued events for site fhts.com
2021-06-21 23:28:50,871 DEBUG scheduler Queued events for site fhts.com
2021-06-21 23:28:50,901 INFO scheduler Scheduled Job Start: frappe.monitor.flush for fhts.com
2021-06-21 23:28:51,082 INFO scheduler Scheduled Job Complete: frappe.monitor.flush for fhts.com
2021-06-21 23:28:51,195 INFO scheduler Scheduled Job Start: frappe.utils.global_search.sync_global_search for fhts.com
2021-06-21 23:28:51,335 INFO scheduler Scheduled Job Complete: frappe.utils.global_search.sync_global_search for fhts.com
2021-06-21 23:28:51,397 INFO scheduler Scheduled Job Start: frappe.integrations.doctype.razorpay_settings.razorpay_settings.capture_payment for fhts.com
2021-06-21 23:28:51,731 INFO scheduler Scheduled Job Complete: frappe.integrations.doctype.razorpay_settings.razorpay_settings.capture_payment for fhts.com
2021-06-21 23:28:51,794 INFO scheduler Scheduled Job Start: frappe.email.doctype.email_account.email_account.notify_unreplied for fhts.com
2021-06-21 23:28:52,082 INFO scheduler Scheduled Job Complete: frappe.email.doctype.email_account.email_account.notify_unreplied for fhts.com
2021-06-21 23:28:52,146 INFO scheduler Scheduled Job Start: frappe.email.doctype.email_account.email_account.pull for fhts.com
2021-06-21 23:28:52,509 INFO scheduler Scheduled Job Complete: frappe.email.doctype.email_account.email_account.pull for fhts.com
2021-06-21 23:28:52,572 INFO scheduler Scheduled Job Start: frappe.email.queue.flush for fhts.com
2021-06-21 23:28:52,864 INFO scheduler Scheduled Job Complete: frappe.email.queue.flush for fhts.com
2021-06-21 23:29:51,094 DEBUG scheduler Queued events for site fhts.com
2021-06-21 23:30:51,306 DEBUG scheduler Queued events for site fhts.com
2021-06-21 23:30:51,448 INFO scheduler Scheduled Job Start: frappe.twofactor.delete_all_barcodes_for_users for fhts.com
2021-06-21 23:30:52,591 INFO scheduler Scheduled Job Complete: frappe.twofactor.delete_all_barcodes_for_users for fhts.com
2021-06-21 23:30:52,738 INFO scheduler Scheduled Job Start: frappe.website.doctype.web_page.web_page.check_publish_status for fhts.com
2021-06-21 23:30:53,674 INFO scheduler Scheduled Job Complete: frappe.website.doctype.web_page.web_page.check_publish_status for fhts.com
2021-06-21 23:30:53,774 INFO scheduler Scheduled Job Start: frappe.oauth.delete_oauth2_data for fhts.com
2021-06-21 23:30:54,339 INFO scheduler Scheduled Job Complete: frappe.oauth.delete_oauth2_data for fhts.com
2021-06-21 23:31:51,495 DEBUG scheduler Queued events for site fhts.com
2021-06-21 23:32:51,848 DEBUG scheduler Queued events for site fhts.com
2021-06-21 23:32:51,891 INFO scheduler Scheduled Job Start: frappe.monitor.flush for fhts.com
2021-06-21 23:32:52,174 INFO scheduler Scheduled Job Complete: frappe.monitor.flush for fhts.com
2021-06-21 23:32:52,241 INFO scheduler Scheduled Job Start: frappe.utils.global_search.sync_global_search for fhts.com
2021-06-21 23:32:52,373 INFO scheduler Scheduled Job Complete: frappe.utils.global_search.sync_global_search for fhts.com
2021-06-21 23:32:52,439 INFO scheduler Scheduled Job Start: frappe.integrations.doctype.razorpay_settings.razorpay_settings.capture_payment for fhts.com
2021-06-21 23:32:52,783 INFO scheduler Scheduled Job Complete: frappe.integrations.doctype.razorpay_settings.razorpay_settings.capture_payment for fhts.com
2021-06-21 23:32:52,847 INFO scheduler Scheduled Job Start: frappe.email.doctype.email_account.email_account.notify_unreplied for fhts.com
2021-06-21 23:32:53,218 INFO scheduler Scheduled Job Complete: frappe.email.doctype.email_account.email_account.notify_unreplied for fhts.com
2021-06-21 23:32:53,326 INFO scheduler Scheduled Job Start: frappe.email.doctype.email_account.email_account.pull for fhts.com
2021-06-21 23:32:53,776 INFO scheduler Scheduled Job Complete: frappe.email.doctype.email_account.email_account.pull for fhts.com
2021-06-21 23:32:53,874 INFO scheduler Scheduled Job Start: frappe.email.queue.flush for fhts.com
2021-06-21 23:32:54,237 INFO scheduler Scheduled Job Complete: frappe.email.queue.flush for fhts.com
2021-06-21 23:33:52,084 DEBUG scheduler Queued events for site fhts.com
2021-06-21 23:34:52,295 DEBUG scheduler Queued events for site fhts.com
2021-06-21 23:35:52,483 DEBUG scheduler Queued events for site fhts.com
2021-06-21 23:36:52,728 DEBUG scheduler Queued events for site fhts.com
2021-06-21 23:36:52,759 INFO scheduler Scheduled Job Start: frappe.monitor.flush for fhts.com
2021-06-21 23:36:52,977 INFO scheduler Scheduled Job Complete: frappe.monitor.flush for fhts.com
2021-06-21 23:36:53,049 INFO scheduler Scheduled Job Start: frappe.utils.global_search.sync_global_search for fhts.com
2021-06-21 23:36:53,187 INFO scheduler Scheduled Job Complete: frappe.utils.global_search.sync_global_search for fhts.com
2021-06-21 23:36:53,252 INFO scheduler Scheduled Job Start: frappe.integrations.doctype.razorpay_settings.razorpay_settings.capture_payment for fhts.com
2021-06-21 23:36:53,573 INFO scheduler Scheduled Job Complete: frappe.integrations.doctype.razorpay_settings.razorpay_settings.capture_payment for fhts.com
2021-06-21 23:36:53,646 INFO scheduler Scheduled Job Start: frappe.email.doctype.email_account.email_account.notify_unreplied for fhts.com
2021-06-21 23:36:53,910 INFO scheduler Scheduled Job Complete: frappe.email.doctype.email_account.email_account.notify_unreplied for fhts.com
2021-06-21 23:36:53,974 INFO scheduler Scheduled Job Start: frappe.email.doctype.email_account.email_account.pull for fhts.com
2021-06-21 23:36:54,340 INFO scheduler Scheduled Job Complete: frappe.email.doctype.email_account.email_account.pull for fhts.com
2021-06-21 23:36:54,402 INFO scheduler Scheduled Job Start: frappe.email.queue.flush for fhts.com
2021-06-21 23:36:54,696 INFO scheduler Scheduled Job Complete: frappe.email.queue.flush for fhts.com
2021-06-21 23:37:52,934 DEBUG scheduler Queued events for site fhts.com
2021-06-21 23:38:53,128 DEBUG scheduler Queued events for site fhts.com
2021-06-21 23:39:53,483 DEBUG scheduler Queued events for site fhts.com
2021-06-21 23:40:53,707 DEBUG scheduler Queued events for site fhts.com
2021-06-21 23:40:53,735 INFO scheduler Scheduled Job Start: frappe.monitor.flush for fhts.com
2021-06-21 23:40:53,908 INFO scheduler Scheduled Job Complete: frappe.monitor.flush for fhts.com
2021-06-21 23:40:54,017 INFO scheduler Scheduled Job Start: frappe.utils.global_search.sync_global_search for fhts.com
2021-06-21 23:40:54,150 INFO scheduler Scheduled Job Complete: frappe.utils.global_search.sync_global_search for fhts.com
2021-06-21 23:40:54,213 INFO scheduler Scheduled Job Start: frappe.integrations.doctype.razorpay_settings.razorpay_settings.capture_payment for fhts.com
2021-06-21 23:40:54,536 INFO scheduler Scheduled Job Complete: frappe.integrations.doctype.razorpay_settings.razorpay_settings.capture_payment for fhts.com
2021-06-21 23:40:54,599 INFO scheduler Scheduled Job Start: frappe.email.doctype.email_account.email_account.notify_unreplied for fhts.com
2021-06-21 23:40:54,898 INFO scheduler Scheduled Job Complete: frappe.email.doctype.email_account.email_account.notify_unreplied for fhts.com
2021-06-21 23:40:54,962 INFO scheduler Scheduled Job Start: frappe.email.doctype.email_account.email_account.pull for fhts.com
2021-06-21 23:40:55,257 INFO scheduler Scheduled Job Complete: frappe.email.doctype.email_account.email_account.pull for fhts.com
2021-06-21 23:40:55,319 INFO scheduler Scheduled Job Start: frappe.email.queue.flush for fhts.com
2021-06-21 23:40:55,547 INFO scheduler Scheduled Job Complete: frappe.email.queue.flush for fhts.com
2021-06-21 23:41:53,926 DEBUG scheduler Queued events for site fhts.com
2021-06-21 23:42:54,134 DEBUG scheduler Queued events for site fhts.com
2021-06-21 23:43:54,428 DEBUG scheduler Queued events for site fhts.com
2021-06-21 23:44:54,665 DEBUG scheduler Queued events for site fhts.com
2021-06-21 23:44:54,696 INFO scheduler Scheduled Job Start: frappe.monitor.flush for fhts.com
2021-06-21 23:44:54,873 INFO scheduler Scheduled Job Complete: frappe.monitor.flush for fhts.com
2021-06-21 23:44:54,982 INFO scheduler Scheduled Job Start: frappe.utils.global_search.sync_global_search for fhts.com
2021-06-21 23:44:55,127 INFO scheduler Scheduled Job Complete: frappe.utils.global_search.sync_global_search for fhts.com
2021-06-21 23:44:55,191 INFO scheduler Scheduled Job Start: frappe.integrations.doctype.razorpay_settings.razorpay_settings.capture_payment for fhts.com
2021-06-21 23:44:55,525 INFO scheduler Scheduled Job Complete: frappe.integrations.doctype.razorpay_settings.razorpay_settings.capture_payment for fhts.com
2021-06-21 23:44:55,588 INFO scheduler Scheduled Job Start: frappe.email.doctype.email_account.email_account.notify_unreplied for fhts.com
2021-06-21 23:44:55,878 INFO scheduler Scheduled Job Complete: frappe.email.doctype.email_account.email_account.notify_unreplied for fhts.com
2021-06-21 23:44:55,941 INFO scheduler Scheduled Job Start: frappe.email.doctype.email_account.email_account.pull for fhts.com
2021-06-21 23:44:56,298 INFO scheduler Scheduled Job Complete: frappe.email.doctype.email_account.email_account.pull for fhts.com
2021-06-21 23:44:56,362 INFO scheduler Scheduled Job Start: frappe.email.queue.flush for fhts.com
2021-06-21 23:44:56,624 INFO scheduler Scheduled Job Complete: frappe.email.queue.flush for fhts.com
2021-06-21 23:45:54,881 DEBUG scheduler Queued events for site fhts.com
2021-06-21 23:45:54,930 INFO scheduler Scheduled Job Start: frappe.twofactor.delete_all_barcodes_for_users for fhts.com
2021-06-21 23:45:55,330 INFO scheduler Scheduled Job Complete: frappe.twofactor.delete_all_barcodes_for_users for fhts.com
2021-06-21 23:45:55,431 INFO scheduler Scheduled Job Start: frappe.website.doctype.web_page.web_page.check_publish_status for fhts.com
2021-06-21 23:45:56,222 INFO scheduler Scheduled Job Complete: frappe.website.doctype.web_page.web_page.check_publish_status for fhts.com
2021-06-21 23:45:56,370 INFO scheduler Scheduled Job Start: frappe.oauth.delete_oauth2_data for fhts.com
2021-06-21 23:45:56,775 INFO scheduler Scheduled Job Complete: frappe.oauth.delete_oauth2_data for fhts.com
2021-06-21 23:46:55,100 DEBUG scheduler Queued events for site fhts.com
2021-06-21 23:47:55,310 DEBUG scheduler Queued events for site fhts.com
2021-06-23 11:14:47,221 DEBUG scheduler Queued events for site fhts.com
2021-06-23 11:14:47,486 INFO scheduler Scheduled Job Start: frappe.integrations.doctype.google_drive.google_drive.daily_backup for fhts.com
2021-06-23 11:14:47,486 INFO scheduler Scheduled Job Start: frappe.core.doctype.log_settings.log_settings.run_log_clean_up for fhts.com
2021-06-23 11:14:53,466 INFO scheduler Scheduled Job Complete: frappe.core.doctype.log_settings.log_settings.run_log_clean_up for fhts.com
2021-06-23 11:14:53,651 INFO scheduler Scheduled Job Start: frappe.core.doctype.prepared_report.prepared_report.delete_expired_prepared_reports for fhts.com
2021-06-23 11:14:54,486 INFO scheduler Scheduled Job Complete: frappe.core.doctype.prepared_report.prepared_report.delete_expired_prepared_reports for fhts.com
2021-06-23 11:14:54,661 INFO scheduler Scheduled Job Start: frappe.email.doctype.unhandled_email.unhandled_email.remove_old_unhandled_emails for fhts.com
2021-06-23 11:14:55,224 INFO scheduler Scheduled Job Complete: frappe.email.doctype.unhandled_email.unhandled_email.remove_old_unhandled_emails for fhts.com
2021-06-23 11:14:55,372 INFO scheduler Scheduled Job Start: frappe.automation.doctype.auto_repeat.auto_repeat.set_auto_repeat_as_completed for fhts.com
2021-06-23 11:14:56,222 INFO scheduler Scheduled Job Complete: frappe.automation.doctype.auto_repeat.auto_repeat.set_auto_repeat_as_completed for fhts.com
2021-06-23 11:14:56,361 INFO scheduler Scheduled Job Complete: frappe.integrations.doctype.google_drive.google_drive.daily_backup for fhts.com
2021-06-23 11:14:56,361 INFO scheduler Scheduled Job Start: frappe.automation.doctype.auto_repeat.auto_repeat.make_auto_repeat_entry for fhts.com
2021-06-23 11:14:56,452 INFO scheduler Scheduled Job Start: frappe.integrations.doctype.s3_backup_settings.s3_backup_settings.take_backups_daily for fhts.com
2021-06-23 11:14:56,747 INFO scheduler Scheduled Job Complete: frappe.automation.doctype.auto_repeat.auto_repeat.make_auto_repeat_entry for fhts.com
2021-06-23 11:14:56,838 INFO scheduler Scheduled Job Start: frappe.integrations.doctype.google_contacts.google_contacts.sync for fhts.com
2021-06-23 11:14:57,154 INFO scheduler Scheduled Job Complete: frappe.integrations.doctype.s3_backup_settings.s3_backup_settings.take_backups_daily for fhts.com
2021-06-23 11:14:57,300 INFO scheduler Scheduled Job Start: frappe.utils.change_log.check_for_update for fhts.com
2021-06-23 11:14:57,458 INFO scheduler Scheduled Job Complete: frappe.integrations.doctype.google_contacts.google_contacts.sync for fhts.com
2021-06-23 11:14:57,573 INFO scheduler Scheduled Job Start: frappe.social.doctype.energy_point_settings.energy_point_settings.allocate_review_points for fhts.com
2021-06-23 11:14:58,375 INFO scheduler Scheduled Job Complete: frappe.social.doctype.energy_point_settings.energy_point_settings.allocate_review_points for fhts.com
2021-06-23 11:14:58,532 INFO scheduler Scheduled Job Start: frappe.desk.form.document_follow.send_daily_updates for fhts.com
2021-06-23 11:14:58,804 INFO scheduler Scheduled Job Complete: frappe.utils.change_log.check_for_update for fhts.com
2021-06-23 11:14:59,011 INFO scheduler Scheduled Job Start: frappe.integrations.doctype.dropbox_settings.dropbox_settings.take_backups_daily for fhts.com
2021-06-23 11:14:59,242 INFO scheduler Scheduled Job Complete: frappe.desk.form.document_follow.send_daily_updates for fhts.com
2021-06-23 11:14:59,335 INFO scheduler Scheduled Job Start: frappe.website.doctype.personal_data_deletion_request.personal_data_deletion_request.remove_unverified_record for fhts.com
2021-06-23 11:14:59,707 INFO scheduler Scheduled Job Complete: frappe.integrations.doctype.dropbox_settings.dropbox_settings.take_backups_daily for fhts.com
2021-06-23 11:14:59,774 INFO scheduler Scheduled Job Complete: frappe.website.doctype.personal_data_deletion_request.personal_data_deletion_request.remove_unverified_record for fhts.com
2021-06-23 11:15:00,654 INFO scheduler Scheduled Job Start: frappe.email.doctype.auto_email_report.auto_email_report.send_daily for fhts.com
2021-06-23 11:15:03,588 INFO scheduler Scheduled Job Complete: frappe.email.doctype.auto_email_report.auto_email_report.send_daily for fhts.com
2021-06-23 11:15:03,750 INFO scheduler Scheduled Job Start: frappe.utils.scheduler.restrict_scheduler_events_if_dormant for fhts.com
2021-06-23 11:15:04,122 INFO scheduler Scheduled Job Failed: frappe.utils.scheduler.restrict_scheduler_events_if_dormant for fhts.com
2021-06-23 11:15:04,316 INFO scheduler Scheduled Job Start: frappe.realtime.remove_old_task_logs for fhts.com
2021-06-23 11:15:04,886 INFO scheduler Scheduled Job Complete: frappe.realtime.remove_old_task_logs for fhts.com
2021-06-23 11:15:05,090 INFO scheduler Scheduled Job Start: frappe.email.doctype.notification.notification.trigger_daily_alerts for fhts.com
2021-06-23 11:15:05,574 INFO scheduler Scheduled Job Complete: frappe.email.doctype.notification.notification.trigger_daily_alerts for fhts.com
2021-06-23 11:15:05,694 INFO scheduler Scheduled Job Start: frappe.sessions.clear_expired_sessions for fhts.com
2021-06-23 11:15:07,782 INFO scheduler Scheduled Job Complete: frappe.sessions.clear_expired_sessions for fhts.com
2021-06-23 11:15:07,912 INFO scheduler Scheduled Job Start: frappe.desk.doctype.event.event.send_event_digest for fhts.com
2021-06-23 11:15:08,435 INFO scheduler Scheduled Job Complete: frappe.desk.doctype.event.event.send_event_digest for fhts.com
2021-06-23 11:15:08,557 INFO scheduler Scheduled Job Start: frappe.core.doctype.error_log.error_log.set_old_logs_as_seen for fhts.com
2021-06-23 11:15:08,954 INFO scheduler Scheduled Job Complete: frappe.core.doctype.error_log.error_log.set_old_logs_as_seen for fhts.com
2021-06-23 11:15:09,093 INFO scheduler Scheduled Job Start: frappe.desk.notifications.clear_notifications for fhts.com
2021-06-23 11:15:09,447 INFO scheduler Scheduled Job Complete: frappe.desk.notifications.clear_notifications for fhts.com
2021-06-23 11:15:09,588 INFO scheduler Scheduled Job Start: frappe.email.queue.set_expiry_for_email_queue for fhts.com
2021-06-23 11:15:09,960 INFO scheduler Scheduled Job Complete: frappe.email.queue.set_expiry_for_email_queue for fhts.com
2021-06-23 11:15:10,062 INFO scheduler Scheduled Job Start: frappe.email.doctype.newsletter.newsletter.send_scheduled_email for fhts.com
2021-06-23 11:15:11,063 INFO scheduler Scheduled Job Complete: frappe.email.doctype.newsletter.newsletter.send_scheduled_email for fhts.com
2021-06-23 11:15:11,219 INFO scheduler Scheduled Job Start: frappe.integrations.doctype.google_calendar.google_calendar.sync for fhts.com
2021-06-23 11:15:11,796 INFO scheduler Scheduled Job Complete: frappe.integrations.doctype.google_calendar.google_calendar.sync for fhts.com
2021-06-23 11:15:11,950 INFO scheduler Scheduled Job Start: frappe.desk.form.document_follow.send_hourly_updates for fhts.com
2021-06-23 11:15:12,304 INFO scheduler Scheduled Job Complete: frappe.desk.form.document_follow.send_hourly_updates for fhts.com
2021-06-23 11:15:12,455 INFO scheduler Scheduled Job Start: frappe.deferred_insert.save_to_db for fhts.com
2021-06-23 11:15:12,820 INFO scheduler Scheduled Job Complete: frappe.deferred_insert.save_to_db for fhts.com
2021-06-23 11:15:12,980 INFO scheduler Scheduled Job Start: frappe.desk.page.backups.backups.delete_downloadable_backups for fhts.com
2021-06-23 11:15:13,430 INFO scheduler Scheduled Job Complete: frappe.desk.page.backups.backups.delete_downloadable_backups for fhts.com
2021-06-23 11:15:13,532 INFO scheduler Scheduled Job Start: frappe.utils.error.collect_error_snapshots for fhts.com
2021-06-23 11:15:14,017 INFO scheduler Scheduled Job Complete: frappe.utils.error.collect_error_snapshots for fhts.com
2021-06-23 11:15:14,175 INFO scheduler Scheduled Job Start: frappe.model.utils.user_settings.sync_user_settings for fhts.com
2021-06-23 11:15:14,673 INFO scheduler Scheduled Job Complete: frappe.model.utils.user_settings.sync_user_settings for fhts.com
2021-06-23 11:15:14,953 INFO scheduler Scheduled Job Start: frappe.model.utils.link_count.update_link_count for fhts.com
2021-06-23 11:15:15,474 INFO scheduler Scheduled Job Complete: frappe.model.utils.link_count.update_link_count for fhts.com
2021-06-23 11:15:15,609 INFO scheduler Scheduled Job Start: frappe.monitor.flush for fhts.com
2021-06-23 11:15:15,806 INFO scheduler Scheduled Job Complete: frappe.monitor.flush for fhts.com
2021-06-23 11:15:15,877 INFO scheduler Scheduled Job Start: frappe.utils.global_search.sync_global_search for fhts.com
2021-06-23 11:15:16,075 INFO scheduler Scheduled Job Complete: frappe.utils.global_search.sync_global_search for fhts.com
2021-06-23 11:15:16,171 INFO scheduler Scheduled Job Start: frappe.integrations.doctype.razorpay_settings.razorpay_settings.capture_payment for fhts.com
2021-06-23 11:15:16,899 INFO scheduler Scheduled Job Complete: frappe.integrations.doctype.razorpay_settings.razorpay_settings.capture_payment for fhts.com
2021-06-23 11:15:16,992 INFO scheduler Scheduled Job Start: frappe.email.doctype.email_account.email_account.notify_unreplied for fhts.com
2021-06-23 11:15:17,755 INFO scheduler Scheduled Job Complete: frappe.email.doctype.email_account.email_account.notify_unreplied for fhts.com
2021-06-23 11:15:17,819 INFO scheduler Scheduled Job Start: frappe.email.doctype.email_account.email_account.pull for fhts.com
2021-06-23 11:15:18,110 INFO scheduler Scheduled Job Complete: frappe.email.doctype.email_account.email_account.pull for fhts.com
2021-06-23 11:15:18,173 INFO scheduler Scheduled Job Start: frappe.email.queue.flush for fhts.com
2021-06-23 11:15:18,477 INFO scheduler Scheduled Job Complete: frappe.email.queue.flush for fhts.com
2021-06-23 11:15:18,544 INFO scheduler Scheduled Job Start: frappe.twofactor.delete_all_barcodes_for_users for fhts.com
2021-06-23 11:15:19,046 INFO scheduler Scheduled Job Complete: frappe.twofactor.delete_all_barcodes_for_users for fhts.com
2021-06-23 11:15:19,139 INFO scheduler Scheduled Job Start: frappe.website.doctype.web_page.web_page.check_publish_status for fhts.com
2021-06-23 11:15:19,927 INFO scheduler Scheduled Job Complete: frappe.website.doctype.web_page.web_page.check_publish_status for fhts.com
2021-06-23 11:15:20,043 INFO scheduler Scheduled Job Start: frappe.oauth.delete_oauth2_data for fhts.com
2021-06-23 11:15:20,788 INFO scheduler Scheduled Job Complete: frappe.oauth.delete_oauth2_data for fhts.com
2021-06-23 11:15:47,586 DEBUG scheduler Queued events for site fhts.com
2021-06-23 11:16:47,813 DEBUG scheduler Queued events for site fhts.com
2021-06-23 11:16:47,840 INFO scheduler Scheduled Job Start: frappe.monitor.flush for fhts.com
2021-06-23 11:16:48,011 INFO scheduler Scheduled Job Complete: frappe.monitor.flush for fhts.com
2021-06-23 11:16:48,121 INFO scheduler Scheduled Job Start: frappe.utils.global_search.sync_global_search for fhts.com
2021-06-23 11:16:48,253 INFO scheduler Scheduled Job Complete: frappe.utils.global_search.sync_global_search for fhts.com
2021-06-23 11:16:48,341 INFO scheduler Scheduled Job Start: frappe.integrations.doctype.razorpay_settings.razorpay_settings.capture_payment for fhts.com
2021-06-23 11:16:48,657 INFO scheduler Scheduled Job Complete: frappe.integrations.doctype.razorpay_settings.razorpay_settings.capture_payment for fhts.com
2021-06-23 11:16:48,717 INFO scheduler Scheduled Job Start: frappe.email.doctype.email_account.email_account.notify_unreplied for fhts.com
2021-06-23 11:16:49,028 INFO scheduler Scheduled Job Complete: frappe.email.doctype.email_account.email_account.notify_unreplied for fhts.com
2021-06-23 11:16:49,092 INFO scheduler Scheduled Job Start: frappe.email.doctype.email_account.email_account.pull for fhts.com
2021-06-23 11:16:49,361 INFO scheduler Scheduled Job Complete: frappe.email.doctype.email_account.email_account.pull for fhts.com
2021-06-23 11:16:49,422 INFO scheduler Scheduled Job Start: frappe.email.queue.flush for fhts.com
2021-06-23 11:16:49,747 INFO scheduler Scheduled Job Complete: frappe.email.queue.flush for fhts.com
2021-06-23 11:17:48,002 DEBUG scheduler Queued events for site fhts.com
2021-06-23 11:18:48,228 DEBUG scheduler Queued events for site fhts.com
2021-06-23 11:19:48,465 DEBUG scheduler Queued events for site fhts.com
2021-06-23 11:20:48,711 DEBUG scheduler Queued events for site fhts.com
2021-06-23 11:20:48,736 INFO scheduler Scheduled Job Start: frappe.monitor.flush for fhts.com
2021-06-23 11:20:48,910 INFO scheduler Scheduled Job Complete: frappe.monitor.flush for fhts.com
2021-06-23 11:20:49,009 INFO scheduler Scheduled Job Start: frappe.utils.global_search.sync_global_search for fhts.com
2021-06-23 11:20:49,154 INFO scheduler Scheduled Job Complete: frappe.utils.global_search.sync_global_search for fhts.com
2021-06-23 11:20:49,215 INFO scheduler Scheduled Job Start: frappe.integrations.doctype.razorpay_settings.razorpay_settings.capture_payment for fhts.com
2021-06-23 11:20:49,552 INFO scheduler Scheduled Job Complete: frappe.integrations.doctype.razorpay_settings.razorpay_settings.capture_payment for fhts.com
2021-06-23 11:20:49,614 INFO scheduler Scheduled Job Start: frappe.email.doctype.email_account.email_account.notify_unreplied for fhts.com
2021-06-23 11:20:49,940 INFO scheduler Scheduled Job Complete: frappe.email.doctype.email_account.email_account.notify_unreplied for fhts.com
2021-06-23 11:20:50,001 INFO scheduler Scheduled Job Start: frappe.email.doctype.email_account.email_account.pull for fhts.com
2021-06-23 11:20:50,348 INFO scheduler Scheduled Job Complete: frappe.email.doctype.email_account.email_account.pull for fhts.com
2021-06-23 11:20:50,410 INFO scheduler Scheduled Job Start: frappe.email.queue.flush for fhts.com
2021-06-23 11:20:50,639 INFO scheduler Scheduled Job Complete: frappe.email.queue.flush for fhts.com
2021-06-23 11:21:48,904 DEBUG scheduler Queued events for site fhts.com
2021-06-23 11:22:49,117 DEBUG scheduler Queued events for site fhts.com
2021-06-23 11:23:49,326 DEBUG scheduler Queued events for site fhts.com
2021-06-23 11:24:49,571 DEBUG scheduler Queued events for site fhts.com
2021-06-23 11:24:49,601 INFO scheduler Scheduled Job Start: frappe.monitor.flush for fhts.com
2021-06-23 11:24:49,864 INFO scheduler Scheduled Job Complete: frappe.monitor.flush for fhts.com
2021-06-23 11:24:49,957 INFO scheduler Scheduled Job Start: frappe.utils.global_search.sync_global_search for fhts.com
2021-06-23 11:24:50,117 INFO scheduler Scheduled Job Complete: frappe.utils.global_search.sync_global_search for fhts.com
2021-06-23 11:24:50,180 INFO scheduler Scheduled Job Start: frappe.integrations.doctype.razorpay_settings.razorpay_settings.capture_payment for fhts.com
2021-06-23 11:24:50,550 INFO scheduler Scheduled Job Complete: frappe.integrations.doctype.razorpay_settings.razorpay_settings.capture_payment for fhts.com
2021-06-23 11:24:50,614 INFO scheduler Scheduled Job Start: frappe.email.doctype.email_account.email_account.notify_unreplied for fhts.com
2021-06-23 11:24:50,975 INFO scheduler Scheduled Job Complete: frappe.email.doctype.email_account.email_account.notify_unreplied for fhts.com
2021-06-23 11:24:51,037 INFO scheduler Scheduled Job Start: frappe.email.doctype.email_account.email_account.pull for fhts.com
2021-06-23 11:24:51,374 INFO scheduler Scheduled Job Complete: frappe.email.doctype.email_account.email_account.pull for fhts.com
2021-06-23 11:24:51,443 INFO scheduler Scheduled Job Start: frappe.email.queue.flush for fhts.com
2021-06-23 11:24:51,750 INFO scheduler Scheduled Job Complete: frappe.email.queue.flush for fhts.com
2021-06-23 11:25:49,788 DEBUG scheduler Queued events for site fhts.com
2021-06-23 11:26:49,990 DEBUG scheduler Queued events for site fhts.com
2021-06-23 11:27:50,210 DEBUG scheduler Queued events for site fhts.com
2021-06-23 11:28:50,450 DEBUG scheduler Queued events for site fhts.com
2021-06-23 11:28:50,477 INFO scheduler Scheduled Job Start: frappe.monitor.flush for fhts.com
2021-06-23 11:28:50,658 INFO scheduler Scheduled Job Complete: frappe.monitor.flush for fhts.com
2021-06-23 11:28:50,759 INFO scheduler Scheduled Job Start: frappe.utils.global_search.sync_global_search for fhts.com
2021-06-23 11:28:50,901 INFO scheduler Scheduled Job Complete: frappe.utils.global_search.sync_global_search for fhts.com
2021-06-23 11:28:50,962 INFO scheduler Scheduled Job Start: frappe.integrations.doctype.razorpay_settings.razorpay_settings.capture_payment for fhts.com
2021-06-23 11:28:51,454 INFO scheduler Scheduled Job Complete: frappe.integrations.doctype.razorpay_settings.razorpay_settings.capture_payment for fhts.com
2021-06-23 11:28:51,515 INFO scheduler Scheduled Job Start: frappe.email.doctype.email_account.email_account.notify_unreplied for fhts.com
2021-06-23 11:28:51,855 INFO scheduler Scheduled Job Complete: frappe.email.doctype.email_account.email_account.notify_unreplied for fhts.com
2021-06-23 11:28:51,917 INFO scheduler Scheduled Job Start: frappe.email.doctype.email_account.email_account.pull for fhts.com
2021-06-23 11:28:52,208 INFO scheduler Scheduled Job Complete: frappe.email.doctype.email_account.email_account.pull for fhts.com
2021-06-23 11:28:52,270 INFO scheduler Scheduled Job Start: frappe.email.queue.flush for fhts.com
2021-06-23 11:28:52,629 INFO scheduler Scheduled Job Complete: frappe.email.queue.flush for fhts.com
2021-06-23 11:29:50,804 DEBUG scheduler Queued events for site fhts.com
2021-06-23 11:30:51,343 DEBUG scheduler Queued events for site fhts.com
2021-06-23 11:30:52,044 INFO scheduler Scheduled Job Start: frappe.twofactor.delete_all_barcodes_for_users for fhts.com
2021-06-23 11:30:59,024 INFO scheduler Scheduled Job Complete: frappe.twofactor.delete_all_barcodes_for_users for fhts.com
2021-06-23 11:30:59,214 INFO scheduler Scheduled Job Start: frappe.website.doctype.web_page.web_page.check_publish_status for fhts.com
2021-06-23 11:31:00,430 INFO scheduler Scheduled Job Complete: frappe.website.doctype.web_page.web_page.check_publish_status for fhts.com
2021-06-23 11:31:00,542 INFO scheduler Scheduled Job Start: frappe.oauth.delete_oauth2_data for fhts.com
2021-06-23 11:31:01,505 INFO scheduler Scheduled Job Complete: frappe.oauth.delete_oauth2_data for fhts.com
2021-06-23 11:31:51,636 DEBUG scheduler Queued events for site fhts.com
2021-06-23 11:32:51,895 DEBUG scheduler Queued events for site fhts.com
2021-06-23 11:32:52,358 INFO scheduler Scheduled Job Start: frappe.monitor.flush for fhts.com
2021-06-23 11:32:52,994 INFO scheduler Scheduled Job Complete: frappe.monitor.flush for fhts.com
2021-06-23 11:32:53,102 INFO scheduler Scheduled Job Start: frappe.utils.global_search.sync_global_search for fhts.com
2021-06-23 11:32:53,268 INFO scheduler Scheduled Job Complete: frappe.utils.global_search.sync_global_search for fhts.com
2021-06-23 11:32:53,344 INFO scheduler Scheduled Job Start: frappe.integrations.doctype.razorpay_settings.razorpay_settings.capture_payment for fhts.com
2021-06-23 11:32:54,139 INFO scheduler Scheduled Job Complete: frappe.integrations.doctype.razorpay_settings.razorpay_settings.capture_payment for fhts.com
2021-06-23 11:32:54,207 INFO scheduler Scheduled Job Start: frappe.email.doctype.email_account.email_account.notify_unreplied for fhts.com
2021-06-23 11:32:54,974 INFO scheduler Scheduled Job Complete: frappe.email.doctype.email_account.email_account.notify_unreplied for fhts.com
2021-06-23 11:32:55,038 INFO scheduler Scheduled Job Start: frappe.email.doctype.email_account.email_account.pull for fhts.com
2021-06-23 11:32:55,339 INFO scheduler Scheduled Job Complete: frappe.email.doctype.email_account.email_account.pull for fhts.com
2021-06-23 11:32:55,402 INFO scheduler Scheduled Job Start: frappe.email.queue.flush for fhts.com
2021-06-23 11:32:55,727 INFO scheduler Scheduled Job Complete: frappe.email.queue.flush for fhts.com
2021-06-23 11:33:52,109 DEBUG scheduler Queued events for site fhts.com
2021-06-23 11:34:52,324 DEBUG scheduler Queued events for site fhts.com
2021-06-23 11:35:52,535 DEBUG scheduler Queued events for site fhts.com
2021-06-23 11:36:52,758 DEBUG scheduler Queued events for site fhts.com
2021-06-23 11:36:52,786 INFO scheduler Scheduled Job Start: frappe.monitor.flush for fhts.com
2021-06-23 11:36:52,965 INFO scheduler Scheduled Job Complete: frappe.monitor.flush for fhts.com
2021-06-23 11:36:53,083 INFO scheduler Scheduled Job Start: frappe.utils.global_search.sync_global_search for fhts.com
2021-06-23 11:36:53,231 INFO scheduler Scheduled Job Complete: frappe.utils.global_search.sync_global_search for fhts.com
2021-06-23 11:36:53,312 INFO scheduler Scheduled Job Start: frappe.integrations.doctype.razorpay_settings.razorpay_settings.capture_payment for fhts.com
2021-06-23 11:36:53,636 INFO scheduler Scheduled Job Complete: frappe.integrations.doctype.razorpay_settings.razorpay_settings.capture_payment for fhts.com
2021-06-23 11:36:53,699 INFO scheduler Scheduled Job Start: frappe.email.doctype.email_account.email_account.notify_unreplied for fhts.com
2021-06-23 11:36:54,028 INFO scheduler Scheduled Job Complete: frappe.email.doctype.email_account.email_account.notify_unreplied for fhts.com
2021-06-23 11:36:54,094 INFO scheduler Scheduled Job Start: frappe.email.doctype.email_account.email_account.pull for fhts.com
2021-06-23 11:36:54,471 INFO scheduler Scheduled Job Complete: frappe.email.doctype.email_account.email_account.pull for fhts.com
2021-06-23 11:36:54,535 INFO scheduler Scheduled Job Start: frappe.email.queue.flush for fhts.com
2021-06-23 11:36:54,823 INFO scheduler Scheduled Job Complete: frappe.email.queue.flush for fhts.com
2021-06-23 11:37:52,959 DEBUG scheduler Queued events for site fhts.com
2021-06-23 11:38:53,174 DEBUG scheduler Queued events for site fhts.com
2021-06-23 11:39:53,409 DEBUG scheduler Queued events for site fhts.com
2021-06-23 11:40:53,631 DEBUG scheduler Queued events for site fhts.com
2021-06-23 11:40:53,660 INFO scheduler Scheduled Job Start: frappe.monitor.flush for fhts.com
2021-06-23 11:40:53,832 INFO scheduler Scheduled Job Complete: frappe.monitor.flush for fhts.com
2021-06-23 11:40:53,924 INFO scheduler Scheduled Job Start: frappe.utils.global_search.sync_global_search for fhts.com
2021-06-23 11:40:54,064 INFO scheduler Scheduled Job Complete: frappe.utils.global_search.sync_global_search for fhts.com
2021-06-23 11:40:54,146 INFO scheduler Scheduled Job Start: frappe.integrations.doctype.razorpay_settings.razorpay_settings.capture_payment for fhts.com
2021-06-23 11:40:54,481 INFO scheduler Scheduled Job Complete: frappe.integrations.doctype.razorpay_settings.razorpay_settings.capture_payment for fhts.com
2021-06-23 11:40:54,545 INFO scheduler Scheduled Job Start: frappe.email.doctype.email_account.email_account.notify_unreplied for fhts.com
2021-06-23 11:40:54,832 INFO scheduler Scheduled Job Complete: frappe.email.doctype.email_account.email_account.notify_unreplied for fhts.com
2021-06-23 11:40:54,895 INFO scheduler Scheduled Job Start: frappe.email.doctype.email_account.email_account.pull for fhts.com
2021-06-23 11:40:55,241 INFO scheduler Scheduled Job Complete: frappe.email.doctype.email_account.email_account.pull for fhts.com
2021-06-23 11:40:55,305 INFO scheduler Scheduled Job Start: frappe.email.queue.flush for fhts.com
2021-06-23 11:40:55,580 INFO scheduler Scheduled Job Complete: frappe.email.queue.flush for fhts.com
2021-06-23 11:41:53,854 DEBUG scheduler Queued events for site fhts.com
2021-06-23 11:42:54,072 DEBUG scheduler Queued events for site fhts.com
2021-06-23 11:43:54,269 DEBUG scheduler Queued events for site fhts.com
2021-06-23 11:44:54,507 DEBUG scheduler Queued events for site fhts.com
2021-06-23 11:44:54,533 INFO scheduler Scheduled Job Start: frappe.monitor.flush for fhts.com
2021-06-23 11:44:54,709 INFO scheduler Scheduled Job Complete: frappe.monitor.flush for fhts.com
2021-06-23 11:44:54,808 INFO scheduler Scheduled Job Start: frappe.utils.global_search.sync_global_search for fhts.com
2021-06-23 11:44:54,953 INFO scheduler Scheduled Job Complete: frappe.utils.global_search.sync_global_search for fhts.com
2021-06-23 11:44:55,041 INFO scheduler Scheduled Job Start: frappe.integrations.doctype.razorpay_settings.razorpay_settings.capture_payment for fhts.com
2021-06-23 11:44:55,368 INFO scheduler Scheduled Job Complete: frappe.integrations.doctype.razorpay_settings.razorpay_settings.capture_payment for fhts.com
2021-06-23 11:44:55,432 INFO scheduler Scheduled Job Start: frappe.email.doctype.email_account.email_account.notify_unreplied for fhts.com
2021-06-23 11:44:55,757 INFO scheduler Scheduled Job Complete: frappe.email.doctype.email_account.email_account.notify_unreplied for fhts.com
2021-06-23 11:44:55,822 INFO scheduler Scheduled Job Start: frappe.email.doctype.email_account.email_account.pull for fhts.com
2021-06-23 11:44:56,106 INFO scheduler Scheduled Job Complete: frappe.email.doctype.email_account.email_account.pull for fhts.com
2021-06-23 11:44:56,168 INFO scheduler Scheduled Job Start: frappe.email.queue.flush for fhts.com
2021-06-23 11:44:56,483 INFO scheduler Scheduled Job Complete: frappe.email.queue.flush for fhts.com
2021-06-23 11:45:54,744 DEBUG scheduler Queued events for site fhts.com
2021-06-23 11:45:54,791 INFO scheduler Scheduled Job Start: frappe.twofactor.delete_all_barcodes_for_users for fhts.com
2021-06-23 11:45:55,629 INFO scheduler Scheduled Job Complete: frappe.twofactor.delete_all_barcodes_for_users for fhts.com
2021-06-23 11:45:55,721 INFO scheduler Scheduled Job Start: frappe.website.doctype.web_page.web_page.check_publish_status for fhts.com
2021-06-23 11:45:56,579 INFO scheduler Scheduled Job Complete: frappe.website.doctype.web_page.web_page.check_publish_status for fhts.com
